<?xml version="1.0" encoding="UTF-8" standalone="no"?>
<svg
   xmlns:dc="http://purl.org/dc/elements/1.1/"
   xmlns:cc="http://creativecommons.org/ns#"
   xmlns:rdf="http://www.w3.org/1999/02/22-rdf-syntax-ns#"
   xmlns:svg="http://www.w3.org/2000/svg"
   xmlns="http://www.w3.org/2000/svg"
   xmlns:xlink="http://www.w3.org/1999/xlink"
   xmlns:sodipodi="http://sodipodi.sourceforge.net/DTD/sodipodi-0.dtd"
   xmlns:inkscape="http://www.inkscape.org/namespaces/inkscape"
   width="303.94922pt"
   height="201.14844pt"
   viewBox="0 0 303.94922 201.14844"
   version="1.1"
   id="svg654"
   sodipodi:docname="13_2.svg"
   inkscape:version="1.0.1 (3bc2e813f5, 2020-09-07)">
  <metadata
     id="metadata658">
    <rdf:RDF>
      <cc:Work
         rdf:about="">
        <dc:format>image/svg+xml</dc:format>
        <dc:type
           rdf:resource="http://purl.org/dc/dcmitype/StillImage" />
        <dc:title></dc:title>
      </cc:Work>
    </rdf:RDF>
  </metadata>
  <sodipodi:namedview
     pagecolor="#ffffff"
     bordercolor="#666666"
     borderopacity="1"
     objecttolerance="10"
     gridtolerance="10"
     guidetolerance="10"
     inkscape:pageopacity="0"
     inkscape:pageshadow="2"
     inkscape:window-width="1366"
     inkscape:window-height="768"
     id="namedview656"
     showgrid="false"
     inkscape:zoom="0.53409091"
     inkscape:cx="83.152826"
     inkscape:cy="-21.505952"
     inkscape:window-x="0"
     inkscape:window-y="0"
     inkscape:window-maximized="1"
     inkscape:current-layer="svg654" />
  <defs
     id="defs145">
    <g
       id="g74">
      <symbol
         overflow="visible"
         id="glyph0-0">
        <path
           style="stroke:none"
           d="M 5.28125,-6.984375 V 0 H 0.234375 V -6.984375 Z M 4.8125,-0.4375 V -6.546875 H 0.703125 V -0.4375 Z M 4.140625,-4.609375 c 0,0.210937 -0.03125,0.398437 -0.09375,0.5625 -0.0625,0.167969 -0.152344,0.308594 -0.265625,0.421875 -0.117188,0.117188 -0.25,0.203125 -0.40625,0.265625 -0.15625,0.0625 -0.324219,0.101563 -0.5,0.109375 l -0.03125,0.828125 c 0,0.03125 -0.027344,0.058594 -0.078125,0.078125 -0.054687,0.011719 -0.125,0.015625 -0.21875,0.015625 -0.0625,0 -0.109375,0 -0.140625,0 C 2.375,-2.335938 2.34375,-2.34375 2.3125,-2.34375 2.289062,-2.351562 2.273438,-2.363281 2.265625,-2.375 2.253906,-2.382812 2.25,-2.398438 2.25,-2.421875 l -0.03125,-1 c 0,-0.101563 0.019531,-0.175781 0.0625,-0.21875 C 2.332031,-3.691406 2.398438,-3.71875 2.484375,-3.71875 H 2.59375 c 0.15625,0 0.285156,-0.019531 0.390625,-0.0625 C 3.097656,-3.820312 3.1875,-3.878906 3.25,-3.953125 3.320312,-4.035156 3.367188,-4.128906 3.390625,-4.234375 3.421875,-4.335938 3.4375,-4.445312 3.4375,-4.5625 3.4375,-4.832031 3.363281,-5.039062 3.21875,-5.1875 3.070312,-5.34375 2.832031,-5.421875 2.5,-5.421875 c -0.136719,0 -0.257812,0.015625 -0.359375,0.046875 -0.105469,0.023438 -0.199219,0.046875 -0.28125,0.078125 -0.085937,0.03125 -0.152344,0.0625 -0.203125,0.09375 -0.054688,0.03125 -0.09375,0.046875 -0.125,0.046875 -0.011719,0 -0.023438,0 -0.03125,0 C 1.488281,-5.164062 1.476562,-5.179688 1.46875,-5.203125 1.457031,-5.222656 1.445312,-5.25 1.4375,-5.28125 c 0,-0.039062 0,-0.085938 0,-0.140625 0,-0.0625 0.00391,-0.113281 0.015625,-0.15625 C 1.460938,-5.617188 1.476562,-5.65625 1.5,-5.6875 c 0.03125,-0.019531 0.082031,-0.046875 0.15625,-0.078125 0.070312,-0.03125 0.15625,-0.0625 0.25,-0.09375 0.101562,-0.03125 0.210938,-0.054687 0.328125,-0.078125 0.113281,-0.019531 0.234375,-0.03125 0.359375,-0.03125 0.269531,0 0.5,0.039062 0.6875,0.109375 0.195312,0.074219 0.359375,0.171875 0.484375,0.296875 0.125,0.117188 0.21875,0.257812 0.28125,0.421875 0.0625,0.167969 0.09375,0.34375 0.09375,0.53125 z M 2.96875,-1.46875 c 0,0.074219 -0.011719,0.136719 -0.03125,0.1875 C 2.925781,-1.226562 2.90625,-1.1875 2.875,-1.15625 2.84375,-1.125 2.800781,-1.097656 2.75,-1.078125 2.695312,-1.066406 2.632812,-1.0625 2.5625,-1.0625 2.476562,-1.0625 2.410156,-1.066406 2.359375,-1.078125 2.304688,-1.097656 2.265625,-1.125 2.234375,-1.15625 2.203125,-1.1875 2.175781,-1.226562 2.15625,-1.28125 2.144531,-1.332031 2.140625,-1.394531 2.140625,-1.46875 c 0,-0.070312 0.00391,-0.132812 0.015625,-0.1875 0.019531,-0.0625 0.046875,-0.109375 0.078125,-0.140625 0.03125,-0.03125 0.070313,-0.050781 0.125,-0.0625 C 2.410156,-1.867188 2.476562,-1.875 2.5625,-1.875 c 0.070312,0 0.132812,0.00781 0.1875,0.015625 0.050781,0.011719 0.09375,0.03125 0.125,0.0625 0.03125,0.03125 0.050781,0.078125 0.0625,0.140625 0.019531,0.054688 0.03125,0.117188 0.03125,0.1875 z M 0,2.140625 Z m 0,0"
           id="path2" />
      </symbol>
      <symbol
         overflow="visible"
         id="glyph0-1">
        <path
           style="stroke:none"
           d=""
           id="path5" />
      </symbol>
      <symbol
         overflow="visible"
         id="glyph1-0">
        <path
           style="stroke:none"
           d="M 3.328125,-4.390625 V 0 H 0.15625 V -4.390625 Z M 3.03125,-0.28125 V -4.125 H 0.4375 v 3.84375 z m -0.421875,-2.625 c 0,0.136719 -0.023437,0.257812 -0.0625,0.359375 -0.042969,0.105469 -0.101563,0.195313 -0.171875,0.265625 -0.074219,0.074219 -0.15625,0.132812 -0.25,0.171875 -0.09375,0.042969 -0.199219,0.0625 -0.3125,0.0625 L 1.796875,-1.53125 c 0,0.023438 -0.023437,0.039062 -0.0625,0.046875 -0.03125,0.011719 -0.078125,0.015625 -0.140625,0.015625 -0.03125,0 -0.058594,0 -0.078125,0 -0.023437,0 -0.042969,0 -0.0625,0 -0.011719,-0.00781 -0.023437,-0.015625 -0.03125,-0.015625 0,-0.00781 0,-0.023437 0,-0.046875 l -0.015625,-0.625 c -0.011719,-0.0625 0,-0.101562 0.03125,-0.125 0.03125,-0.03125 0.070312,-0.046875 0.125,-0.046875 H 1.625 c 0.101562,0 0.1875,-0.015625 0.25,-0.046875 0.070312,-0.03125 0.128906,-0.066406 0.171875,-0.109375 0.039063,-0.050781 0.070313,-0.109375 0.09375,-0.171875 0.019531,-0.070312 0.03125,-0.144531 0.03125,-0.21875 0,-0.164062 -0.046875,-0.296875 -0.140625,-0.390625 -0.09375,-0.101563 -0.246094,-0.15625 -0.453125,-0.15625 -0.085937,0 -0.164063,0.011719 -0.234375,0.03125 -0.0625,0.023437 -0.121094,0.042969 -0.171875,0.0625 -0.054687,0.023437 -0.101563,0.042969 -0.140625,0.0625 C 1,-3.253906 0.976562,-3.25 0.96875,-3.25 c -0.011719,0 -0.023438,0 -0.03125,0 0,-0.00781 -0.007812,-0.019531 -0.015625,-0.03125 -0.011719,-0.00781 -0.015625,-0.023438 -0.015625,-0.046875 0,-0.019531 0,-0.050781 0,-0.09375 0,-0.03125 0,-0.054687 0,-0.078125 0.007812,-0.03125 0.023438,-0.054688 0.046875,-0.078125 0.007813,-0.00781 0.035156,-0.023437 0.078125,-0.046875 0.050781,-0.019531 0.109375,-0.039062 0.171875,-0.0625 0.0625,-0.019531 0.128906,-0.035156 0.203125,-0.046875 0.070312,-0.019531 0.148438,-0.03125 0.234375,-0.03125 0.164063,0 0.304687,0.027344 0.421875,0.078125 0.125,0.042969 0.222656,0.105469 0.296875,0.1875 0.082031,0.074219 0.144531,0.164062 0.1875,0.265625 0.039063,0.105469 0.0625,0.214844 0.0625,0.328125 z m -0.75,1.984375 c 0,0.042969 -0.00781,0.078125 -0.015625,0.109375 0,0.03125 -0.011719,0.058594 -0.03125,0.078125 -0.023438,0.023437 -0.046875,0.039063 -0.078125,0.046875 -0.03125,0.011719 -0.074219,0.015625 -0.125,0.015625 -0.054687,0 -0.09375,-0.003906 -0.125,-0.015625 C 1.453125,-0.695312 1.425781,-0.710938 1.40625,-0.734375 1.382812,-0.753906 1.367188,-0.78125 1.359375,-0.8125 1.347656,-0.84375 1.34375,-0.878906 1.34375,-0.921875 c 0,-0.050781 0.00391,-0.09375 0.015625,-0.125 0.00781,-0.03125 0.023437,-0.054687 0.046875,-0.078125 0.019531,-0.019531 0.046875,-0.035156 0.078125,-0.046875 0.03125,-0.00781 0.070313,-0.015625 0.125,-0.015625 0.050781,0 0.09375,0.00781 0.125,0.015625 0.03125,0.011719 0.054687,0.027344 0.078125,0.046875 0.019531,0.023438 0.03125,0.046875 0.03125,0.078125 0.00781,0.03125 0.015625,0.074219 0.015625,0.125 z M 0,1.34375 Z m 0,0"
           id="path8" />
      </symbol>
      <symbol
         overflow="visible"
         id="glyph1-1">
        <path
           style="stroke:none"
           d="m 3.515625,-0.09375 c 0,0.0234375 -0.00781,0.0429688 -0.015625,0.0625 C 3.5,-0.0195312 3.484375,-0.0078125 3.453125,0 3.429688,0 3.398438,0 3.359375,0 3.316406,0.0078125 3.265625,0.015625 3.203125,0.015625 3.140625,0.015625 3.085938,0.0078125 3.046875,0 3.015625,0 2.988281,-0.00390625 2.96875,-0.015625 2.945312,-0.0234375 2.925781,-0.0351562 2.90625,-0.046875 2.894531,-0.0664062 2.882812,-0.09375 2.875,-0.125 L 2.484375,-1.15625 C 2.429688,-1.269531 2.378906,-1.375 2.328125,-1.46875 2.273438,-1.570312 2.210938,-1.660156 2.140625,-1.734375 2.078125,-1.804688 2,-1.859375 1.90625,-1.890625 1.8125,-1.929688 1.695312,-1.953125 1.5625,-1.953125 H 1.171875 v 1.859375 c 0,0.0234375 -0.00781,0.0429688 -0.015625,0.0625 C 1.144531,-0.0195312 1.128906,-0.0078125 1.109375,0 1.085938,0 1.054688,0 1.015625,0 0.972656,0.0078125 0.925781,0.015625 0.875,0.015625 0.820312,0.015625 0.773438,0.0078125 0.734375,0 0.691406,0 0.660156,0 0.640625,0 0.617188,-0.0078125 0.601562,-0.0195312 0.59375,-0.03125 0.582031,-0.0507812 0.578125,-0.0703125 0.578125,-0.09375 v -4.0625 c 0,-0.082031 0.019531,-0.140625 0.0625,-0.171875 0.050781,-0.039063 0.101563,-0.0625 0.15625,-0.0625 h 0.9375 c 0.113281,0 0.207031,0.00781 0.28125,0.015625 0.070313,0 0.132813,0.00781 0.1875,0.015625 0.175781,0.023437 0.328125,0.070313 0.453125,0.140625 0.132812,0.0625 0.242188,0.140625 0.328125,0.234375 0.09375,0.09375 0.160156,0.203125 0.203125,0.328125 0.039062,0.125 0.0625,0.265625 0.0625,0.421875 0,0.148437 -0.023438,0.277344 -0.0625,0.390625 C 3.15625,-2.726562 3.097656,-2.625 3.015625,-2.53125 2.941406,-2.4375 2.851562,-2.359375 2.75,-2.296875 2.644531,-2.234375 2.53125,-2.175781 2.40625,-2.125 c 0.070312,0.03125 0.132812,0.074219 0.1875,0.125 0.0625,0.042969 0.117188,0.101562 0.171875,0.171875 0.050781,0.0625 0.097656,0.140625 0.140625,0.234375 0.050781,0.085938 0.097656,0.183594 0.140625,0.296875 L 3.4375,-0.34375 c 0.03125,0.085938 0.050781,0.148438 0.0625,0.1875 0.00781,0.03125 0.015625,0.054688 0.015625,0.0625 z m -0.875,-3.078125 c 0,-0.175781 -0.042969,-0.320313 -0.125,-0.4375 C 2.441406,-3.722656 2.3125,-3.804688 2.125,-3.859375 2.070312,-3.878906 2.007812,-3.890625 1.9375,-3.890625 1.863281,-3.898438 1.769531,-3.90625 1.65625,-3.90625 H 1.171875 v 1.46875 h 0.5625 c 0.15625,0 0.289063,-0.015625 0.40625,-0.046875 0.113281,-0.039063 0.207031,-0.09375 0.28125,-0.15625 0.070313,-0.070313 0.125,-0.148437 0.15625,-0.234375 0.039063,-0.09375 0.0625,-0.191406 0.0625,-0.296875 z m 0,0"
           id="path11" />
      </symbol>
      <symbol
         overflow="visible"
         id="glyph1-2">
        <path
           style="stroke:none"
           d="m 3.109375,-1.25 c 0,0.199219 -0.039063,0.382812 -0.109375,0.546875 -0.074219,0.15625 -0.179688,0.292969 -0.3125,0.40625 C 2.5625,-0.179688 2.398438,-0.09375 2.203125,-0.03125 2.015625,0.03125 1.800781,0.0625 1.5625,0.0625 1.414062,0.0625 1.273438,0.0507812 1.140625,0.03125 1.015625,0.0078125 0.898438,-0.015625 0.796875,-0.046875 0.703125,-0.0859375 0.617188,-0.125 0.546875,-0.15625 0.484375,-0.1875 0.441406,-0.210938 0.421875,-0.234375 0.410156,-0.253906 0.398438,-0.269531 0.390625,-0.28125 0.378906,-0.300781 0.367188,-0.320312 0.359375,-0.34375 c 0,-0.019531 -0.007813,-0.046875 -0.015625,-0.078125 0,-0.03125 0,-0.070313 0,-0.125 0,-0.082031 0.003906,-0.140625 0.015625,-0.171875 C 0.378906,-0.75 0.40625,-0.765625 0.4375,-0.765625 c 0.019531,0 0.0625,0.023437 0.125,0.0625 0.0625,0.03125 0.140625,0.070313 0.234375,0.109375 0.09375,0.042969 0.203125,0.085938 0.328125,0.125 0.125,0.03125 0.265625,0.046875 0.421875,0.046875 0.144531,0 0.273437,-0.015625 0.390625,-0.046875 0.113281,-0.039062 0.207031,-0.097656 0.28125,-0.171875 0.070312,-0.070313 0.128906,-0.15625 0.171875,-0.25 0.039063,-0.09375 0.0625,-0.195313 0.0625,-0.3125 0,-0.125 -0.027344,-0.234375 -0.078125,-0.328125 C 2.332031,-1.632812 2.265625,-1.722656 2.171875,-1.796875 2.078125,-1.867188 1.957031,-1.921875 1.8125,-1.953125 1.675781,-1.992188 1.519531,-2.015625 1.34375,-2.015625 H 0.9375 c -0.023438,0 -0.042969,-0.00391 -0.0625,-0.015625 C 0.863281,-2.039062 0.847656,-2.050781 0.828125,-2.0625 0.816406,-2.082031 0.804688,-2.109375 0.796875,-2.140625 c 0,-0.03125 0,-0.066406 0,-0.109375 0,-0.050781 0,-0.085938 0,-0.109375 0.007813,-0.03125 0.019531,-0.050781 0.03125,-0.0625 C 0.847656,-2.441406 0.863281,-2.457031 0.875,-2.46875 0.894531,-2.476562 0.914062,-2.484375 0.9375,-2.484375 h 0.375 c 0.144531,0 0.273438,-0.015625 0.390625,-0.046875 0.125,-0.039062 0.226563,-0.097656 0.3125,-0.171875 0.082031,-0.070313 0.144531,-0.15625 0.1875,-0.25 0.050781,-0.101563 0.078125,-0.21875 0.078125,-0.34375 0,-0.09375 -0.015625,-0.179687 -0.046875,-0.265625 C 2.203125,-3.644531 2.15625,-3.71875 2.09375,-3.78125 2.039062,-3.84375 1.96875,-3.890625 1.875,-3.921875 1.78125,-3.953125 1.675781,-3.96875 1.5625,-3.96875 c -0.136719,0 -0.261719,0.023438 -0.375,0.0625 -0.105469,0.03125 -0.203125,0.074219 -0.296875,0.125 -0.085937,0.042969 -0.15625,0.085938 -0.21875,0.125 -0.054687,0.03125 -0.089844,0.046875 -0.109375,0.046875 -0.011719,0 -0.027344,0 -0.046875,0 -0.011719,-0.00781 -0.023437,-0.019531 -0.03125,-0.03125 0,-0.019531 -0.007813,-0.046875 -0.015625,-0.078125 0,-0.03125 0,-0.070312 0,-0.125 0,-0.03125 0,-0.054688 0,-0.078125 0.007812,-0.03125 0.015625,-0.050781 0.015625,-0.0625 0.007813,-0.019531 0.019531,-0.039063 0.03125,-0.0625 0.007813,-0.019531 0.023437,-0.039063 0.046875,-0.0625 0.019531,-0.019531 0.0625,-0.046875 0.125,-0.078125 0.0625,-0.039062 0.140625,-0.082031 0.234375,-0.125 0.101563,-0.039062 0.21875,-0.070312 0.34375,-0.09375 0.125,-0.03125 0.257813,-0.046875 0.40625,-0.046875 0.195313,0 0.375,0.027344 0.53125,0.078125 0.15625,0.054688 0.285156,0.125 0.390625,0.21875 0.101562,0.09375 0.179688,0.210938 0.234375,0.34375 0.050781,0.125 0.078125,0.273438 0.078125,0.4375 0,0.136719 -0.023438,0.265625 -0.0625,0.390625 -0.03125,0.117187 -0.085938,0.21875 -0.15625,0.3125 -0.074219,0.085937 -0.164062,0.164063 -0.265625,0.234375 -0.09375,0.0625 -0.210937,0.105469 -0.34375,0.125 v 0.015625 c 0.144531,0.011719 0.28125,0.046875 0.40625,0.109375 0.125,0.0625 0.234375,0.140625 0.328125,0.234375 0.09375,0.085937 0.164062,0.1875 0.21875,0.3125 0.050781,0.117187 0.078125,0.246094 0.078125,0.390625 z m 0,0"
           id="path14" />
      </symbol>
      <symbol
         overflow="visible"
         id="glyph1-3">
        <path
           style="stroke:none"
           d="m 3.25,-1.421875 c 0,0.1875 -0.03125,0.375 -0.09375,0.5625 -0.054688,0.179687 -0.140625,0.335937 -0.265625,0.46875 -0.125,0.136719 -0.28125,0.246094 -0.46875,0.328125 -0.1875,0.0820312 -0.40625,0.125 -0.65625,0.125 -0.1875,0 -0.355469,-0.0234375 -0.5,-0.0625 C 1.128906,-0.0507812 1.007812,-0.117188 0.90625,-0.203125 0.800781,-0.285156 0.710938,-0.382812 0.640625,-0.5 0.578125,-0.625 0.523438,-0.765625 0.484375,-0.921875 0.441406,-1.078125 0.410156,-1.25 0.390625,-1.4375 0.367188,-1.625 0.359375,-1.820312 0.359375,-2.03125 c 0,-0.1875 0.007813,-0.375 0.03125,-0.5625 C 0.410156,-2.789062 0.445312,-2.976562 0.5,-3.15625 0.550781,-3.332031 0.617188,-3.5 0.703125,-3.65625 0.796875,-3.820312 0.910156,-3.960938 1.046875,-4.078125 1.179688,-4.191406 1.34375,-4.28125 1.53125,-4.34375 1.71875,-4.414062 1.9375,-4.453125 2.1875,-4.453125 c 0.082031,0 0.164062,0.00781 0.25,0.015625 0.09375,0.011719 0.175781,0.027344 0.25,0.046875 0.070312,0.011719 0.128906,0.027344 0.171875,0.046875 0.050781,0.023438 0.082031,0.039062 0.09375,0.046875 C 2.972656,-4.285156 2.988281,-4.269531 3,-4.25 c 0.00781,0.011719 0.015625,0.027344 0.015625,0.046875 0.00781,0.023437 0.015625,0.042969 0.015625,0.0625 0,0.023437 0,0.046875 0,0.078125 0,0.042969 0,0.078125 0,0.109375 0,0.023437 -0.00781,0.042969 -0.015625,0.0625 -0.011719,0.023437 -0.023437,0.039063 -0.03125,0.046875 -0.011719,0 -0.027344,0 -0.046875,0 -0.023438,0 -0.058594,-0.00391 -0.109375,-0.015625 -0.042969,-0.019531 -0.09375,-0.035156 -0.15625,-0.046875 -0.054687,-0.019531 -0.125,-0.035156 -0.21875,-0.046875 -0.085937,-0.019531 -0.183594,-0.03125 -0.296875,-0.03125 -0.210938,0 -0.390625,0.042969 -0.546875,0.125 -0.15625,0.085937 -0.28125,0.199219 -0.375,0.34375 C 1.140625,-3.367188 1.066406,-3.195312 1.015625,-3 0.972656,-2.8125 0.945312,-2.613281 0.9375,-2.40625 1,-2.445312 1.066406,-2.484375 1.140625,-2.515625 1.210938,-2.546875 1.289062,-2.570312 1.375,-2.59375 1.46875,-2.625 1.5625,-2.648438 1.65625,-2.671875 c 0.101562,-0.019531 0.207031,-0.03125 0.3125,-0.03125 0.238281,0 0.4375,0.039063 0.59375,0.109375 0.164062,0.0625 0.300781,0.152344 0.40625,0.265625 0.101562,0.117187 0.175781,0.25 0.21875,0.40625 0.039062,0.15625 0.0625,0.324219 0.0625,0.5 z M 2.65625,-1.375 c 0,-0.125 -0.015625,-0.238281 -0.046875,-0.34375 -0.023437,-0.113281 -0.0625,-0.207031 -0.125,-0.28125 -0.0625,-0.070312 -0.148437,-0.128906 -0.25,-0.171875 -0.09375,-0.039063 -0.214844,-0.0625 -0.359375,-0.0625 -0.09375,0 -0.183594,0.011719 -0.265625,0.03125 -0.085937,0.011719 -0.167969,0.03125 -0.25,0.0625 -0.074219,0.023437 -0.148437,0.054687 -0.21875,0.09375 -0.0625,0.03125 -0.125,0.0625 -0.1875,0.09375 0,0.304687 0.015625,0.554687 0.046875,0.75 0.039062,0.1875 0.097656,0.34375 0.171875,0.46875 0.070313,0.117187 0.160156,0.199219 0.265625,0.25 0.101562,0.054687 0.226562,0.078125 0.375,0.078125 0.144531,0 0.269531,-0.023438 0.375,-0.078125 0.101562,-0.0625 0.191406,-0.132813 0.265625,-0.21875 0.070313,-0.09375 0.125,-0.195313 0.15625,-0.3125 C 2.640625,-1.128906 2.65625,-1.25 2.65625,-1.375 Z m 0,0"
           id="path17" />
      </symbol>
      <symbol
         overflow="visible"
         id="glyph1-4">
        <path
           style="stroke:none"
           d=""
           id="path20" />
      </symbol>
      <symbol
         overflow="visible"
         id="glyph1-5">
        <path
           style="stroke:none"
           d="m 3.140625,-2.625 c 0,0.09375 -0.015625,0.164062 -0.046875,0.203125 C 3.070312,-2.390625 3.046875,-2.375 3.015625,-2.375 H 0.4375 C 0.40625,-2.375 0.375,-2.390625 0.34375,-2.421875 0.320312,-2.460938 0.3125,-2.53125 0.3125,-2.625 c 0,-0.070312 0.007812,-0.128906 0.03125,-0.171875 0.03125,-0.039063 0.0625,-0.0625 0.09375,-0.0625 h 2.578125 c 0.039063,0 0.070313,0.023437 0.09375,0.0625 0.019531,0.042969 0.03125,0.101563 0.03125,0.171875 z m 0,1.328125 c 0,0.09375 -0.015625,0.15625 -0.046875,0.1875 C 3.070312,-1.078125 3.046875,-1.0625 3.015625,-1.0625 H 0.4375 c -0.03125,0 -0.0625,-0.015625 -0.09375,-0.046875 -0.023438,-0.03125 -0.03125,-0.09375 -0.03125,-0.1875 0,-0.082031 0.007812,-0.140625 0.03125,-0.171875 0.03125,-0.039062 0.0625,-0.0625 0.09375,-0.0625 h 2.578125 c 0.039063,0 0.070313,0.023438 0.09375,0.0625 0.019531,0.03125 0.03125,0.089844 0.03125,0.171875 z m 0,0"
           id="path23" />
      </symbol>
      <symbol
         overflow="visible"
         id="glyph1-6">
        <path
           style="stroke:none"
           d="m 3.171875,-1.25 c 0,0.1875 -0.039063,0.355469 -0.109375,0.5 -0.074219,0.148438 -0.171875,0.277344 -0.296875,0.390625 -0.125,0.105469 -0.28125,0.1875 -0.46875,0.25 C 2.117188,-0.046875 1.914062,-0.0078125 1.6875,0 L 1.609375,0.734375 c 0,0.007813 -0.00781,0.019531 -0.015625,0.03125 0,0.019531 -0.011719,0.03125 -0.03125,0.03125 C 1.550781,0.804688 1.53125,0.8125 1.5,0.8125 1.46875,0.820312 1.429688,0.828125 1.390625,0.828125 c -0.054687,0 -0.09375,-0.007813 -0.125,-0.015625 -0.03125,0 -0.058594,-0.007812 -0.078125,-0.015625 -0.011719,0 -0.023438,-0.011719 -0.03125,-0.03125 0,-0.011719 0,-0.027344 0,-0.046875 L 1.234375,-0.015625 C 1.128906,-0.0234375 1.03125,-0.0390625 0.9375,-0.0625 0.84375,-0.0820312 0.757812,-0.101562 0.6875,-0.125 0.613281,-0.15625 0.550781,-0.179688 0.5,-0.203125 0.445312,-0.234375 0.410156,-0.257812 0.390625,-0.28125 0.367188,-0.3125 0.351562,-0.34375 0.34375,-0.375 0.332031,-0.414062 0.328125,-0.472656 0.328125,-0.546875 c 0,-0.050781 0,-0.09375 0,-0.125 0.007813,-0.03125 0.019531,-0.054687 0.03125,-0.078125 0.007813,-0.019531 0.019531,-0.03125 0.03125,-0.03125 0.007813,-0.007812 0.023437,-0.015625 0.046875,-0.015625 0.03125,0 0.070312,0.015625 0.125,0.046875 0.0625,0.03125 0.132812,0.070312 0.21875,0.109375 0.09375,0.03125 0.203125,0.070313 0.328125,0.109375 0.125,0.03125 0.28125,0.046875 0.46875,0.046875 0.320313,0 0.566406,-0.0625 0.734375,-0.1875 0.164062,-0.125 0.25,-0.296875 0.25,-0.515625 0,-0.132812 -0.03125,-0.242188 -0.09375,-0.328125 C 2.40625,-1.609375 2.320312,-1.6875 2.21875,-1.75 2.125,-1.820312 2.007812,-1.878906 1.875,-1.921875 1.75,-1.972656 1.617188,-2.019531 1.484375,-2.0625 1.359375,-2.113281 1.226562,-2.164062 1.09375,-2.21875 0.96875,-2.28125 0.851562,-2.359375 0.75,-2.453125 0.65625,-2.546875 0.578125,-2.65625 0.515625,-2.78125 c -0.0625,-0.132812 -0.09375,-0.296875 -0.09375,-0.484375 0,-0.15625 0.023437,-0.296875 0.078125,-0.421875 0.050781,-0.132812 0.128906,-0.25 0.234375,-0.34375 0.101563,-0.101562 0.234375,-0.1875 0.390625,-0.25 0.164062,-0.0625 0.351562,-0.097656 0.5625,-0.109375 l 0.0625,-0.6875 c 0,-0.00781 0,-0.019531 0,-0.03125 0.00781,-0.019531 0.023438,-0.03125 0.046875,-0.03125 0.019531,-0.00781 0.039063,-0.015625 0.0625,-0.015625 0.03125,-0.00781 0.066406,-0.015625 0.109375,-0.015625 0.050781,0 0.09375,0.00781 0.125,0.015625 0.03125,0 0.054688,0.00781 0.078125,0.015625 0.019531,0.011719 0.03125,0.027344 0.03125,0.046875 0,0.011719 0,0.023438 0,0.03125 l -0.0625,0.6875 c 0.0625,0 0.128906,0.011719 0.203125,0.03125 0.070312,0.023438 0.140625,0.042969 0.203125,0.0625 0.070313,0.023438 0.132813,0.046875 0.1875,0.078125 0.050781,0.023437 0.082031,0.042969 0.09375,0.0625 0.019531,0.011719 0.035156,0.027344 0.046875,0.046875 0.00781,0.011719 0.015625,0.027344 0.015625,0.046875 C 2.898438,-4.023438 2.90625,-4 2.90625,-3.96875 c 0,0.023438 0,0.054688 0,0.09375 0,0.042969 0,0.078125 0,0.109375 0,0.03125 -0.00781,0.058594 -0.015625,0.078125 0,0.011719 -0.011719,0.023438 -0.03125,0.03125 -0.011719,0.011719 -0.023437,0.015625 -0.03125,0.015625 -0.03125,0 -0.074219,-0.015625 -0.125,-0.046875 C 2.648438,-3.71875 2.582031,-3.75 2.5,-3.78125 2.414062,-3.8125 2.316406,-3.84375 2.203125,-3.875 2.097656,-3.90625 1.976562,-3.921875 1.84375,-3.921875 1.695312,-3.921875 1.566406,-3.90625 1.453125,-3.875 1.347656,-3.84375 1.257812,-3.800781 1.1875,-3.75 1.125,-3.695312 1.078125,-3.632812 1.046875,-3.5625 c -0.023437,0.074219 -0.03125,0.15625 -0.03125,0.25 0,0.136719 0.03125,0.25 0.09375,0.34375 0.0625,0.085938 0.140625,0.164062 0.234375,0.234375 0.101562,0.0625 0.21875,0.117187 0.34375,0.15625 0.132812,0.042969 0.265625,0.089844 0.390625,0.140625 0.132813,0.054688 0.265625,0.109375 0.390625,0.171875 0.132812,0.054687 0.253906,0.125 0.359375,0.21875 0.101563,0.085937 0.1875,0.195313 0.25,0.328125 0.0625,0.125 0.09375,0.28125 0.09375,0.46875 z m 0,0"
           id="path26" />
      </symbol>
      <symbol
         overflow="visible"
         id="glyph1-7">
        <path
           style="stroke:none"
           d="m 2.90625,-3.359375 c 0,0.199219 -0.03125,0.375 -0.09375,0.53125 -0.054688,0.148437 -0.132812,0.277344 -0.234375,0.390625 -0.105469,0.105469 -0.230469,0.1875 -0.375,0.25 -0.136719,0.0625 -0.292969,0.101562 -0.46875,0.109375 l -0.015625,0.8125 c 0,0.042969 -0.023438,0.074219 -0.0625,0.09375 -0.042969,0.011719 -0.105469,0.015625 -0.1875,0.015625 -0.054688,0 -0.09375,0 -0.125,0 C 1.3125,-1.164062 1.285156,-1.171875 1.265625,-1.171875 1.242188,-1.179688 1.226562,-1.191406 1.21875,-1.203125 1.207031,-1.222656 1.203125,-1.242188 1.203125,-1.265625 L 1.1875,-2.203125 c -0.011719,-0.050781 -0.011719,-0.09375 0,-0.125 0.00781,-0.03125 0.023438,-0.054687 0.046875,-0.078125 C 1.253906,-2.425781 1.28125,-2.441406 1.3125,-2.453125 1.34375,-2.460938 1.378906,-2.46875 1.421875,-2.46875 H 1.5 c 0.144531,0 0.269531,-0.019531 0.375,-0.0625 0.101562,-0.050781 0.1875,-0.113281 0.25,-0.1875 C 2.195312,-2.789062 2.242188,-2.878906 2.265625,-2.984375 2.296875,-3.085938 2.3125,-3.195312 2.3125,-3.3125 2.3125,-3.445312 2.289062,-3.566406 2.25,-3.671875 2.21875,-3.773438 2.164062,-3.863281 2.09375,-3.9375 2.019531,-4.019531 1.925781,-4.082031 1.8125,-4.125 1.707031,-4.175781 1.582031,-4.203125 1.4375,-4.203125 c -0.136719,0 -0.257812,0.015625 -0.359375,0.046875 -0.09375,0.03125 -0.179687,0.0625 -0.25,0.09375 C 0.753906,-4.03125 0.695312,-4 0.65625,-3.96875 0.613281,-3.9375 0.578125,-3.921875 0.546875,-3.921875 c -0.011719,0 -0.023437,-0.00391 -0.03125,-0.015625 -0.011719,-0.00781 -0.023437,-0.019531 -0.03125,-0.03125 -0.011719,-0.019531 -0.023437,-0.046875 -0.03125,-0.078125 0,-0.039063 0,-0.082031 0,-0.125 0,-0.0625 0,-0.101563 0,-0.125 C 0.460938,-4.328125 0.476562,-4.351562 0.5,-4.375 0.53125,-4.394531 0.578125,-4.421875 0.640625,-4.453125 0.703125,-4.492188 0.78125,-4.53125 0.875,-4.5625 c 0.09375,-0.03125 0.191406,-0.054688 0.296875,-0.078125 0.113281,-0.019531 0.226563,-0.03125 0.34375,-0.03125 0.238281,0 0.445313,0.039063 0.625,0.109375 0.175781,0.074219 0.316406,0.167969 0.421875,0.28125 0.113281,0.117188 0.195312,0.257812 0.25,0.421875 0.0625,0.15625 0.09375,0.324219 0.09375,0.5 z m -1.078125,3 c 0,0.085937 -0.00781,0.152344 -0.015625,0.203125 C 1.800781,-0.113281 1.78125,-0.078125 1.75,-0.046875 1.726562,-0.015625 1.691406,0.00390625 1.640625,0.015625 1.597656,0.0234375 1.546875,0.03125 1.484375,0.03125 1.410156,0.03125 1.347656,0.0234375 1.296875,0.015625 1.253906,0.00390625 1.21875,-0.015625 1.1875,-0.046875 1.15625,-0.078125 1.132812,-0.113281 1.125,-0.15625 1.113281,-0.207031 1.109375,-0.273438 1.109375,-0.359375 c 0,-0.070313 0.00391,-0.132813 0.015625,-0.1875 0.00781,-0.050781 0.03125,-0.085937 0.0625,-0.109375 0.03125,-0.03125 0.066406,-0.050781 0.109375,-0.0625 0.050781,-0.007812 0.113281,-0.015625 0.1875,-0.015625 0.0625,0 0.113281,0.007813 0.15625,0.015625 0.050781,0.011719 0.085937,0.03125 0.109375,0.0625 0.03125,0.023438 0.050781,0.058594 0.0625,0.109375 0.00781,0.054687 0.015625,0.117187 0.015625,0.1875 z m 0,0"
           id="path29" />
      </symbol>
      <symbol
         overflow="visible"
         id="glyph1-8">
        <path
           style="stroke:none"
           d="m 2.1875,-4.390625 c 0,0.042969 -0.00781,0.078125 -0.015625,0.109375 0,0.023438 -0.00781,0.042969 -0.015625,0.0625 0,0.011719 -0.00781,0.023438 -0.015625,0.03125 0,0 -0.011719,0 -0.03125,0 -0.011719,0 -0.03125,-0.00391 -0.0625,-0.015625 C 2.023438,-4.210938 2,-4.222656 1.96875,-4.234375 1.9375,-4.242188 1.894531,-4.253906 1.84375,-4.265625 1.800781,-4.273438 1.75,-4.28125 1.6875,-4.28125 c -0.085938,0 -0.15625,0.015625 -0.21875,0.046875 -0.054688,0.023437 -0.101562,0.0625 -0.140625,0.125 -0.03125,0.054687 -0.058594,0.125 -0.078125,0.21875 -0.011719,0.085937 -0.015625,0.195313 -0.015625,0.328125 v 0.328125 H 1.90625 c 0.019531,0 0.035156,0.00781 0.046875,0.015625 0.00781,0.011719 0.019531,0.027344 0.03125,0.046875 0.00781,0.023437 0.019531,0.046875 0.03125,0.078125 C 2.023438,-3.070312 2.03125,-3.039062 2.03125,-3 2.03125,-2.914062 2.019531,-2.851562 2,-2.8125 1.976562,-2.78125 1.945312,-2.765625 1.90625,-2.765625 H 1.234375 v 2.6875 c 0,0.0117188 -0.00781,0.0273438 -0.015625,0.046875 C 1.207031,-0.0195312 1.191406,-0.0078125 1.171875,0 1.148438,0 1.117188,0 1.078125,0 1.046875,0.0078125 1.003906,0.015625 0.953125,0.015625 0.890625,0.015625 0.835938,0.0078125 0.796875,0 0.765625,0 0.738281,0 0.71875,0 0.695312,-0.0078125 0.679688,-0.0195312 0.671875,-0.03125 c 0,-0.0195312 0,-0.0351562 0,-0.046875 v -2.6875 h -0.4375 C 0.203125,-2.765625 0.175781,-2.78125 0.15625,-2.8125 0.132812,-2.851562 0.125,-2.914062 0.125,-3 c 0,-0.039062 0,-0.070312 0,-0.09375 C 0.132812,-3.125 0.144531,-3.148438 0.15625,-3.171875 0.164062,-3.191406 0.175781,-3.207031 0.1875,-3.21875 0.195312,-3.226562 0.210938,-3.234375 0.234375,-3.234375 h 0.4375 v -0.3125 C 0.671875,-3.753906 0.6875,-3.9375 0.71875,-4.09375 0.757812,-4.25 0.820312,-4.375 0.90625,-4.46875 0.988281,-4.5625 1.09375,-4.628906 1.21875,-4.671875 1.34375,-4.722656 1.488281,-4.75 1.65625,-4.75 c 0.070312,0 0.144531,0.011719 0.21875,0.03125 0.082031,0.011719 0.140625,0.027344 0.171875,0.046875 0.039063,0.011719 0.066406,0.023437 0.078125,0.03125 0.019531,0.011719 0.035156,0.03125 0.046875,0.0625 C 2.179688,-4.554688 2.1875,-4.53125 2.1875,-4.5 c 0,0.023438 0,0.058594 0,0.109375 z m 0,0"
           id="path32" />
      </symbol>
      <symbol
         overflow="visible"
         id="glyph1-9">
        <path
           style="stroke:none"
           d="m 1.078125,-0.078125 c 0,0.0117188 -0.00781,0.0273438 -0.015625,0.046875 C 1.050781,-0.0195312 1.035156,-0.0078125 1.015625,0 0.992188,0 0.960938,0 0.921875,0 0.890625,0.0078125 0.847656,0.015625 0.796875,0.015625 0.742188,0.015625 0.695312,0.0078125 0.65625,0 0.625,0 0.597656,0 0.578125,0 0.554688,-0.0078125 0.539062,-0.0195312 0.53125,-0.03125 0.519531,-0.0507812 0.515625,-0.0664062 0.515625,-0.078125 v -3.0625 c 0,-0.019531 0.003906,-0.035156 0.015625,-0.046875 0.007812,-0.00781 0.023438,-0.019531 0.046875,-0.03125 C 0.597656,-3.226562 0.625,-3.234375 0.65625,-3.234375 0.695312,-3.242188 0.742188,-3.25 0.796875,-3.25 c 0.050781,0 0.09375,0.00781 0.125,0.015625 0.039063,0 0.070313,0.00781 0.09375,0.015625 0.019531,0.011719 0.035156,0.023438 0.046875,0.03125 0.00781,0.011719 0.015625,0.027344 0.015625,0.046875 z m 0.0625,-4.09375 c 0,0.136719 -0.027344,0.230469 -0.078125,0.28125 -0.042969,0.042969 -0.132812,0.0625 -0.265625,0.0625 -0.136719,0 -0.230469,-0.019531 -0.28125,-0.0625 -0.042969,-0.050781 -0.0625,-0.144531 -0.0625,-0.28125 0,-0.125 0.019531,-0.207031 0.0625,-0.25 C 0.566406,-4.472656 0.660156,-4.5 0.796875,-4.5 c 0.132813,0 0.222656,0.027344 0.265625,0.078125 0.050781,0.042969 0.078125,0.125 0.078125,0.25 z m 0,0"
           id="path35" />
      </symbol>
      <symbol
         overflow="visible"
         id="glyph1-10">
        <path
           style="stroke:none"
           d="m 2.125,-3.3125 c 0,0.179688 -0.023438,0.339844 -0.0625,0.484375 C 2.03125,-2.691406 1.972656,-2.570312 1.890625,-2.46875 1.816406,-2.375 1.71875,-2.296875 1.59375,-2.234375 c -0.125,0.054687 -0.265625,0.078125 -0.421875,0.078125 -0.167969,0 -0.3125,-0.023438 -0.4375,-0.078125 -0.117187,-0.050781 -0.210937,-0.125 -0.28125,-0.21875 C 0.378906,-2.554688 0.320312,-2.675781 0.28125,-2.8125 0.25,-2.957031 0.234375,-3.117188 0.234375,-3.296875 0.234375,-3.460938 0.25,-3.613281 0.28125,-3.75 0.320312,-3.894531 0.378906,-4.019531 0.453125,-4.125 0.535156,-4.226562 0.632812,-4.304688 0.75,-4.359375 c 0.125,-0.0625 0.269531,-0.09375 0.4375,-0.09375 0.175781,0 0.328125,0.03125 0.453125,0.09375 0.125,0.0625 0.222656,0.148437 0.296875,0.25 C 2.007812,-4.003906 2.054688,-3.882812 2.078125,-3.75 2.109375,-3.613281 2.125,-3.46875 2.125,-3.3125 Z M 1.65625,-3.296875 C 1.65625,-3.421875 1.644531,-3.53125 1.625,-3.625 1.601562,-3.726562 1.570312,-3.8125 1.53125,-3.875 1.5,-3.945312 1.453125,-4 1.390625,-4.03125 1.328125,-4.0625 1.253906,-4.078125 1.171875,-4.078125 1.097656,-4.078125 1.03125,-4.0625 0.96875,-4.03125 0.90625,-4 0.851562,-3.953125 0.8125,-3.890625 0.78125,-3.828125 0.753906,-3.75 0.734375,-3.65625 0.722656,-3.5625 0.71875,-3.445312 0.71875,-3.3125 c 0,0.148438 0.007812,0.273438 0.03125,0.375 0.019531,0.105469 0.050781,0.1875 0.09375,0.25 0.039062,0.0625 0.085938,0.105469 0.140625,0.125 0.0625,0.023438 0.128906,0.03125 0.203125,0.03125 0.09375,0 0.164062,-0.015625 0.21875,-0.046875 C 1.46875,-2.609375 1.515625,-2.65625 1.546875,-2.71875 1.585938,-2.789062 1.613281,-2.875 1.625,-2.96875 1.644531,-3.0625 1.65625,-3.171875 1.65625,-3.296875 Z m 3.0625,2.1875 c 0,0.179687 -0.023438,0.339844 -0.0625,0.484375 C 4.625,-0.488281 4.566406,-0.367188 4.484375,-0.265625 4.410156,-0.171875 4.3125,-0.09375 4.1875,-0.03125 4.0625,0.0195312 3.921875,0.046875 3.765625,0.046875 c -0.167969,0 -0.3125,-0.0273438 -0.4375,-0.078125 C 3.210938,-0.0820312 3.117188,-0.15625 3.046875,-0.25 2.972656,-0.351562 2.914062,-0.472656 2.875,-0.609375 2.84375,-0.753906 2.828125,-0.914062 2.828125,-1.09375 c 0,-0.164062 0.015625,-0.316406 0.046875,-0.453125 0.039062,-0.144531 0.097656,-0.269531 0.171875,-0.375 0.082031,-0.101563 0.179687,-0.179687 0.296875,-0.234375 0.125,-0.0625 0.269531,-0.09375 0.4375,-0.09375 0.175781,0 0.328125,0.03125 0.453125,0.09375 0.125,0.0625 0.222656,0.148438 0.296875,0.25 0.070312,0.105469 0.117188,0.226562 0.140625,0.359375 0.03125,0.136719 0.046875,0.28125 0.046875,0.4375 z M 4.25,-1.09375 c 0,-0.125 -0.011719,-0.234375 -0.03125,-0.328125 -0.023438,-0.101563 -0.054688,-0.1875 -0.09375,-0.25 -0.03125,-0.070313 -0.078125,-0.125 -0.140625,-0.15625 C 3.921875,-1.859375 3.847656,-1.875 3.765625,-1.875 3.691406,-1.875 3.625,-1.859375 3.5625,-1.828125 3.5,-1.796875 3.445312,-1.75 3.40625,-1.6875 3.375,-1.625 3.347656,-1.546875 3.328125,-1.453125 3.316406,-1.359375 3.3125,-1.242188 3.3125,-1.109375 c 0,0.148437 0.00781,0.273437 0.03125,0.375 0.019531,0.105469 0.050781,0.1875 0.09375,0.25 0.039062,0.0625 0.085938,0.105469 0.140625,0.125 0.0625,0.023437 0.128906,0.03125 0.203125,0.03125 C 3.875,-0.328125 3.945312,-0.34375 4,-0.375 4.0625,-0.40625 4.109375,-0.453125 4.140625,-0.515625 4.179688,-0.585938 4.207031,-0.671875 4.21875,-0.765625 4.238281,-0.859375 4.25,-0.96875 4.25,-1.09375 Z m -3.0625,1.125 C 1.175781,0.0507812 1.160156,0.0664062 1.140625,0.078125 1.117188,0.0859375 1.097656,0.09375 1.078125,0.09375 1.054688,0.101562 1.03125,0.109375 1,0.109375 0.96875,0.117188 0.929688,0.125 0.890625,0.125 0.835938,0.125 0.796875,0.117188 0.765625,0.109375 0.734375,0.0976562 0.710938,0.0820312 0.703125,0.0625 0.691406,0.0507812 0.6875,0.0351562 0.6875,0.015625 c 0,-0.01953125 0.007812,-0.0390625 0.03125,-0.0625 L 3.78125,-4.4375 C 3.789062,-4.445312 3.800781,-4.457031 3.8125,-4.46875 3.832031,-4.488281 3.851562,-4.5 3.875,-4.5 c 0.019531,-0.00781 0.046875,-0.015625 0.078125,-0.015625 0.03125,-0.00781 0.070313,-0.015625 0.125,-0.015625 0.039063,0 0.078125,0.00781 0.109375,0.015625 0.03125,0.011719 0.050781,0.027344 0.0625,0.046875 0.019531,0.011719 0.023438,0.027344 0.015625,0.046875 0,0.023437 -0.011719,0.046875 -0.03125,0.078125 z m 0,0"
           id="path38" />
      </symbol>
      <symbol
         overflow="visible"
         id="glyph1-11">
        <path
           style="stroke:none"
           d="m 3.15625,-0.078125 c 0,0.0117188 -0.00781,0.0273438 -0.015625,0.046875 C 3.128906,-0.0195312 3.113281,-0.0078125 3.09375,0 3.070312,0 3.039062,0 3,0 2.96875,0.0078125 2.925781,0.015625 2.875,0.015625 2.8125,0.015625 2.757812,0.0078125 2.71875,0 2.6875,0 2.660156,0 2.640625,0 2.628906,-0.0078125 2.617188,-0.0195312 2.609375,-0.03125 2.597656,-0.0507812 2.59375,-0.0664062 2.59375,-0.078125 V -1.875 c 0,-0.175781 -0.015625,-0.316406 -0.046875,-0.421875 C 2.523438,-2.398438 2.488281,-2.488281 2.4375,-2.5625 2.382812,-2.644531 2.316406,-2.707031 2.234375,-2.75 2.148438,-2.789062 2.050781,-2.8125 1.9375,-2.8125 c -0.136719,0 -0.277344,0.054688 -0.421875,0.15625 -0.136719,0.09375 -0.28125,0.242188 -0.4375,0.4375 v 2.140625 c 0,0.0117188 -0.00781,0.0273438 -0.015625,0.046875 C 1.050781,-0.0195312 1.035156,-0.0078125 1.015625,0 0.992188,0 0.960938,0 0.921875,0 0.890625,0.0078125 0.847656,0.015625 0.796875,0.015625 0.742188,0.015625 0.695312,0.0078125 0.65625,0 0.625,0 0.597656,0 0.578125,0 0.554688,-0.0078125 0.539062,-0.0195312 0.53125,-0.03125 0.519531,-0.0507812 0.515625,-0.0664062 0.515625,-0.078125 v -3.0625 c 0,-0.019531 0.003906,-0.035156 0.015625,-0.046875 0.007812,-0.00781 0.019531,-0.019531 0.03125,-0.03125 0.019531,-0.00781 0.046875,-0.015625 0.078125,-0.015625 C 0.679688,-3.242188 0.726562,-3.25 0.78125,-3.25 c 0.039062,0 0.078125,0.00781 0.109375,0.015625 0.039063,0 0.066406,0.00781 0.078125,0.015625 0.019531,0.011719 0.035156,0.023438 0.046875,0.03125 0.00781,0.011719 0.015625,0.027344 0.015625,0.046875 v 0.40625 c 0.164062,-0.195313 0.332031,-0.335937 0.5,-0.421875 0.175781,-0.09375 0.351562,-0.140625 0.53125,-0.140625 0.195312,0 0.363281,0.039063 0.5,0.109375 0.144531,0.0625 0.257812,0.15625 0.34375,0.28125 0.082031,0.117188 0.144531,0.25 0.1875,0.40625 0.039062,0.148438 0.0625,0.328125 0.0625,0.546875 z m 0,0"
           id="path41" />
      </symbol>
      <symbol
         overflow="visible"
         id="glyph1-12">
        <path
           style="stroke:none"
           d="m 2.828125,-0.078125 c 0,0.0234375 -0.011719,0.0429688 -0.03125,0.0625 C 2.773438,-0.00390625 2.75,0 2.71875,0 2.6875,0.0078125 2.640625,0.015625 2.578125,0.015625 2.515625,0.015625 2.46875,0.0078125 2.4375,0 2.40625,0 2.378906,-0.00390625 2.359375,-0.015625 2.347656,-0.0351562 2.34375,-0.0546875 2.34375,-0.078125 v -0.3125 C 2.207031,-0.242188 2.054688,-0.128906 1.890625,-0.046875 1.722656,0.0234375 1.550781,0.0625 1.375,0.0625 1.207031,0.0625 1.054688,0.0390625 0.921875,0 0.796875,-0.0390625 0.6875,-0.0976562 0.59375,-0.171875 0.507812,-0.253906 0.441406,-0.351562 0.390625,-0.46875 0.335938,-0.582031 0.3125,-0.710938 0.3125,-0.859375 0.3125,-1.035156 0.34375,-1.1875 0.40625,-1.3125 0.476562,-1.4375 0.582031,-1.539062 0.71875,-1.625 0.851562,-1.707031 1.015625,-1.769531 1.203125,-1.8125 1.390625,-1.851562 1.601562,-1.875 1.84375,-1.875 h 0.421875 v -0.25 C 2.265625,-2.238281 2.25,-2.335938 2.21875,-2.421875 2.195312,-2.515625 2.160156,-2.59375 2.109375,-2.65625 2.054688,-2.71875 1.984375,-2.765625 1.890625,-2.796875 1.804688,-2.828125 1.695312,-2.84375 1.5625,-2.84375 c -0.136719,0 -0.261719,0.023438 -0.375,0.0625 C 1.082031,-2.75 0.988281,-2.710938 0.90625,-2.671875 0.820312,-2.640625 0.75,-2.601562 0.6875,-2.5625 c -0.054688,0.03125 -0.089844,0.046875 -0.109375,0.046875 -0.023437,0 -0.042969,-0.00391 -0.0625,-0.015625 -0.011719,-0.00781 -0.023437,-0.023438 -0.03125,-0.046875 -0.011719,-0.019531 -0.015625,-0.039063 -0.015625,-0.0625 0,-0.03125 0,-0.0625 0,-0.09375 0,-0.0625 0,-0.109375 0,-0.140625 C 0.476562,-2.90625 0.5,-2.9375 0.53125,-2.96875 0.5625,-3 0.613281,-3.03125 0.6875,-3.0625 c 0.070312,-0.039062 0.15625,-0.078125 0.25,-0.109375 0.101562,-0.039063 0.210938,-0.070313 0.328125,-0.09375 0.113281,-0.019531 0.226563,-0.03125 0.34375,-0.03125 0.226563,0 0.414063,0.027344 0.5625,0.078125 0.15625,0.054688 0.28125,0.125 0.375,0.21875 0.09375,0.09375 0.160156,0.214844 0.203125,0.359375 0.050781,0.148437 0.078125,0.3125 0.078125,0.5 z m -0.5625,-1.40625 H 1.78125 c -0.148438,0 -0.277344,0.015625 -0.390625,0.046875 -0.117187,0.023438 -0.214844,0.058594 -0.296875,0.109375 -0.074219,0.054687 -0.125,0.117187 -0.15625,0.1875 -0.03125,0.074219 -0.046875,0.15625 -0.046875,0.25 0,0.15625 0.046875,0.28125 0.140625,0.375 C 1.132812,-0.421875 1.273438,-0.375 1.453125,-0.375 1.609375,-0.375 1.75,-0.410156 1.875,-0.484375 2,-0.554688 2.128906,-0.671875 2.265625,-0.828125 Z m 0,0"
           id="path44" />
      </symbol>
      <symbol
         overflow="visible"
         id="glyph1-13">
        <path
           style="stroke:none"
           d="m 5.046875,-0.078125 c 0,0.0117188 -0.00781,0.0273438 -0.015625,0.046875 C 5.03125,-0.0195312 5.019531,-0.0078125 5,0 4.976562,0 4.945312,0 4.90625,0 4.875,0.0078125 4.832031,0.015625 4.78125,0.015625 4.71875,0.015625 4.664062,0.0078125 4.625,0 4.59375,0 4.566406,0 4.546875,0 4.523438,-0.0078125 4.507812,-0.0195312 4.5,-0.03125 4.488281,-0.0507812 4.484375,-0.0664062 4.484375,-0.078125 V -1.9375 c 0,-0.132812 -0.011719,-0.253906 -0.03125,-0.359375 C 4.429688,-2.398438 4.394531,-2.488281 4.34375,-2.5625 4.289062,-2.644531 4.226562,-2.707031 4.15625,-2.75 4.082031,-2.789062 3.992188,-2.8125 3.890625,-2.8125 c -0.136719,0 -0.273437,0.054688 -0.40625,0.15625 -0.125,0.09375 -0.265625,0.242188 -0.421875,0.4375 v 2.140625 c 0,0.0117188 -0.00781,0.0273438 -0.015625,0.046875 C 3.035156,-0.0195312 3.019531,-0.0078125 3,0 2.976562,0 2.945312,0 2.90625,0 2.875,0.0078125 2.832031,0.015625 2.78125,0.015625 2.726562,0.015625 2.679688,0.0078125 2.640625,0 2.609375,0 2.582031,0 2.5625,0 2.539062,-0.0078125 2.523438,-0.0195312 2.515625,-0.03125 2.503906,-0.0507812 2.5,-0.0664062 2.5,-0.078125 V -1.9375 C 2.5,-2.070312 2.488281,-2.191406 2.46875,-2.296875 2.445312,-2.398438 2.410156,-2.488281 2.359375,-2.5625 2.304688,-2.644531 2.238281,-2.707031 2.15625,-2.75 2.082031,-2.789062 1.992188,-2.8125 1.890625,-2.8125 c -0.125,0 -0.257813,0.054688 -0.390625,0.15625 -0.125,0.09375 -0.265625,0.242188 -0.421875,0.4375 v 2.140625 c 0,0.0117188 -0.00781,0.0273438 -0.015625,0.046875 C 1.050781,-0.0195312 1.035156,-0.0078125 1.015625,0 0.992188,0 0.960938,0 0.921875,0 0.890625,0.0078125 0.847656,0.015625 0.796875,0.015625 0.742188,0.015625 0.695312,0.0078125 0.65625,0 0.625,0 0.597656,0 0.578125,0 0.554688,-0.0078125 0.539062,-0.0195312 0.53125,-0.03125 0.519531,-0.0507812 0.515625,-0.0664062 0.515625,-0.078125 v -3.0625 c 0,-0.019531 0.003906,-0.035156 0.015625,-0.046875 0.007812,-0.00781 0.019531,-0.019531 0.03125,-0.03125 0.019531,-0.00781 0.046875,-0.015625 0.078125,-0.015625 C 0.679688,-3.242188 0.726562,-3.25 0.78125,-3.25 c 0.039062,0 0.078125,0.00781 0.109375,0.015625 0.039063,0 0.066406,0.00781 0.078125,0.015625 0.019531,0.011719 0.035156,0.023438 0.046875,0.03125 0.00781,0.011719 0.015625,0.027344 0.015625,0.046875 v 0.40625 c 0.164062,-0.195313 0.328125,-0.335937 0.484375,-0.421875 0.164063,-0.09375 0.332031,-0.140625 0.5,-0.140625 0.125,0 0.238281,0.015625 0.34375,0.046875 0.101563,0.03125 0.191406,0.074219 0.265625,0.125 0.070312,0.054688 0.132812,0.117188 0.1875,0.1875 0.0625,0.074219 0.109375,0.15625 0.140625,0.25 C 3.054688,-2.800781 3.15625,-2.894531 3.25,-2.96875 3.34375,-3.050781 3.429688,-3.113281 3.515625,-3.15625 3.597656,-3.207031 3.675781,-3.242188 3.75,-3.265625 3.832031,-3.285156 3.914062,-3.296875 4,-3.296875 c 0.195312,0 0.363281,0.039063 0.5,0.109375 0.132812,0.0625 0.242188,0.15625 0.328125,0.28125 C 4.910156,-2.789062 4.96875,-2.65625 5,-2.5 c 0.03125,0.148438 0.046875,0.308594 0.046875,0.484375 z m 0,0"
           id="path47" />
      </symbol>
      <symbol
         overflow="visible"
         id="glyph1-14">
        <path
           style="stroke:none"
           d="m 3.03125,-3.140625 c 0,0 -0.00781,0.00781 -0.015625,0.015625 0,0.011719 0,0.027344 0,0.046875 0,0.011719 -0.00781,0.023437 -0.015625,0.03125 C 3,-3.035156 3,-3.019531 3,-3 L 1.953125,-0.109375 C 1.941406,-0.078125 1.925781,-0.0507812 1.90625,-0.03125 1.894531,-0.0195312 1.875,-0.0078125 1.84375,0 1.820312,0.0078125 1.785156,0.015625 1.734375,0.015625 c -0.042969,0 -0.09375,0 -0.15625,0 C 1.503906,0.015625 1.441406,0.0078125 1.390625,0 1.347656,0 1.3125,0 1.28125,0 1.257812,-0.0078125 1.238281,-0.0195312 1.21875,-0.03125 1.207031,-0.0507812 1.195312,-0.078125 1.1875,-0.109375 L 0.15625,-3 C 0.144531,-3.03125 0.132812,-3.054688 0.125,-3.078125 0.125,-3.097656 0.117188,-3.113281 0.109375,-3.125 c 0,-0.00781 0,-0.015625 0,-0.015625 0,-0.019531 0.003906,-0.035156 0.015625,-0.046875 C 0.132812,-3.207031 0.148438,-3.21875 0.171875,-3.21875 0.191406,-3.226562 0.21875,-3.234375 0.25,-3.234375 0.289062,-3.242188 0.335938,-3.25 0.390625,-3.25 c 0.0625,0 0.113281,0.00781 0.15625,0.015625 0.039063,0 0.070313,0.00781 0.09375,0.015625 0.019531,0.011719 0.035156,0.023438 0.046875,0.03125 0.007812,0.011719 0.019531,0.027344 0.03125,0.046875 L 1.578125,-0.625 1.59375,-0.578125 1.609375,-0.625 2.453125,-3.140625 C 2.460938,-3.160156 2.472656,-3.175781 2.484375,-3.1875 2.492188,-3.195312 2.507812,-3.207031 2.53125,-3.21875 2.550781,-3.226562 2.578125,-3.234375 2.609375,-3.234375 2.648438,-3.242188 2.703125,-3.25 2.765625,-3.25 c 0.050781,0 0.09375,0.00781 0.125,0.015625 0.03125,0 0.054687,0.00781 0.078125,0.015625 0.019531,0 0.035156,0.011719 0.046875,0.03125 0.00781,0.011719 0.015625,0.027344 0.015625,0.046875 z m 0,0"
           id="path50" />
      </symbol>
      <symbol
         overflow="visible"
         id="glyph1-15">
        <path
           style="stroke:none"
           d="m 3.328125,-1.65625 c 0,0.261719 -0.03125,0.5 -0.09375,0.71875 -0.054687,0.210938 -0.136719,0.390625 -0.25,0.546875 -0.105469,0.148437 -0.242187,0.261719 -0.40625,0.34375 C 2.410156,0.0234375 2.21875,0.0625 2,0.0625 1.914062,0.0625 1.832031,0.0507812 1.75,0.03125 1.675781,0.0195312 1.601562,-0.00390625 1.53125,-0.046875 1.457031,-0.0859375 1.382812,-0.132812 1.3125,-0.1875 1.238281,-0.25 1.160156,-0.320312 1.078125,-0.40625 V 1.125 c 0,0.019531 -0.00781,0.035156 -0.015625,0.046875 C 1.050781,1.179688 1.035156,1.191406 1.015625,1.203125 0.992188,1.210938 0.960938,1.21875 0.921875,1.21875 0.890625,1.226562 0.847656,1.234375 0.796875,1.234375 0.742188,1.234375 0.695312,1.226562 0.65625,1.21875 0.625,1.21875 0.597656,1.210938 0.578125,1.203125 0.554688,1.191406 0.539062,1.179688 0.53125,1.171875 0.519531,1.160156 0.515625,1.144531 0.515625,1.125 v -4.265625 c 0,-0.019531 0.003906,-0.035156 0.015625,-0.046875 0.007812,-0.00781 0.019531,-0.019531 0.03125,-0.03125 0.019531,-0.00781 0.046875,-0.015625 0.078125,-0.015625 0.039063,-0.00781 0.082031,-0.015625 0.125,-0.015625 0.039063,0 0.078125,0.00781 0.109375,0.015625 0.03125,0 0.054688,0.00781 0.078125,0.015625 C 0.972656,-3.207031 0.988281,-3.195312 1,-3.1875 c 0.00781,0.011719 0.015625,0.027344 0.015625,0.046875 v 0.40625 C 1.109375,-2.828125 1.195312,-2.90625 1.28125,-2.96875 1.363281,-3.039062 1.445312,-3.097656 1.53125,-3.140625 1.625,-3.191406 1.71875,-3.226562 1.8125,-3.25 1.90625,-3.28125 2,-3.296875 2.09375,-3.296875 c 0.226562,0 0.421875,0.046875 0.578125,0.140625 0.15625,0.085938 0.28125,0.199219 0.375,0.34375 0.09375,0.148438 0.160156,0.320312 0.203125,0.515625 0.050781,0.199219 0.078125,0.414063 0.078125,0.640625 z m -0.59375,0.0625 c 0,-0.15625 -0.011719,-0.304688 -0.03125,-0.453125 C 2.679688,-2.191406 2.640625,-2.320312 2.578125,-2.4375 2.523438,-2.550781 2.445312,-2.640625 2.34375,-2.703125 2.25,-2.773438 2.128906,-2.8125 1.984375,-2.8125 c -0.074219,0 -0.148437,0.011719 -0.21875,0.03125 -0.0625,0.023438 -0.132813,0.058594 -0.203125,0.109375 -0.074219,0.042969 -0.152344,0.105469 -0.234375,0.1875 -0.074219,0.074219 -0.15625,0.164063 -0.25,0.265625 V -1 c 0.15625,0.1875 0.300781,0.335938 0.4375,0.4375 0.132813,0.09375 0.28125,0.140625 0.4375,0.140625 0.132813,0 0.253906,-0.03125 0.359375,-0.09375 0.101562,-0.070313 0.1875,-0.160156 0.25,-0.265625 0.0625,-0.113281 0.101562,-0.238281 0.125,-0.375 0.03125,-0.144531 0.046875,-0.289062 0.046875,-0.4375 z m 0,0"
           id="path53" />
      </symbol>
      <symbol
         overflow="visible"
         id="glyph1-16">
        <path
           style="stroke:none"
           d="m 3.140625,-0.25 c 0,0.042969 -0.00781,0.078125 -0.015625,0.109375 0,0.03125 -0.00781,0.0585938 -0.015625,0.078125 C 3.097656,-0.0390625 3.082031,-0.0234375 3.0625,-0.015625 3.039062,-0.00390625 3.023438,0 3.015625,0 h -2.4375 C 0.546875,0 0.519531,-0.00390625 0.5,-0.015625 0.476562,-0.0234375 0.457031,-0.0351562 0.4375,-0.046875 0.414062,-0.0664062 0.398438,-0.09375 0.390625,-0.125 c 0,-0.039062 0,-0.082031 0,-0.125 0,-0.050781 0,-0.09375 0,-0.125 0,-0.03125 0.003906,-0.054688 0.015625,-0.078125 0.019531,-0.03125 0.035156,-0.054687 0.046875,-0.078125 0.019531,-0.03125 0.039063,-0.0625 0.0625,-0.09375 L 1.375,-1.53125 C 1.570312,-1.738281 1.726562,-1.921875 1.84375,-2.078125 1.96875,-2.242188 2.0625,-2.394531 2.125,-2.53125 2.1875,-2.675781 2.226562,-2.800781 2.25,-2.90625 2.269531,-3.019531 2.28125,-3.125 2.28125,-3.21875 2.28125,-3.320312 2.265625,-3.414062 2.234375,-3.5 2.203125,-3.582031 2.15625,-3.65625 2.09375,-3.71875 2.03125,-3.789062 1.953125,-3.84375 1.859375,-3.875 1.773438,-3.914062 1.675781,-3.9375 1.5625,-3.9375 1.414062,-3.9375 1.285156,-3.914062 1.171875,-3.875 1.066406,-3.84375 0.972656,-3.800781 0.890625,-3.75 0.816406,-3.707031 0.75,-3.664062 0.6875,-3.625 c -0.054688,0.03125 -0.09375,0.046875 -0.125,0.046875 -0.011719,0 -0.027344,-0.00391 -0.046875,-0.015625 -0.011719,-0.00781 -0.023437,-0.019531 -0.03125,-0.03125 0,-0.019531 -0.007813,-0.046875 -0.015625,-0.078125 0,-0.039063 0,-0.085937 0,-0.140625 0,-0.03125 0,-0.054688 0,-0.078125 0,-0.03125 0.003906,-0.050781 0.015625,-0.0625 C 0.492188,-4.003906 0.5,-4.019531 0.5,-4.03125 0.507812,-4.050781 0.523438,-4.070312 0.546875,-4.09375 0.578125,-4.125 0.625,-4.15625 0.6875,-4.1875 c 0.070312,-0.039062 0.160156,-0.082031 0.265625,-0.125 0.101563,-0.039062 0.210937,-0.070312 0.328125,-0.09375 0.125,-0.03125 0.253906,-0.046875 0.390625,-0.046875 0.207031,0 0.390625,0.03125 0.546875,0.09375 0.164062,0.054687 0.300781,0.132813 0.40625,0.234375 0.101562,0.105469 0.179688,0.230469 0.234375,0.375 0.050781,0.136719 0.078125,0.28125 0.078125,0.4375 0,0.136719 -0.015625,0.277344 -0.046875,0.421875 -0.023437,0.136719 -0.074219,0.289063 -0.15625,0.453125 -0.074219,0.15625 -0.1875,0.335938 -0.34375,0.53125 -0.148437,0.199219 -0.34375,0.429688 -0.59375,0.6875 L 1.09375,-0.5 H 3 c 0.019531,0 0.035156,0.007812 0.046875,0.015625 0.019531,0.011719 0.035156,0.027344 0.046875,0.046875 0.019531,0.023438 0.03125,0.046875 0.03125,0.078125 0.00781,0.03125 0.015625,0.070313 0.015625,0.109375 z m 0,0"
           id="path56" />
      </symbol>
      <symbol
         overflow="visible"
         id="glyph1-17">
        <path
           style="stroke:none"
           d="m 3.140625,-0.234375 c 0,0.042969 -0.00781,0.078125 -0.015625,0.109375 0,0.03125 -0.00781,0.0585938 -0.015625,0.078125 C 3.097656,-0.0351562 3.082031,-0.0234375 3.0625,-0.015625 3.050781,-0.00390625 3.039062,0 3.03125,0 H 0.734375 C 0.710938,0 0.695312,-0.00390625 0.6875,-0.015625 0.675781,-0.0234375 0.660156,-0.0351562 0.640625,-0.046875 0.628906,-0.0664062 0.617188,-0.09375 0.609375,-0.125 c 0,-0.03125 0,-0.066406 0,-0.109375 0,-0.039063 0,-0.070313 0,-0.09375 0.007813,-0.03125 0.019531,-0.054687 0.03125,-0.078125 0.007813,-0.019531 0.019531,-0.035156 0.03125,-0.046875 0.019531,-0.007813 0.039063,-0.015625 0.0625,-0.015625 h 0.90625 V -3.8125 l -0.84375,0.515625 C 0.753906,-3.273438 0.71875,-3.257812 0.6875,-3.25 0.664062,-3.25 0.644531,-3.253906 0.625,-3.265625 0.613281,-3.285156 0.601562,-3.3125 0.59375,-3.34375 c 0,-0.039062 0,-0.085938 0,-0.140625 0,-0.03125 0,-0.0625 0,-0.09375 0,-0.03125 0.003906,-0.050781 0.015625,-0.0625 C 0.617188,-3.660156 0.628906,-3.675781 0.640625,-3.6875 0.648438,-3.707031 0.664062,-3.722656 0.6875,-3.734375 l 1.015625,-0.65625 c 0.00781,0 0.019531,0 0.03125,0 0.00781,-0.00781 0.023437,-0.015625 0.046875,-0.015625 0.019531,-0.00781 0.039062,-0.015625 0.0625,-0.015625 0.03125,0 0.066406,0 0.109375,0 0.0625,0 0.109375,0.00781 0.140625,0.015625 0.039062,0 0.066406,0.00781 0.078125,0.015625 0.019531,0 0.035156,0.011719 0.046875,0.03125 0.00781,0.011719 0.015625,0.023437 0.015625,0.03125 V -0.46875 H 3.03125 c 0.00781,0 0.019531,0.007812 0.03125,0.015625 0.019531,0.011719 0.035156,0.027344 0.046875,0.046875 0.00781,0.023438 0.015625,0.046875 0.015625,0.078125 0.00781,0.023437 0.015625,0.054687 0.015625,0.09375 z m 0,0"
           id="path59" />
      </symbol>
      <symbol
         overflow="visible"
         id="glyph1-18">
        <path
           style="stroke:none"
           d="m 3.28125,-2.203125 c 0,0.335937 -0.027344,0.640625 -0.078125,0.921875 C 3.148438,-1 3.0625,-0.757812 2.9375,-0.5625 2.8125,-0.363281 2.648438,-0.207031 2.453125,-0.09375 2.253906,0.0078125 2.007812,0.0625 1.71875,0.0625 1.4375,0.0625 1.203125,0.015625 1.015625,-0.078125 0.828125,-0.179688 0.675781,-0.328125 0.5625,-0.515625 0.445312,-0.703125 0.363281,-0.9375 0.3125,-1.21875 0.269531,-1.5 0.25,-1.820312 0.25,-2.1875 c 0,-0.332031 0.023438,-0.640625 0.078125,-0.921875 0.050781,-0.28125 0.140625,-0.519531 0.265625,-0.71875 0.125,-0.195313 0.285156,-0.347656 0.484375,-0.453125 0.195313,-0.113281 0.441406,-0.171875 0.734375,-0.171875 0.269531,0 0.5,0.054687 0.6875,0.15625 0.195312,0.09375 0.351562,0.234375 0.46875,0.421875 0.113281,0.1875 0.191406,0.421875 0.234375,0.703125 0.050781,0.28125 0.078125,0.605469 0.078125,0.96875 z M 2.6875,-2.171875 C 2.6875,-2.390625 2.675781,-2.582031 2.65625,-2.75 2.644531,-2.925781 2.625,-3.082031 2.59375,-3.21875 2.5625,-3.351562 2.519531,-3.46875 2.46875,-3.5625 2.425781,-3.65625 2.367188,-3.734375 2.296875,-3.796875 2.234375,-3.859375 2.15625,-3.90625 2.0625,-3.9375 1.976562,-3.96875 1.878906,-3.984375 1.765625,-3.984375 c -0.1875,0 -0.34375,0.046875 -0.46875,0.140625 C 1.179688,-3.75 1.085938,-3.625 1.015625,-3.46875 0.953125,-3.3125 0.90625,-3.125 0.875,-2.90625 c -0.023438,0.210938 -0.03125,0.433594 -0.03125,0.671875 0,0.335937 0.015625,0.617187 0.046875,0.84375 0.03125,0.230469 0.082031,0.417969 0.15625,0.5625 0.082031,0.148437 0.175781,0.25 0.28125,0.3125 0.113281,0.0625 0.253906,0.09375 0.421875,0.09375 0.125,0 0.234375,-0.015625 0.328125,-0.046875 0.101563,-0.039062 0.1875,-0.097656 0.25,-0.171875 C 2.398438,-0.722656 2.457031,-0.816406 2.5,-0.921875 2.550781,-1.023438 2.585938,-1.140625 2.609375,-1.265625 2.640625,-1.398438 2.660156,-1.539062 2.671875,-1.6875 2.679688,-1.84375 2.6875,-2.003906 2.6875,-2.171875 Z m 0,0"
           id="path62" />
      </symbol>
      <symbol
         overflow="visible"
         id="glyph1-19">
        <path
           style="stroke:none"
           d="m 1.21875,-0.359375 c 0,0.15625 -0.027344,0.2617188 -0.078125,0.3125 -0.054687,0.05078125 -0.148437,0.078125 -0.28125,0.078125 -0.125,0 -0.214844,-0.02734375 -0.265625,-0.078125 -0.054688,-0.0507812 -0.078125,-0.15625 -0.078125,-0.3125 0,-0.15625 0.023437,-0.257813 0.078125,-0.3125 C 0.644531,-0.722656 0.738281,-0.75 0.875,-0.75 c 0.125,0 0.210938,0.027344 0.265625,0.078125 0.050781,0.054687 0.078125,0.15625 0.078125,0.3125 z m 1.53125,0 c 0,0.15625 -0.027344,0.2617188 -0.078125,0.3125 -0.054687,0.05078125 -0.148437,0.078125 -0.28125,0.078125 -0.125,0 -0.214844,-0.02734375 -0.265625,-0.078125 -0.054688,-0.0507812 -0.078125,-0.15625 -0.078125,-0.3125 0,-0.15625 0.023437,-0.257813 0.078125,-0.3125 C 2.175781,-0.722656 2.269531,-0.75 2.40625,-0.75 c 0.132812,0 0.222656,0.027344 0.265625,0.078125 0.050781,0.054687 0.078125,0.15625 0.078125,0.3125 z m 1.546875,0 c 0,0.15625 -0.03125,0.2617188 -0.09375,0.3125 -0.054687,0.05078125 -0.148437,0.078125 -0.28125,0.078125 -0.125,0 -0.214844,-0.02734375 -0.265625,-0.078125 -0.054688,-0.0507812 -0.078125,-0.15625 -0.078125,-0.3125 0,-0.15625 0.023437,-0.257813 0.078125,-0.3125 C 3.707031,-0.722656 3.800781,-0.75 3.9375,-0.75 c 0.132812,0 0.226562,0.027344 0.28125,0.078125 0.050781,0.054687 0.078125,0.15625 0.078125,0.3125 z m 0,0"
           id="path65" />
      </symbol>
      <symbol
         overflow="visible"
         id="glyph1-20">
        <path
           style="stroke:none"
           d="m 2.859375,-0.25 c 0,0.042969 -0.00781,0.078125 -0.015625,0.109375 0,0.03125 -0.00781,0.0585938 -0.015625,0.078125 -0.011719,0.0234375 -0.023437,0.0390625 -0.03125,0.046875 C 2.785156,-0.00390625 2.769531,0 2.75,0 H 0.796875 c -0.054687,0 -0.105469,-0.015625 -0.15625,-0.046875 -0.042969,-0.0390625 -0.0625,-0.101563 -0.0625,-0.1875 V -4.3125 c 0,-0.00781 0.003906,-0.019531 0.015625,-0.03125 C 0.601562,-4.363281 0.617188,-4.375 0.640625,-4.375 0.660156,-4.382812 0.691406,-4.390625 0.734375,-4.390625 0.773438,-4.398438 0.820312,-4.40625 0.875,-4.40625 c 0.050781,0 0.097656,0.00781 0.140625,0.015625 0.039063,0 0.070313,0.00781 0.09375,0.015625 0.019531,0 0.035156,0.011719 0.046875,0.03125 0.00781,0.011719 0.015625,0.023438 0.015625,0.03125 V -0.5 H 2.75 c 0.019531,0 0.035156,0.007812 0.046875,0.015625 0.00781,0.011719 0.019531,0.027344 0.03125,0.046875 0.00781,0.011719 0.015625,0.03125 0.015625,0.0625 0.00781,0.03125 0.015625,0.074219 0.015625,0.125 z m 0,0"
           id="path68" />
      </symbol>
      <symbol
         overflow="visible"
         id="glyph1-21">
        <path
           style="stroke:none"
           d="m 1.25,-0.375 c 0,0.167969 -0.03125,0.2773438 -0.09375,0.328125 C 1.101562,0.00390625 1.007812,0.03125 0.875,0.03125 c -0.136719,0 -0.230469,-0.02734375 -0.28125,-0.078125 -0.054688,-0.0507812 -0.078125,-0.15625 -0.078125,-0.3125 0,-0.15625 0.023437,-0.257813 0.078125,-0.3125 0.050781,-0.0625 0.144531,-0.09375 0.28125,-0.09375 0.144531,0 0.242188,0.027344 0.296875,0.078125 C 1.222656,-0.632812 1.25,-0.53125 1.25,-0.375 Z m 0,0"
           id="path71" />
      </symbol>
    </g>
    <clipPath
       id="clip1">
      <path
         d="m 277,268 h 4 v 4.44922 h -4 z m 0,0"
         id="path76" />
    </clipPath>
    <clipPath
       id="clip2">
      <path
         d="m 281,268 h 7 v 4.44922 h -7 z m 0,0"
         id="path79" />
    </clipPath>
    <clipPath
       id="clip3">
      <path
         d="m 287,272 h 1 v 0.44922 h -1 z m 0,0"
         id="path82" />
    </clipPath>
    <clipPath
       id="clip4">
      <path
         d="m 289,269 h 4 v 3.44922 h -4 z m 0,0"
         id="path85" />
    </clipPath>
    <clipPath
       id="clip5">
      <path
         d="m 294,267 h 4 v 5.44922 h -4 z m 0,0"
         id="path88" />
    </clipPath>
    <clipPath
       id="clip6">
      <path
         d="m 298,268 h 3 v 4.44922 h -3 z m 0,0"
         id="path91" />
    </clipPath>
    <clipPath
       id="clip7">
      <path
         d="m 301,272 h 1 v 0.44922 h -1 z m 0,0"
         id="path94" />
    </clipPath>
    <clipPath
       id="clip8">
      <path
         d="m 225,273 h 11 v 5.32812 h -11 z m 0,0"
         id="path97" />
    </clipPath>
    <clipPath
       id="clip9">
      <path
         d="m 236,273 h 3 v 5.32812 h -3 z m 0,0"
         id="path100" />
    </clipPath>
    <clipPath
       id="clip10">
      <path
         d="m 239,274 h 6 v 4.32812 h -6 z m 0,0"
         id="path103" />
    </clipPath>
    <clipPath
       id="clip11">
      <path
         d="m 213,216 h 11 v 6.64844 h -11 z m 0,0"
         id="path106" />
    </clipPath>
    <clipPath
       id="clip12">
      <path
         d="m 165,215 h 1 v 0.89844 h -1 z m 0,0"
         id="path109" />
    </clipPath>
    <clipPath
       id="clip13">
      <path
         d="m 167,210 h 4 v 5.89844 h -4 z m 0,0"
         id="path112" />
    </clipPath>
    <clipPath
       id="clip14">
      <path
         d="m 171,210 h 4 v 5.89844 h -4 z m 0,0"
         id="path115" />
    </clipPath>
    <clipPath
       id="clip15">
      <path
         d="m 174,210 h 11 v 5.89844 h -11 z m 0,0"
         id="path118" />
    </clipPath>
    <clipPath
       id="clip16">
      <path
         d="m 185,210 h 3 v 5.89844 h -3 z m 0,0"
         id="path121" />
    </clipPath>
    <clipPath
       id="clip17">
      <path
         d="m 188,215 h 1 v 0.89844 h -1 z m 0,0"
         id="path124" />
    </clipPath>
    <clipPath
       id="clip18">
      <path
         d="m 131,201 h 3 v 5.17969 h -3 z m 0,0"
         id="path127" />
    </clipPath>
    <clipPath
       id="clip19">
      <path
         d="m 134,201 h 4 v 5.17969 h -4 z m 0,0"
         id="path130" />
    </clipPath>
    <clipPath
       id="clip20">
      <path
         d="m 137,206 h 1 v 0.17969 h -1 z m 0,0"
         id="path133" />
    </clipPath>
    <clipPath
       id="clip21">
      <path
         d="m 139,201 h 9 v 5.17969 h -9 z m 0,0"
         id="path136" />
    </clipPath>
    <clipPath
       id="clip22">
      <path
         d="m 148,201 h 3 v 5.17969 h -3 z m 0,0"
         id="path139" />
    </clipPath>
    <clipPath
       id="clip23">
      <path
         d="m 151,206 h 1 v 0.17969 h -1 z m 0,0"
         id="path142" />
    </clipPath>
  </defs>
  <g
     id="surface1"
     transform="translate(-84.800781,-94.191406)">
    <g
       style="fill:#000000;fill-opacity:1"
       id="g149">
      <use
         xlink:href="#glyph0-1"
         x="85.103996"
         y="81.260002"
         id="use147"
         width="100%"
         height="100%" />
    </g>
    <g
       style="fill:#000000;fill-opacity:1"
       id="g153">
      <use
         xlink:href="#glyph0-1"
         x="85.103996"
         y="103.82"
         id="use151"
         width="100%"
         height="100%" />
    </g>
    <g
       style="fill:#000000;fill-opacity:1"
       id="g157">
      <use
         xlink:href="#glyph0-1"
         x="85.103996"
         y="126.26"
         id="use155"
         width="100%"
         height="100%" />
    </g>
    <g
       style="fill:#000000;fill-opacity:1"
       id="g161">
      <use
         xlink:href="#glyph0-1"
         x="85.103996"
         y="148.82001"
         id="use159"
         width="100%"
         height="100%" />
    </g>
    <g
       style="fill:#000000;fill-opacity:1"
       id="g165">
      <use
         xlink:href="#glyph0-1"
         x="85.103996"
         y="171.25999"
         id="use163"
         width="100%"
         height="100%" />
    </g>
    <g
       style="fill:#000000;fill-opacity:1"
       id="g169">
      <use
         xlink:href="#glyph0-1"
         x="85.103996"
         y="193.82001"
         id="use167"
         width="100%"
         height="100%" />
    </g>
    <g
       style="fill:#000000;fill-opacity:1"
       id="g173">
      <use
         xlink:href="#glyph0-1"
         x="85.103996"
         y="216.25999"
         id="use171"
         width="100%"
         height="100%" />
    </g>
    <g
       style="fill:#000000;fill-opacity:1"
       id="g177">
      <use
         xlink:href="#glyph0-1"
         x="85.103996"
         y="238.73"
         id="use175"
         width="100%"
         height="100%" />
    </g>
    <g
       style="fill:#000000;fill-opacity:1"
       id="g181">
      <use
         xlink:href="#glyph0-1"
         x="85.103996"
         y="261.29001"
         id="use179"
         width="100%"
         height="100%" />
    </g>
    <path
       style="fill:#ffffff;fill-opacity:1;fill-rule:evenodd;stroke:#ffffff;stroke-width:0.5;stroke-linecap:butt;stroke-linejoin:round;stroke-miterlimit:10;stroke-opacity:1"
       d="m 269.55078,515.71094 h 47.25 v 14.25 h -47.25 z m 0,0"
       transform="matrix(1,0,0,-1,0,792)"
       id="path183" />
    <g
       clip-path="url(#clip1)"
       clip-rule="nonzero"
       id="g189">
      <g
         style="fill:#000000;fill-opacity:1"
         id="g187">
        <use
           xlink:href="#glyph1-1"
           x="277.01001"
           y="272.69"
           id="use185"
           width="100%"
           height="100%" />
      </g>
    </g>
    <g
       clip-path="url(#clip2)"
       clip-rule="nonzero"
       id="g197">
      <g
         style="fill:#000000;fill-opacity:1"
         id="g195">
        <use
           xlink:href="#glyph1-2"
           x="280.85001"
           y="272.69"
           id="use191"
           width="100%"
           height="100%" />
        <use
           xlink:href="#glyph1-3"
           x="284.33002"
           y="272.69"
           id="use193"
           width="100%"
           height="100%" />
      </g>
    </g>
    <g
       clip-path="url(#clip3)"
       clip-rule="nonzero"
       id="g203">
      <g
         style="fill:#000000;fill-opacity:1"
         id="g201">
        <use
           xlink:href="#glyph1-4"
           x="287.82999"
           y="272.69"
           id="use199"
           width="100%"
           height="100%" />
      </g>
    </g>
    <g
       clip-path="url(#clip4)"
       clip-rule="nonzero"
       id="g211">
      <g
         style="fill:#000000;fill-opacity:1"
         id="g209">
        <use
           xlink:href="#glyph1-5"
           x="289.39001"
           y="272.69"
           id="use205"
           width="100%"
           height="100%" />
        <use
           xlink:href="#glyph1-4"
           x="292.85608"
           y="272.69"
           id="use207"
           width="100%"
           height="100%" />
      </g>
    </g>
    <g
       clip-path="url(#clip5)"
       clip-rule="nonzero"
       id="g217">
      <g
         style="fill:#000000;fill-opacity:1"
         id="g215">
        <use
           xlink:href="#glyph1-6"
           x="294.54041"
           y="272.69"
           id="use213"
           width="100%"
           height="100%" />
      </g>
    </g>
    <g
       clip-path="url(#clip6)"
       clip-rule="nonzero"
       id="g223">
      <g
         style="fill:#000000;fill-opacity:1"
         id="g221">
        <use
           xlink:href="#glyph1-7"
           x="298.02039"
           y="272.69"
           id="use219"
           width="100%"
           height="100%" />
      </g>
    </g>
    <g
       clip-path="url(#clip7)"
       clip-rule="nonzero"
       id="g229">
      <g
         style="fill:#000000;fill-opacity:1"
         id="g227">
        <use
           xlink:href="#glyph1-4"
           x="301.39001"
           y="272.69"
           id="use225"
           width="100%"
           height="100%" />
      </g>
    </g>
    <path
       style="fill:#ffffff;fill-opacity:1;fill-rule:evenodd;stroke:#ffffff;stroke-width:0.5;stroke-linecap:butt;stroke-linejoin:round;stroke-miterlimit:10;stroke-opacity:1"
       d="m 285,496.91016 h 20.25 v 16.5 H 285 Z m 0,0"
       transform="matrix(1,0,0,-1,0,792)"
       id="path231" />
    <g
       style="fill:#000000;fill-opacity:1"
       id="g237">
      <use
         xlink:href="#glyph1-8"
         x="292.51001"
         y="289.25"
         id="use233"
         width="100%"
         height="100%" />
      <use
         xlink:href="#glyph1-8"
         x="294.67001"
         y="289.25"
         id="use235"
         width="100%"
         height="100%" />
    </g>
    <g
       style="fill:#000000;fill-opacity:1"
       id="g241">
      <use
         xlink:href="#glyph1-4"
         x="296.82999"
         y="289.25"
         id="use239"
         width="100%"
         height="100%" />
    </g>
    <path
       style="fill:#ffffff;fill-opacity:1;fill-rule:evenodd;stroke:#ffffff;stroke-width:0.5;stroke-linecap:butt;stroke-linejoin:round;stroke-miterlimit:10;stroke-opacity:1"
       d="m 247,527.76172 h 52.5 v 24 H 247 Z m 0,0"
       transform="matrix(1,0,0,-1,0,792)"
       id="path243" />
    <g
       style="fill:#000000;fill-opacity:1"
       id="g247">
      <use
         xlink:href="#glyph1-4"
         x="254.45"
         y="250.85001"
         id="use245"
         width="100%"
         height="100%" />
    </g>
    <path
       style="fill:#ffffff;fill-opacity:1;fill-rule:evenodd;stroke:#ffffff;stroke-width:0.5;stroke-linecap:butt;stroke-linejoin:round;stroke-miterlimit:10;stroke-opacity:1"
       d="M 214.5,509.91016 H 273 v 24 h -58.5 z m 0,0"
       transform="matrix(1,0,0,-1,0,792)"
       id="path249" />
    <g
       style="fill:#000000;fill-opacity:1"
       id="g253">
      <use
         xlink:href="#glyph1-9"
         x="222.05"
         y="268.73001"
         id="use251"
         width="100%"
         height="100%" />
    </g>
    <g
       style="fill:#000000;fill-opacity:1"
       id="g263">
      <use
         xlink:href="#glyph1-4"
         x="223.60904"
         y="268.73001"
         id="use255"
         width="100%"
         height="100%" />
      <use
         xlink:href="#glyph1-5"
         x="225.18201"
         y="268.73001"
         id="use257"
         width="100%"
         height="100%" />
      <use
         xlink:href="#glyph1-4"
         x="228.64809"
         y="268.73001"
         id="use259"
         width="100%"
         height="100%" />
      <use
         xlink:href="#glyph1-2"
         x="230.22104"
         y="268.73001"
         id="use261"
         width="100%"
         height="100%" />
    </g>
    <g
       style="fill:#000000;fill-opacity:1"
       id="g267">
      <use
         xlink:href="#glyph1-2"
         x="233.81"
         y="268.73001"
         id="use265"
         width="100%"
         height="100%" />
    </g>
    <g
       style="fill:#000000;fill-opacity:1"
       id="g271">
      <use
         xlink:href="#glyph1-10"
         x="237.28999"
         y="268.73001"
         id="use269"
         width="100%"
         height="100%" />
    </g>
    <g
       style="fill:#000000;fill-opacity:1"
       id="g275">
      <use
         xlink:href="#glyph1-4"
         x="242.32208"
         y="268.73001"
         id="use273"
         width="100%"
         height="100%" />
    </g>
    <g
       style="fill:#000000;fill-opacity:1"
       id="g279">
      <use
         xlink:href="#glyph1-11"
         x="243.89"
         y="268.73001"
         id="use277"
         width="100%"
         height="100%" />
    </g>
    <g
       style="fill:#000000;fill-opacity:1"
       id="g283">
      <use
         xlink:href="#glyph1-12"
         x="247.59969"
         y="268.73001"
         id="use281"
         width="100%"
         height="100%" />
    </g>
    <g
       style="fill:#000000;fill-opacity:1"
       id="g287">
      <use
         xlink:href="#glyph1-13"
         x="250.95441"
         y="268.73001"
         id="use285"
         width="100%"
         height="100%" />
    </g>
    <g
       style="fill:#000000;fill-opacity:1"
       id="g291">
      <use
         xlink:href="#glyph1-14"
         x="256.47369"
         y="268.73001"
         id="use289"
         width="100%"
         height="100%" />
    </g>
    <g
       style="fill:#000000;fill-opacity:1"
       id="g295">
      <use
         xlink:href="#glyph1-4"
         x="259.73001"
         y="268.73001"
         id="use293"
         width="100%"
         height="100%" />
    </g>
    <g
       style="fill:#000000;fill-opacity:1"
       id="g299">
      <use
         xlink:href="#glyph1-11"
         x="222.05"
         y="277.97"
         id="use297"
         width="100%"
         height="100%" />
    </g>
    <g
       clip-path="url(#clip8)"
       clip-rule="nonzero"
       id="g311">
      <g
         style="fill:#000000;fill-opacity:1"
         id="g309">
        <use
           xlink:href="#glyph1-4"
           x="225.75967"
           y="277.97"
           id="use301"
           width="100%"
           height="100%" />
        <use
           xlink:href="#glyph1-5"
           x="227.33264"
           y="277.97"
           id="use303"
           width="100%"
           height="100%" />
        <use
           xlink:href="#glyph1-4"
           x="230.79872"
           y="277.97"
           id="use305"
           width="100%"
           height="100%" />
        <use
           xlink:href="#glyph1-2"
           x="232.37167"
           y="277.97"
           id="use307"
           width="100%"
           height="100%" />
      </g>
    </g>
    <g
       clip-path="url(#clip9)"
       clip-rule="nonzero"
       id="g317">
      <g
         style="fill:#000000;fill-opacity:1"
         id="g315">
        <use
           xlink:href="#glyph1-2"
           x="235.83775"
           y="277.97"
           id="use313"
           width="100%"
           height="100%" />
      </g>
    </g>
    <g
       clip-path="url(#clip10)"
       clip-rule="nonzero"
       id="g325">
      <g
         style="fill:#000000;fill-opacity:1"
         id="g323">
        <use
           xlink:href="#glyph1-4"
           x="239.31776"
           y="277.97"
           id="use319"
           width="100%"
           height="100%" />
        <use
           xlink:href="#glyph1-15"
           x="240.89072"
           y="277.97"
           id="use321"
           width="100%"
           height="100%" />
      </g>
    </g>
    <g
       style="fill:#000000;fill-opacity:1"
       id="g329">
      <use
         xlink:href="#glyph1-13"
         x="244.71176"
         y="277.97"
         id="use327"
         width="100%"
         height="100%" />
    </g>
    <g
       style="fill:#000000;fill-opacity:1"
       id="g333">
      <use
         xlink:href="#glyph1-14"
         x="250.23103"
         y="277.97"
         id="use331"
         width="100%"
         height="100%" />
    </g>
    <g
       style="fill:#000000;fill-opacity:1"
       id="g337">
      <use
         xlink:href="#glyph1-4"
         x="253.49001"
         y="277.97"
         id="use335"
         width="100%"
         height="100%" />
    </g>
    <path
       style="fill:#ffffff;fill-opacity:1;fill-rule:evenodd;stroke:#ffffff;stroke-width:0.5;stroke-linecap:butt;stroke-linejoin:round;stroke-miterlimit:10;stroke-opacity:1"
       d="m 238.75,563.76172 h 60.75 v 16.5 h -60.75 z m 0,0"
       transform="matrix(1,0,0,-1,0,792)"
       id="path339" />
    <g
       style="fill:#000000;fill-opacity:1"
       id="g343">
      <use
         xlink:href="#glyph1-4"
         x="246.28999"
         y="222.41"
         id="use341"
         width="100%"
         height="100%" />
    </g>
    <path
       style="fill:#ffffff;fill-opacity:1;fill-rule:evenodd;stroke:#ffffff;stroke-width:0.5;stroke-linecap:butt;stroke-linejoin:round;stroke-miterlimit:10;stroke-opacity:1"
       d="m 198.69922,565.51172 h 47.25 v 15.75 h -47.25 z m 0,0"
       transform="matrix(1,0,0,-1,0,792)"
       id="path345" />
    <g
       style="fill:#000000;fill-opacity:1"
       id="g349">
      <use
         xlink:href="#glyph1-1"
         x="206.21001"
         y="221.33"
         id="use347"
         width="100%"
         height="100%" />
    </g>
    <g
       style="fill:#000000;fill-opacity:1"
       id="g353">
      <use
         xlink:href="#glyph1-2"
         x="210.04495"
         y="221.33"
         id="use351"
         width="100%"
         height="100%" />
    </g>
    <g
       clip-path="url(#clip11)"
       clip-rule="nonzero"
       id="g365">
      <g
         style="fill:#000000;fill-opacity:1"
         id="g363">
        <use
           xlink:href="#glyph1-4"
           x="213.52496"
           y="221.33"
           id="use355"
           width="100%"
           height="100%" />
        <use
           xlink:href="#glyph1-5"
           x="215.09792"
           y="221.33"
           id="use357"
           width="100%"
           height="100%" />
        <use
           xlink:href="#glyph1-4"
           x="218.564"
           y="221.33"
           id="use359"
           width="100%"
           height="100%" />
        <use
           xlink:href="#glyph1-6"
           x="220.13696"
           y="221.33"
           id="use361"
           width="100%"
           height="100%" />
      </g>
    </g>
    <g
       style="fill:#000000;fill-opacity:1"
       id="g369">
      <use
         xlink:href="#glyph1-7"
         x="223.60304"
         y="221.33"
         id="use367"
         width="100%"
         height="100%" />
    </g>
    <g
       style="fill:#000000;fill-opacity:1"
       id="g373">
      <use
         xlink:href="#glyph1-4"
         x="226.97"
         y="221.33"
         id="use371"
         width="100%"
         height="100%" />
    </g>
    <path
       style="fill:#ffffff;fill-opacity:1;fill-rule:evenodd;stroke:#ffffff;stroke-width:0.5;stroke-linecap:butt;stroke-linejoin:round;stroke-miterlimit:10;stroke-opacity:1"
       d="M 158.25,572.30078 H 201 v 15 h -42.75 z m 0,0"
       transform="matrix(1,0,0,-1,0,792)"
       id="path375" />
    <g
       clip-path="url(#clip12)"
       clip-rule="nonzero"
       id="g381">
      <g
         style="fill:#000000;fill-opacity:1"
         id="g379">
        <use
           xlink:href="#glyph1-4"
           x="165.74001"
           y="215.3"
           id="use377"
           width="100%"
           height="100%" />
      </g>
    </g>
    <g
       clip-path="url(#clip13)"
       clip-rule="nonzero"
       id="g387">
      <g
         style="fill:#000000;fill-opacity:1"
         id="g385">
        <use
           xlink:href="#glyph1-1"
           x="167.3"
           y="215.3"
           id="use383"
           width="100%"
           height="100%" />
      </g>
    </g>
    <g
       clip-path="url(#clip14)"
       clip-rule="nonzero"
       id="g393">
      <g
         style="fill:#000000;fill-opacity:1"
         id="g391">
        <use
           xlink:href="#glyph1-16"
           x="171.13496"
           y="215.3"
           id="use389"
           width="100%"
           height="100%" />
      </g>
    </g>
    <g
       clip-path="url(#clip15)"
       clip-rule="nonzero"
       id="g405">
      <g
         style="fill:#000000;fill-opacity:1"
         id="g403">
        <use
           xlink:href="#glyph1-4"
           x="174.61496"
           y="215.3"
           id="use395"
           width="100%"
           height="100%" />
        <use
           xlink:href="#glyph1-5"
           x="176.18793"
           y="215.3"
           id="use397"
           width="100%"
           height="100%" />
        <use
           xlink:href="#glyph1-4"
           x="179.65401"
           y="215.3"
           id="use399"
           width="100%"
           height="100%" />
        <use
           xlink:href="#glyph1-6"
           x="181.22696"
           y="215.3"
           id="use401"
           width="100%"
           height="100%" />
      </g>
    </g>
    <g
       clip-path="url(#clip16)"
       clip-rule="nonzero"
       id="g411">
      <g
         style="fill:#000000;fill-opacity:1"
         id="g409">
        <use
           xlink:href="#glyph1-7"
           x="184.69304"
           y="215.3"
           id="use407"
           width="100%"
           height="100%" />
      </g>
    </g>
    <g
       clip-path="url(#clip17)"
       clip-rule="nonzero"
       id="g417">
      <g
         style="fill:#000000;fill-opacity:1"
         id="g415">
        <use
           xlink:href="#glyph1-4"
           x="188.09"
           y="215.3"
           id="use413"
           width="100%"
           height="100%" />
      </g>
    </g>
    <path
       style="fill:#ffffff;fill-opacity:1;fill-rule:evenodd;stroke:#ffffff;stroke-width:0.5;stroke-linecap:butt;stroke-linejoin:round;stroke-miterlimit:10;stroke-opacity:1"
       d="m 123,582.05078 h 47.25 v 14.25 H 123 Z m 0,0"
       transform="matrix(1,0,0,-1,0,792)"
       id="path419" />
    <g
       clip-path="url(#clip18)"
       clip-rule="nonzero"
       id="g425">
      <g
         style="fill:#000000;fill-opacity:1"
         id="g423">
        <use
           xlink:href="#glyph1-1"
           x="130.46001"
           y="206.3"
           id="use421"
           width="100%"
           height="100%" />
      </g>
    </g>
    <g
       clip-path="url(#clip19)"
       clip-rule="nonzero"
       id="g431">
      <g
         style="fill:#000000;fill-opacity:1"
         id="g429">
        <use
           xlink:href="#glyph1-17"
           x="134.29495"
           y="206.3"
           id="use427"
           width="100%"
           height="100%" />
      </g>
    </g>
    <g
       clip-path="url(#clip20)"
       clip-rule="nonzero"
       id="g437">
      <g
         style="fill:#000000;fill-opacity:1"
         id="g435">
        <use
           xlink:href="#glyph1-4"
           x="137.77496"
           y="206.3"
           id="use433"
           width="100%"
           height="100%" />
      </g>
    </g>
    <g
       clip-path="url(#clip21)"
       clip-rule="nonzero"
       id="g447">
      <g
         style="fill:#000000;fill-opacity:1"
         id="g445">
        <use
           xlink:href="#glyph1-5"
           x="139.34"
           y="206.3"
           id="use439"
           width="100%"
           height="100%" />
        <use
           xlink:href="#glyph1-4"
           x="142.80608"
           y="206.3"
           id="use441"
           width="100%"
           height="100%" />
        <use
           xlink:href="#glyph1-6"
           x="144.37904"
           y="206.3"
           id="use443"
           width="100%"
           height="100%" />
      </g>
    </g>
    <g
       clip-path="url(#clip22)"
       clip-rule="nonzero"
       id="g453">
      <g
         style="fill:#000000;fill-opacity:1"
         id="g451">
        <use
           xlink:href="#glyph1-7"
           x="147.85904"
           y="206.3"
           id="use449"
           width="100%"
           height="100%" />
      </g>
    </g>
    <g
       clip-path="url(#clip23)"
       clip-rule="nonzero"
       id="g459">
      <g
         style="fill:#000000;fill-opacity:1"
         id="g457">
        <use
           xlink:href="#glyph1-4"
           x="151.22"
           y="206.3"
           id="use455"
           width="100%"
           height="100%" />
      </g>
    </g>
    <path
       style="fill:#ffffff;fill-opacity:1;fill-rule:evenodd;stroke:#ffffff;stroke-width:0.5;stroke-linecap:butt;stroke-linejoin:round;stroke-miterlimit:10;stroke-opacity:1"
       d="M 245.25,654.05859 H 388.5 v 43.5 H 245.25 Z m 0,0"
       transform="matrix(1,0,0,-1,0,792)"
       id="path461" />
    <g
       style="fill:#000000;fill-opacity:1"
       id="g465">
      <use
         xlink:href="#glyph1-4"
         x="252.77"
         y="105.02"
         id="use463"
         width="100%"
         height="100%" />
    </g>
    <path
       style="fill:#ffffff;fill-opacity:1;fill-rule:evenodd;stroke:#ffffff;stroke-width:0.5;stroke-linecap:butt;stroke-linejoin:round;stroke-miterlimit:10;stroke-opacity:1"
       d="m 85.050781,664.41016 h 87.749999 v 24 H 85.050781 Z m 0,0"
       transform="matrix(1,0,0,-1,0,792)"
       id="path467" />
    <g
       style="fill:#000000;fill-opacity:1"
       id="g471">
      <use
         xlink:href="#glyph1-4"
         x="92.543999"
         y="114.14"
         id="use469"
         width="100%"
         height="100%" />
    </g>
    <path
       style="fill:#ff0000;fill-opacity:1;fill-rule:nonzero;stroke:none"
       d="M 96.753906,167.01172 306.25,170.48047 v 0.5 L 96.746094,167.51172 Z m 208.546874,0.69922 5.94922,3.09765 -6.05078,2.90235 z m 0,0"
       id="path473" />
    <path
       style="fill:#ffffff;fill-opacity:1;fill-rule:evenodd;stroke:#ffffff;stroke-width:0.5;stroke-linecap:butt;stroke-linejoin:round;stroke-miterlimit:10;stroke-opacity:1"
       d="M 99.75,625.48047 H 351 v 16.5 H 99.75 Z m 0,0"
       transform="matrix(1,0,0,-1,0,792)"
       id="path475" />
    <g
       style="fill:#000000;fill-opacity:1"
       id="g479">
      <use
         xlink:href="#glyph1-18"
         x="107.18"
         y="160.58"
         id="use477"
         width="100%"
         height="100%" />
    </g>
    <g
       style="fill:#000000;fill-opacity:1"
       id="g483">
      <use
         xlink:href="#glyph1-4"
         x="110.78"
         y="160.58"
         id="use481"
         width="100%"
         height="100%" />
    </g>
    <g
       style="fill:#000000;fill-opacity:1"
       id="g487">
      <use
         xlink:href="#glyph1-17"
         x="142.58"
         y="160.58"
         id="use485"
         width="100%"
         height="100%" />
    </g>
    <g
       style="fill:#000000;fill-opacity:1"
       id="g491">
      <use
         xlink:href="#glyph1-4"
         x="146.17999"
         y="160.58"
         id="use489"
         width="100%"
         height="100%" />
    </g>
    <g
       style="fill:#000000;fill-opacity:1"
       id="g495">
      <use
         xlink:href="#glyph1-16"
         x="178.00999"
         y="160.58"
         id="use493"
         width="100%"
         height="100%" />
    </g>
    <g
       style="fill:#000000;fill-opacity:1"
       id="g499">
      <use
         xlink:href="#glyph1-4"
         x="181.61"
         y="160.58"
         id="use497"
         width="100%"
         height="100%" />
    </g>
    <g
       style="fill:#000000;fill-opacity:1"
       id="g503">
      <use
         xlink:href="#glyph1-2"
         x="213.41"
         y="160.58"
         id="use501"
         width="100%"
         height="100%" />
    </g>
    <g
       style="fill:#000000;fill-opacity:1"
       id="g507">
      <use
         xlink:href="#glyph1-19"
         x="216.89"
         y="160.58"
         id="use505"
         width="100%"
         height="100%" />
    </g>
    <g
       style="fill:#000000;fill-opacity:1"
       id="g511">
      <use
         xlink:href="#glyph1-4"
         x="221.81"
         y="160.58"
         id="use509"
         width="100%"
         height="100%" />
    </g>
    <g
       style="fill:#000000;fill-opacity:1"
       id="g515">
      <use
         xlink:href="#glyph1-4"
         x="248.81"
         y="160.58"
         id="use513"
         width="100%"
         height="100%" />
    </g>
    <g
       style="fill:#000000;fill-opacity:1"
       id="g519">
      <use
         xlink:href="#glyph1-19"
         x="284.20999"
         y="160.58"
         id="use517"
         width="100%"
         height="100%" />
    </g>
    <g
       style="fill:#000000;fill-opacity:1"
       id="g523">
      <use
         xlink:href="#glyph1-2"
         x="289.03"
         y="160.58"
         id="use521"
         width="100%"
         height="100%" />
    </g>
    <g
       style="fill:#000000;fill-opacity:1"
       id="g527">
      <use
         xlink:href="#glyph1-3"
         x="292.51001"
         y="160.58"
         id="use525"
         width="100%"
         height="100%" />
    </g>
    <g
       style="fill:#000000;fill-opacity:1"
       id="g531">
      <use
         xlink:href="#glyph1-4"
         x="296.10999"
         y="160.58"
         id="use529"
         width="100%"
         height="100%" />
    </g>
    <path
       style="fill:none;stroke:#ff0000;stroke-width:0.75;stroke-linecap:butt;stroke-linejoin:round;stroke-miterlimit:10;stroke-dasharray:3, 2.25;stroke-opacity:1"
       d="m 277.12109,507.78906 c -24.67968,-9.25 -52.07031,3.57031 -61.17187,28.63281 -4.52735,12.44922 -3.82031,26.23829 1.96094,38.13672"
       transform="matrix(1,0,0,-1,0,792)"
       id="path533" />
    <path
       style="fill:#000000;fill-opacity:1;fill-rule:nonzero;stroke:none"
       d="m 288.5,171.76172 -0.71875,106 h 0.5 l 0.71875,-106 z m -3.46094,104.97656 2.96094,6.02344 3.03906,-5.98047 z m 0,0"
       id="path535" />
    <path
       style="fill:#ff0000;fill-opacity:1;fill-rule:evenodd;stroke:#ff0000;stroke-width:1;stroke-linecap:butt;stroke-linejoin:miter;stroke-miterlimit:8;stroke-opacity:1"
       d="m 276.82812,509.64062 3.1836,2.46094 0.23828,-4.01172 z m 0,0"
       transform="matrix(1,0,0,-1,0,792)"
       id="path537" />
    <path
       style="fill:none;stroke:#4270c2;stroke-width:0.75;stroke-linecap:butt;stroke-linejoin:round;stroke-miterlimit:10;stroke-dasharray:3, 2.25;stroke-opacity:1"
       d="m 288.75,630.73828 v -130.5"
       transform="matrix(1,0,0,-1,0,792)"
       id="path539" />
    <path
       style="fill:#ffffff;fill-opacity:1;fill-rule:evenodd;stroke:#ffffff;stroke-width:0.5;stroke-linecap:butt;stroke-linejoin:round;stroke-miterlimit:10;stroke-opacity:1"
       d="m 315.75,611.98828 h 49.5 v 17.25 h -49.5 z m 0,0"
       transform="matrix(1,0,0,-1,0,792)"
       id="path541" />
    <g
       style="fill:#000000;fill-opacity:1"
       id="g547">
      <use
         xlink:href="#glyph1-15"
         x="323.23001"
         y="173.3"
         id="use543"
         width="100%"
         height="100%" />
      <use
         xlink:href="#glyph1-13"
         x="326.95001"
         y="173.3"
         id="use545"
         width="100%"
         height="100%" />
    </g>
    <g
       style="fill:#000000;fill-opacity:1"
       id="g551">
      <use
         xlink:href="#glyph1-14"
         x="332.47"
         y="173.3"
         id="use549"
         width="100%"
         height="100%" />
    </g>
    <g
       style="fill:#000000;fill-opacity:1"
       id="g555">
      <use
         xlink:href="#glyph1-4"
         x="335.70999"
         y="173.3"
         id="use553"
         width="100%"
         height="100%" />
    </g>
    <path
       style="fill:#000000;fill-opacity:1;fill-rule:nonzero;stroke:none"
       d="m 291.25,152.35156 0.66016,-38.51172 h -0.5 l -0.66016,38.5 z m 3.39844,-37.46093 -2.89844,-6.05079 -3.10156,5.94922 z m 0,0"
       id="path557" />
    <path
       style="fill:#ffffff;fill-opacity:1;fill-rule:evenodd;stroke:#ffffff;stroke-width:0.5;stroke-linecap:butt;stroke-linejoin:round;stroke-miterlimit:10;stroke-opacity:1"
       d="M 109.5,648.66016 H 177 v 30.75 h -67.5 z m 0,0"
       transform="matrix(1,0,0,-1,0,792)"
       id="path559" />
    <g
       style="fill:#000000;fill-opacity:1"
       id="g563">
      <use
         xlink:href="#glyph1-9"
         x="117.02"
         y="123.14"
         id="use561"
         width="100%"
         height="100%" />
    </g>
    <g
       style="fill:#000000;fill-opacity:1"
       id="g573">
      <use
         xlink:href="#glyph1-4"
         x="118.57904"
         y="123.14"
         id="use565"
         width="100%"
         height="100%" />
      <use
         xlink:href="#glyph1-5"
         x="120.152"
         y="123.14"
         id="use567"
         width="100%"
         height="100%" />
      <use
         xlink:href="#glyph1-4"
         x="123.61808"
         y="123.14"
         id="use569"
         width="100%"
         height="100%" />
      <use
         xlink:href="#glyph1-2"
         x="125.19104"
         y="123.14"
         id="use571"
         width="100%"
         height="100%" />
    </g>
    <g
       style="fill:#000000;fill-opacity:1"
       id="g577">
      <use
         xlink:href="#glyph1-2"
         x="128.77544"
         y="123.14"
         id="use575"
         width="100%"
         height="100%" />
    </g>
    <g
       style="fill:#000000;fill-opacity:1"
       id="g581">
      <use
         xlink:href="#glyph1-10"
         x="132.25545"
         y="123.14"
         id="use579"
         width="100%"
         height="100%" />
    </g>
    <g
       style="fill:#000000;fill-opacity:1"
       id="g587">
      <use
         xlink:href="#glyph1-4"
         x="137.28752"
         y="123.14"
         id="use583"
         width="100%"
         height="100%" />
      <use
         xlink:href="#glyph1-11"
         x="138.86047"
         y="123.14"
         id="use585"
         width="100%"
         height="100%" />
    </g>
    <g
       style="fill:#000000;fill-opacity:1"
       id="g591">
      <use
         xlink:href="#glyph1-12"
         x="142.5632"
         y="123.14"
         id="use589"
         width="100%"
         height="100%" />
    </g>
    <g
       style="fill:#000000;fill-opacity:1"
       id="g595">
      <use
         xlink:href="#glyph1-13"
         x="145.91792"
         y="123.14"
         id="use593"
         width="100%"
         height="100%" />
    </g>
    <g
       style="fill:#000000;fill-opacity:1"
       id="g599">
      <use
         xlink:href="#glyph1-14"
         x="151.43719"
         y="123.14"
         id="use597"
         width="100%"
         height="100%" />
    </g>
    <g
       style="fill:#000000;fill-opacity:1"
       id="g603">
      <use
         xlink:href="#glyph1-4"
         x="154.7"
         y="123.14"
         id="use601"
         width="100%"
         height="100%" />
    </g>
    <g
       style="fill:#000000;fill-opacity:1"
       id="g607">
      <use
         xlink:href="#glyph1-20"
         x="117.02"
         y="132.38"
         id="use605"
         width="100%"
         height="100%" />
    </g>
    <g
       style="fill:#000000;fill-opacity:1"
       id="g615">
      <use
         xlink:href="#glyph1-4"
         x="119.90144"
         y="132.38"
         id="use609"
         width="100%"
         height="100%" />
      <use
         xlink:href="#glyph1-5"
         x="121.4744"
         y="132.38"
         id="use611"
         width="100%"
         height="100%" />
      <use
         xlink:href="#glyph1-4"
         x="124.94048"
         y="132.38"
         id="use613"
         width="100%"
         height="100%" />
    </g>
    <g
       style="fill:#000000;fill-opacity:1"
       id="g619">
      <use
         xlink:href="#glyph1-6"
         x="126.61784"
         y="132.38"
         id="use617"
         width="100%"
         height="100%" />
    </g>
    <g
       style="fill:#000000;fill-opacity:1"
       id="g623">
      <use
         xlink:href="#glyph1-16"
         x="130.09784"
         y="132.38"
         id="use621"
         width="100%"
         height="100%" />
    </g>
    <g
       style="fill:#000000;fill-opacity:1"
       id="g627">
      <use
         xlink:href="#glyph1-21"
         x="133.57784"
         y="132.38"
         id="use625"
         width="100%"
         height="100%" />
    </g>
    <g
       style="fill:#000000;fill-opacity:1"
       id="g631">
      <use
         xlink:href="#glyph1-18"
         x="135.37352"
         y="132.38"
         id="use629"
         width="100%"
         height="100%" />
    </g>
    <g
       style="fill:#000000;fill-opacity:1"
       id="g635">
      <use
         xlink:href="#glyph1-18"
         x="138.96487"
         y="132.38"
         id="use633"
         width="100%"
         height="100%" />
    </g>
    <g
       style="fill:#000000;fill-opacity:1"
       id="g639">
      <use
         xlink:href="#glyph1-18"
         x="142.55624"
         y="132.38"
         id="use637"
         width="100%"
         height="100%" />
    </g>
    <g
       style="fill:#000000;fill-opacity:1"
       id="g643">
      <use
         xlink:href="#glyph1-4"
         x="146.17999"
         y="132.38"
         id="use641"
         width="100%"
         height="100%" />
    </g>
    <path
       style="fill:#000000;fill-opacity:1;fill-rule:nonzero;stroke:none"
       d="m 143.5,167.30859 v 22 H 143 v -22 z m 2.75,21 -3,6 -3,-6 z m 0,0"
       id="path645" />
    <path
       style="fill:none;stroke:#000000;stroke-width:0.5;stroke-linecap:butt;stroke-linejoin:miter;stroke-miterlimit:8;stroke-opacity:1"
       d="m 143.25,599.19922 70.5,-24.75"
       transform="matrix(1,0,0,-1,0,792)"
       id="path647" />
    <path
       style="fill:#000000;fill-opacity:1;fill-rule:nonzero;stroke:none"
       d="m 178.25,168.80859 -0.64844,32.5 0.5,0.0117 0.64844,-32.5 z m -3.37891,31.44141 2.87891,6.05859 3.12109,-5.9375 z m 0,0"
       id="path649" />
    <path
       style="fill:#000000;fill-opacity:1;fill-rule:nonzero;stroke:none"
       d="m 217.75,169.55859 v 43 h -0.5 v -43 z m 2.75,42 -3,6 -3,-6 z m 0,0"
       id="path651" />
  </g>
</svg>
