<?xml version="1.0" encoding="UTF-8" standalone="no"?>
<svg
   xmlns:osb="http://www.openswatchbook.org/uri/2009/osb"
   xmlns:dc="http://purl.org/dc/elements/1.1/"
   xmlns:cc="http://creativecommons.org/ns#"
   xmlns:rdf="http://www.w3.org/1999/02/22-rdf-syntax-ns#"
   xmlns:svg="http://www.w3.org/2000/svg"
   xmlns="http://www.w3.org/2000/svg"
   xmlns:sodipodi="http://sodipodi.sourceforge.net/DTD/sodipodi-0.dtd"
   xmlns:inkscape="http://www.inkscape.org/namespaces/inkscape"
   width="171.86247mm"
   height="191.21465mm"
   viewBox="0 0 171.86247 191.21465"
   version="1.1"
   id="svg8"
   inkscape:version="1.0.1 (3bc2e813f5, 2020-09-07, custom)"
   sodipodi:docname="Capitulo5Ejemplo4.svg">
  <defs
     id="defs2">
    <linearGradient
       id="linearGradient6647"
       osb:paint="solid">
      <stop
         style="stop-color:#000080;stop-opacity:1;"
         offset="0"
         id="stop6645" />
    </linearGradient>
    <linearGradient
       id="linearGradient6339"
       osb:paint="solid">
      <stop
         style="stop-color:#0c7cba;stop-opacity:1;"
         offset="0"
         id="stop6337" />
    </linearGradient>
    <marker
       inkscape:stockid="Arrow1Lstart"
       orient="auto"
       refY="0"
       refX="0"
       id="marker5417"
       style="overflow:visible"
       inkscape:isstock="true">
      <path
         id="path5415"
         d="M 0,0 5,-5 -12.5,0 5,5 Z"
         style="fill:none;fill-opacity:0;fill-rule:evenodd;stroke:#0c7cba;stroke-width:1pt;stroke-opacity:1"
         transform="matrix(0.8,0,0,0.8,10,0)" />
    </marker>
    <marker
       inkscape:stockid="Arrow1Lstart"
       orient="auto"
       refY="0"
       refX="0"
       id="Arrow1Lstart"
       style="overflow:visible"
       inkscape:isstock="true">
      <path
         id="path5139"
         d="M 0,0 5,-5 -12.5,0 5,5 Z"
         style="fill:#0c7cba;fill-opacity:0;fill-rule:evenodd;stroke:#0c7cba;stroke-width:1pt;stroke-opacity:0"
         transform="matrix(0.8,0,0,0.8,10,0)" />
    </marker>
    <pattern
       y="0"
       x="0"
       height="6"
       width="6"
       patternUnits="userSpaceOnUse"
       id="EMFhbasepattern" />
    <pattern
       y="0"
       x="0"
       height="6"
       width="6"
       patternUnits="userSpaceOnUse"
       id="EMFhbasepattern-0" />
    <pattern
       y="0"
       x="0"
       height="6"
       width="6"
       patternUnits="userSpaceOnUse"
       id="EMFhbasepattern-2" />
    <pattern
       y="0"
       x="0"
       height="6"
       width="6"
       patternUnits="userSpaceOnUse"
       id="EMFhbasepattern-00" />
    <pattern
       y="0"
       x="0"
       height="6"
       width="6"
       patternUnits="userSpaceOnUse"
       id="EMFhbasepattern-4" />
    <pattern
       y="0"
       x="0"
       height="6"
       width="6"
       patternUnits="userSpaceOnUse"
       id="EMFhbasepattern-6" />
    <pattern
       y="0"
       x="0"
       height="6"
       width="6"
       patternUnits="userSpaceOnUse"
       id="EMFhbasepattern-7" />
    <pattern
       y="0"
       x="0"
       height="6"
       width="6"
       patternUnits="userSpaceOnUse"
       id="EMFhbasepattern-25" />
    <pattern
       y="0"
       x="0"
       height="6"
       width="6"
       patternUnits="userSpaceOnUse"
       id="EMFhbasepattern-06" />
    <pattern
       y="0"
       x="0"
       height="6"
       width="6"
       patternUnits="userSpaceOnUse"
       id="EMFhbasepattern-9" />
    <pattern
       y="0"
       x="0"
       height="6"
       width="6"
       patternUnits="userSpaceOnUse"
       id="EMFhbasepattern-5" />
    <pattern
       y="0"
       x="0"
       height="6"
       width="6"
       patternUnits="userSpaceOnUse"
       id="EMFhbasepattern-77" />
    <pattern
       y="0"
       x="0"
       height="6"
       width="6"
       patternUnits="userSpaceOnUse"
       id="EMFhbasepattern-3" />
    <pattern
       y="0"
       x="0"
       height="6"
       width="6"
       patternUnits="userSpaceOnUse"
       id="EMFhbasepattern-63" />
    <pattern
       y="0"
       x="0"
       height="6"
       width="6"
       patternUnits="userSpaceOnUse"
       id="EMFhbasepattern-1" />
    <pattern
       y="0"
       x="0"
       height="6"
       width="6"
       patternUnits="userSpaceOnUse"
       id="EMFhbasepattern-12" />
    <pattern
       y="0"
       x="0"
       height="6"
       width="6"
       patternUnits="userSpaceOnUse"
       id="EMFhbasepattern-68" />
    <pattern
       y="0"
       x="0"
       height="6"
       width="6"
       patternUnits="userSpaceOnUse"
       id="EMFhbasepattern-51" />
    <pattern
       y="0"
       x="0"
       height="6"
       width="6"
       patternUnits="userSpaceOnUse"
       id="EMFhbasepattern-64" />
  </defs>
  <sodipodi:namedview
     id="base"
     pagecolor="#ffffff"
     bordercolor="#666666"
     borderopacity="1.0"
     inkscape:pageopacity="0.0"
     inkscape:pageshadow="2"
     inkscape:zoom="0.7"
     inkscape:cx="322.04927"
     inkscape:cy="375.57276"
     inkscape:document-units="mm"
     inkscape:current-layer="layer2"
     showgrid="false"
     showguides="false"
     inkscape:guide-bbox="true"
     inkscape:snap-center="false"
     inkscape:snap-others="false"
     inkscape:object-nodes="false"
     inkscape:snap-nodes="true"
     inkscape:snap-global="true"
     inkscape:snap-bbox="true"
     inkscape:window-width="1366"
     inkscape:window-height="768"
     inkscape:window-x="0"
     inkscape:window-y="0"
     inkscape:window-maximized="1"
     inkscape:document-rotation="0" />
  <metadata
     id="metadata5">
    <rdf:RDF>
      <cc:Work
         rdf:about="">
        <dc:format>image/svg+xml</dc:format>
        <dc:type
           rdf:resource="http://purl.org/dc/dcmitype/StillImage" />
        <dc:title></dc:title>
      </cc:Work>
    </rdf:RDF>
  </metadata>
  <g
     inkscape:groupmode="layer"
     id="layer2"
     inkscape:label="Capa 2"
     transform="translate(-99.553078,-148.39509)"
     style="display:inline">
    <path
       style="fill:none;stroke:#000000;stroke-width:0.565;stroke-linecap:butt;stroke-linejoin:miter;stroke-miterlimit:4;stroke-dasharray:none;stroke-opacity:1"
       d="m 106.56012,168.15181 127.18899,0.18899"
       id="path3731"
       inkscape:connector-curvature="0" />
    <path
       style="fill:none;stroke:#000000;stroke-width:0.264583px;stroke-linecap:butt;stroke-linejoin:miter;stroke-opacity:1"
       d="m 116.03869,183.22917 122.46428,-0.18899"
       id="path3733"
       inkscape:connector-curvature="0" />
    <text
       xml:space="preserve"
       style="font-style:normal;font-weight:normal;font-size:10.5833px;line-height:1.25;font-family:sans-serif;letter-spacing:0px;word-spacing:0px;fill:#000000;fill-opacity:1;stroke:none;stroke-width:0.264583"
       x="235.29018"
       y="164.70834"
       id="text3739" />
    <text
       id="text3750"
       y="140.28641"
       x="284.71371"
       style="font-style:normal;font-variant:normal;font-weight:400;font-size:6.3951px;line-height:125%;font-family:'Segoe UI Emoji';text-align:start;letter-spacing:0px;word-spacing:0px;text-anchor:start;fill:#000000;fill-opacity:1;stroke:none;stroke-width:0.435411"
       xml:space="preserve"
       transform="scale(0.82006678,1.2194129)"><tspan
         id="tspan3748"
         y="140.28641"
         x="284.71371"
         sodipodi:role="line"
         style="stroke-width:0.435411"><tspan
           id="tspan3744"
           style="font-style:normal;font-variant:normal;font-weight:400;font-size:6.3951px;font-family:'Segoe UI Emoji';fill:#000000;stroke-width:0.435411"
           dy="0"
           dx="0">►</tspan><tspan
           id="tspan3746"
           style="font-style:normal;font-variant:normal;font-weight:400;font-size:6.3951px;font-family:Calibri;fill:#000000;stroke-width:0.435411"
           dy="0"
           dx="0"> </tspan></tspan></text>
    <g
       id="g4841"
       transform="translate(-1.2739263e-8,-0.14174107)">
      <text
         xml:space="preserve"
         style="font-style:normal;font-variant:normal;font-weight:400;font-size:3.88607px;line-height:125%;font-family:'Segoe UI Emoji';text-align:start;letter-spacing:0px;word-spacing:0px;text-anchor:start;fill:#000000;fill-opacity:1;stroke:none;stroke-width:0.264583"
         x="115.0924"
         y="183.07777"
         id="text3796"><tspan
           style="stroke-width:0.264583"
           sodipodi:role="line"
           x="115.0924"
           y="183.07777"
           id="tspan3794"><tspan
             dx="0"
             dy="0"
             style="font-style:normal;font-variant:normal;font-weight:400;font-size:3.88607px;font-family:'Segoe UI Emoji';fill:#000000;stroke-width:0.264583"
             id="tspan3790">▼</tspan><tspan
             dx="0"
             dy="0"
             style="font-style:normal;font-variant:normal;font-weight:400;font-size:3.88607px;font-family:Calibri;fill:#000000;stroke-width:0.264583"
             id="tspan3792"> </tspan></tspan></text>
      <path
         inkscape:connector-curvature="0"
         id="path4029"
         d="m 116.65221,168.59923 0.096,11.93686"
         style="fill:none;stroke:#000000;stroke-width:0.663;stroke-linecap:butt;stroke-linejoin:miter;stroke-miterlimit:4;stroke-dasharray:none;stroke-opacity:1" />
    </g>
    <g
       id="g4841-6"
       transform="translate(7.4384414,-0.31116943)">
      <text
         xml:space="preserve"
         style="font-style:normal;font-variant:normal;font-weight:400;font-size:3.88607px;line-height:125%;font-family:'Segoe UI Emoji';text-align:start;letter-spacing:0px;word-spacing:0px;text-anchor:start;fill:#000000;fill-opacity:1;stroke:none;stroke-width:0.264583"
         x="115.0924"
         y="183.07777"
         id="text3796-2"><tspan
           style="stroke-width:0.264583"
           sodipodi:role="line"
           x="115.0924"
           y="183.07777"
           id="tspan3794-1"><tspan
             dx="0"
             dy="0"
             style="font-style:normal;font-variant:normal;font-weight:400;font-size:3.88607px;font-family:'Segoe UI Emoji';fill:#000000;stroke-width:0.264583"
             id="tspan3790-9">▼</tspan><tspan
             dx="0"
             dy="0"
             style="font-style:normal;font-variant:normal;font-weight:400;font-size:3.88607px;font-family:Calibri;fill:#000000;stroke-width:0.264583"
             id="tspan3792-0"> </tspan></tspan></text>
      <path
         inkscape:connector-curvature="0"
         id="path4029-2"
         d="m 116.65221,168.59923 0.096,11.93686"
         style="fill:none;stroke:#000000;stroke-width:0.663;stroke-linecap:butt;stroke-linejoin:miter;stroke-miterlimit:4;stroke-dasharray:none;stroke-opacity:1" />
    </g>
    <g
       id="g4841-9"
       transform="translate(16.926509,-0.17753462)">
      <text
         xml:space="preserve"
         style="font-style:normal;font-variant:normal;font-weight:400;font-size:3.88607px;line-height:125%;font-family:'Segoe UI Emoji';text-align:start;letter-spacing:0px;word-spacing:0px;text-anchor:start;fill:#000000;fill-opacity:1;stroke:none;stroke-width:0.264583"
         x="115.0924"
         y="183.07777"
         id="text3796-3"><tspan
           style="stroke-width:0.264583"
           sodipodi:role="line"
           x="115.0924"
           y="183.07777"
           id="tspan3794-9"><tspan
             dx="0"
             dy="0"
             style="font-style:normal;font-variant:normal;font-weight:400;font-size:3.88607px;font-family:'Segoe UI Emoji';fill:#000000;stroke-width:0.264583"
             id="tspan3790-0">▼</tspan><tspan
             dx="0"
             dy="0"
             style="font-style:normal;font-variant:normal;font-weight:400;font-size:3.88607px;font-family:Calibri;fill:#000000;stroke-width:0.264583"
             id="tspan3792-1"> </tspan></tspan></text>
      <path
         inkscape:connector-curvature="0"
         id="path4029-4"
         d="m 116.65221,168.59923 0.096,11.93686"
         style="fill:none;stroke:#000000;stroke-width:0.663;stroke-linecap:butt;stroke-linejoin:miter;stroke-miterlimit:4;stroke-dasharray:none;stroke-opacity:1" />
    </g>
    <g
       id="g4841-0"
       transform="translate(25.479135,-0.17753461)">
      <text
         xml:space="preserve"
         style="font-style:normal;font-variant:normal;font-weight:400;font-size:3.88607px;line-height:125%;font-family:'Segoe UI Emoji';text-align:start;letter-spacing:0px;word-spacing:0px;text-anchor:start;fill:#000000;fill-opacity:1;stroke:none;stroke-width:0.264583"
         x="115.0924"
         y="183.07777"
         id="text3796-6"><tspan
           style="stroke-width:0.264583"
           sodipodi:role="line"
           x="115.0924"
           y="183.07777"
           id="tspan3794-3"><tspan
             dx="0"
             dy="0"
             style="font-style:normal;font-variant:normal;font-weight:400;font-size:3.88607px;font-family:'Segoe UI Emoji';fill:#000000;stroke-width:0.264583"
             id="tspan3790-4">▼</tspan><tspan
             dx="0"
             dy="0"
             style="font-style:normal;font-variant:normal;font-weight:400;font-size:3.88607px;font-family:Calibri;fill:#000000;stroke-width:0.264583"
             id="tspan3792-06"> </tspan></tspan></text>
      <path
         inkscape:connector-curvature="0"
         id="path4029-6"
         d="m 116.65221,168.59923 0.096,11.93686"
         style="fill:none;stroke:#000000;stroke-width:0.663;stroke-linecap:butt;stroke-linejoin:miter;stroke-miterlimit:4;stroke-dasharray:none;stroke-opacity:1" />
    </g>
    <g
       id="g4841-3"
       transform="translate(34.432664,-0.31116942)">
      <text
         xml:space="preserve"
         style="font-style:normal;font-variant:normal;font-weight:400;font-size:3.88607px;line-height:125%;font-family:'Segoe UI Emoji';text-align:start;letter-spacing:0px;word-spacing:0px;text-anchor:start;fill:#000000;fill-opacity:1;stroke:none;stroke-width:0.264583"
         x="115.0924"
         y="183.07777"
         id="text3796-60"><tspan
           style="stroke-width:0.264583"
           sodipodi:role="line"
           x="115.0924"
           y="183.07777"
           id="tspan3794-6"><tspan
             dx="0"
             dy="0"
             style="font-style:normal;font-variant:normal;font-weight:400;font-size:3.88607px;font-family:'Segoe UI Emoji';fill:#000000;stroke-width:0.264583"
             id="tspan3790-5">▼</tspan><tspan
             dx="0"
             dy="0"
             style="font-style:normal;font-variant:normal;font-weight:400;font-size:3.88607px;font-family:Calibri;fill:#000000;stroke-width:0.264583"
             id="tspan3792-5"> </tspan></tspan></text>
      <path
         inkscape:connector-curvature="0"
         id="path4029-5"
         d="m 116.65221,168.59923 0.096,11.93686"
         style="fill:none;stroke:#000000;stroke-width:0.663;stroke-linecap:butt;stroke-linejoin:miter;stroke-miterlimit:4;stroke-dasharray:none;stroke-opacity:1" />
    </g>
    <g
       id="g4841-1"
       transform="translate(43.252558,-0.17753471)">
      <text
         xml:space="preserve"
         style="font-style:normal;font-variant:normal;font-weight:400;font-size:3.88607px;line-height:125%;font-family:'Segoe UI Emoji';text-align:start;letter-spacing:0px;word-spacing:0px;text-anchor:start;fill:#000000;fill-opacity:1;stroke:none;stroke-width:0.264583"
         x="115.0924"
         y="183.07777"
         id="text3796-24"><tspan
           style="stroke-width:0.264583"
           sodipodi:role="line"
           x="115.0924"
           y="183.07777"
           id="tspan3794-2"><tspan
             dx="0"
             dy="0"
             style="font-style:normal;font-variant:normal;font-weight:400;font-size:3.88607px;font-family:'Segoe UI Emoji';fill:#000000;stroke-width:0.264583"
             id="tspan3790-08">▼</tspan><tspan
             dx="0"
             dy="0"
             style="font-style:normal;font-variant:normal;font-weight:400;font-size:3.88607px;font-family:Calibri;fill:#000000;stroke-width:0.264583"
             id="tspan3792-59"> </tspan></tspan></text>
      <path
         inkscape:connector-curvature="0"
         id="path4029-7"
         d="m 116.65221,168.59923 0.096,11.93686"
         style="fill:none;stroke:#000000;stroke-width:0.663;stroke-linecap:butt;stroke-linejoin:miter;stroke-miterlimit:4;stroke-dasharray:none;stroke-opacity:1" />
    </g>
    <g
       id="g4841-5"
       transform="translate(51.537914,-0.17753465)">
      <text
         xml:space="preserve"
         style="font-style:normal;font-variant:normal;font-weight:400;font-size:3.88607px;line-height:125%;font-family:'Segoe UI Emoji';text-align:start;letter-spacing:0px;word-spacing:0px;text-anchor:start;fill:#000000;fill-opacity:1;stroke:none;stroke-width:0.264583"
         x="115.0924"
         y="183.07777"
         id="text3796-20"><tspan
           style="stroke-width:0.264583"
           sodipodi:role="line"
           x="115.0924"
           y="183.07777"
           id="tspan3794-24"><tspan
             dx="0"
             dy="0"
             style="font-style:normal;font-variant:normal;font-weight:400;font-size:3.88607px;font-family:'Segoe UI Emoji';fill:#000000;stroke-width:0.264583"
             id="tspan3790-8">▼</tspan><tspan
             dx="0"
             dy="0"
             style="font-style:normal;font-variant:normal;font-weight:400;font-size:3.88607px;font-family:Calibri;fill:#000000;stroke-width:0.264583"
             id="tspan3792-7"> </tspan></tspan></text>
      <path
         inkscape:connector-curvature="0"
         id="path4029-0"
         d="m 116.65221,168.59923 0.096,11.93686"
         style="fill:none;stroke:#000000;stroke-width:0.663;stroke-linecap:butt;stroke-linejoin:miter;stroke-miterlimit:4;stroke-dasharray:none;stroke-opacity:1" />
    </g>
    <g
       id="g4841-04"
       transform="translate(59.555999,-0.44480422)">
      <text
         xml:space="preserve"
         style="font-style:normal;font-variant:normal;font-weight:400;font-size:3.88607px;line-height:125%;font-family:'Segoe UI Emoji';text-align:start;letter-spacing:0px;word-spacing:0px;text-anchor:start;fill:#000000;fill-opacity:1;stroke:none;stroke-width:0.264583"
         x="115.0924"
         y="183.07777"
         id="text3796-8"><tspan
           style="stroke-width:0.264583"
           sodipodi:role="line"
           x="115.0924"
           y="183.07777"
           id="tspan3794-11"><tspan
             dx="0"
             dy="0"
             style="font-style:normal;font-variant:normal;font-weight:400;font-size:3.88607px;font-family:'Segoe UI Emoji';fill:#000000;stroke-width:0.264583"
             id="tspan3790-3">▼</tspan><tspan
             dx="0"
             dy="0"
             style="font-style:normal;font-variant:normal;font-weight:400;font-size:3.88607px;font-family:Calibri;fill:#000000;stroke-width:0.264583"
             id="tspan3792-09"> </tspan></tspan></text>
      <path
         inkscape:connector-curvature="0"
         id="path4029-21"
         d="m 116.65221,168.59923 0.096,11.93686"
         style="fill:none;stroke:#000000;stroke-width:0.663;stroke-linecap:butt;stroke-linejoin:miter;stroke-miterlimit:4;stroke-dasharray:none;stroke-opacity:1" />
    </g>
    <g
       id="g4841-2"
       transform="translate(68.242259,-0.31116946)">
      <text
         xml:space="preserve"
         style="font-style:normal;font-variant:normal;font-weight:400;font-size:3.88607px;line-height:125%;font-family:'Segoe UI Emoji';text-align:start;letter-spacing:0px;word-spacing:0px;text-anchor:start;fill:#000000;fill-opacity:1;stroke:none;stroke-width:0.264583"
         x="115.0924"
         y="183.07777"
         id="text3796-85"><tspan
           style="stroke-width:0.264583"
           sodipodi:role="line"
           x="115.0924"
           y="183.07777"
           id="tspan3794-8"><tspan
             dx="0"
             dy="0"
             style="font-style:normal;font-variant:normal;font-weight:400;font-size:3.88607px;font-family:'Segoe UI Emoji';fill:#000000;stroke-width:0.264583"
             id="tspan3790-2">▼</tspan><tspan
             dx="0"
             dy="0"
             style="font-style:normal;font-variant:normal;font-weight:400;font-size:3.88607px;font-family:Calibri;fill:#000000;stroke-width:0.264583"
             id="tspan3792-11"> </tspan></tspan></text>
      <path
         inkscape:connector-curvature="0"
         id="path4029-44"
         d="m 116.65221,168.59923 0.096,11.93686"
         style="fill:none;stroke:#000000;stroke-width:0.663;stroke-linecap:butt;stroke-linejoin:miter;stroke-miterlimit:4;stroke-dasharray:none;stroke-opacity:1" />
    </g>
    <g
       id="g4841-09"
       transform="translate(77.195789,-0.44480421)">
      <text
         xml:space="preserve"
         style="font-style:normal;font-variant:normal;font-weight:400;font-size:3.88607px;line-height:125%;font-family:'Segoe UI Emoji';text-align:start;letter-spacing:0px;word-spacing:0px;text-anchor:start;fill:#000000;fill-opacity:1;stroke:none;stroke-width:0.264583"
         x="115.0924"
         y="183.07777"
         id="text3796-33"><tspan
           style="stroke-width:0.264583"
           sodipodi:role="line"
           x="115.0924"
           y="183.07777"
           id="tspan3794-0"><tspan
             dx="0"
             dy="0"
             style="font-style:normal;font-variant:normal;font-weight:400;font-size:3.88607px;font-family:'Segoe UI Emoji';fill:#000000;stroke-width:0.264583"
             id="tspan3790-57">▼</tspan><tspan
             dx="0"
             dy="0"
             style="font-style:normal;font-variant:normal;font-weight:400;font-size:3.88607px;font-family:Calibri;fill:#000000;stroke-width:0.264583"
             id="tspan3792-08"> </tspan></tspan></text>
      <path
         inkscape:connector-curvature="0"
         id="path4029-60"
         d="m 116.65221,168.59923 0.096,11.93686"
         style="fill:none;stroke:#000000;stroke-width:0.663;stroke-linecap:butt;stroke-linejoin:miter;stroke-miterlimit:4;stroke-dasharray:none;stroke-opacity:1" />
    </g>
    <text
       xml:space="preserve"
       style="font-style:normal;font-weight:normal;font-size:4.38911px;line-height:1.25;font-family:sans-serif;letter-spacing:0px;word-spacing:0px;fill:#000000;fill-opacity:1;stroke:none;stroke-width:0.109728"
       x="112.69836"
       y="165.99429"
       id="text5003"
       transform="scale(0.95833315,1.0434785)"><tspan
         sodipodi:role="line"
         id="tspan5001"
         x="112.69836"
         y="165.99429"
         style="stroke-width:0.109728">0</tspan></text>
    <text
       xml:space="preserve"
       style="font-style:normal;font-weight:normal;font-size:4.38911px;line-height:1.25;font-family:sans-serif;letter-spacing:0px;word-spacing:0px;fill:#000000;fill-opacity:1;stroke:none;stroke-width:0.109728"
       x="122.01151"
       y="165.96486"
       id="text5003-7"
       transform="scale(0.95833312,1.0434785)"><tspan
         sodipodi:role="line"
         id="tspan5001-6"
         x="122.01151"
         y="165.96486"
         style="stroke-width:0.109728">1</tspan></text>
    <text
       xml:space="preserve"
       style="font-style:normal;font-weight:normal;font-size:4.38911px;line-height:1.25;font-family:sans-serif;letter-spacing:0px;word-spacing:0px;fill:#000000;fill-opacity:1;stroke:none;stroke-width:0.109728"
       x="130.51767"
       y="166.09294"
       id="text5003-3"
       transform="scale(0.95833312,1.0434785)"><tspan
         sodipodi:role="line"
         id="tspan5001-2"
         x="130.51767"
         y="166.09294"
         style="stroke-width:0.109728">2</tspan></text>
    <text
       xml:space="preserve"
       style="font-style:normal;font-weight:normal;font-size:4.38911px;line-height:1.25;font-family:sans-serif;letter-spacing:0px;word-spacing:0px;fill:#000000;fill-opacity:1;stroke:none;stroke-width:0.109728"
       x="139.99992"
       y="165.96487"
       id="text5003-0"
       transform="scale(0.95833312,1.0434785)"><tspan
         sodipodi:role="line"
         id="tspan5001-4"
         x="139.99992"
         y="165.96487"
         style="stroke-width:0.109728">3</tspan></text>
    <text
       xml:space="preserve"
       style="font-style:normal;font-weight:normal;font-size:4.38911px;line-height:1.25;font-family:sans-serif;letter-spacing:0px;word-spacing:0px;fill:#000000;fill-opacity:1;stroke:none;stroke-width:0.109728"
       x="149.06384"
       y="166.09293"
       id="text5003-2"
       transform="scale(0.95833312,1.0434785)"><tspan
         sodipodi:role="line"
         id="tspan5001-66"
         x="149.06384"
         y="166.09293"
         style="stroke-width:0.109728">4</tspan></text>
    <text
       xml:space="preserve"
       style="font-style:normal;font-weight:normal;font-size:4.38911px;line-height:1.25;font-family:sans-serif;letter-spacing:0px;word-spacing:0px;fill:#000000;fill-opacity:1;stroke:none;stroke-width:0.109728"
       x="158.68555"
       y="165.58066"
       id="text5003-70"
       transform="scale(0.95833312,1.0434785)"><tspan
         sodipodi:role="line"
         id="tspan5001-3"
         x="158.68555"
         y="165.58066"
         style="stroke-width:0.109728">5</tspan></text>
    <text
       xml:space="preserve"
       style="font-style:normal;font-weight:normal;font-size:4.38911px;line-height:1.25;font-family:sans-serif;letter-spacing:0px;word-spacing:0px;fill:#000000;fill-opacity:1;stroke:none;stroke-width:0.109728"
       x="167.74948"
       y="165.96486"
       id="text5003-29"
       transform="scale(0.95833312,1.0434785)"><tspan
         sodipodi:role="line"
         id="tspan5001-68"
         x="167.74948"
         y="165.96486"
         style="stroke-width:0.109728">6</tspan></text>
    <text
       xml:space="preserve"
       style="font-style:normal;font-weight:normal;font-size:4.38911px;line-height:1.25;font-family:sans-serif;letter-spacing:0px;word-spacing:0px;fill:#000000;fill-opacity:1;stroke:none;stroke-width:0.109728"
       x="176.25563"
       y="166.09293"
       id="text5003-4"
       transform="scale(0.95833312,1.0434785)"><tspan
         sodipodi:role="line"
         id="tspan5001-1"
         x="176.25563"
         y="166.09293"
         style="stroke-width:0.109728">7</tspan></text>
    <text
       xml:space="preserve"
       style="font-style:normal;font-weight:normal;font-size:4.38911px;line-height:1.25;font-family:sans-serif;letter-spacing:0px;word-spacing:0px;fill:#000000;fill-opacity:1;stroke:none;stroke-width:0.109728"
       x="184.76176"
       y="165.83681"
       id="text5003-74"
       transform="scale(0.95833312,1.0434785)"><tspan
         sodipodi:role="line"
         id="tspan5001-26"
         x="184.76176"
         y="165.83681"
         style="stroke-width:0.109728">8</tspan></text>
    <text
       xml:space="preserve"
       style="font-style:normal;font-weight:normal;font-size:4.38911px;line-height:1.25;font-family:sans-serif;letter-spacing:0px;word-spacing:0px;fill:#000000;fill-opacity:1;stroke:none;stroke-width:0.109728"
       x="194.10457"
       y="165.96487"
       id="text5003-9"
       transform="scale(0.95833312,1.0434785)"><tspan
         sodipodi:role="line"
         id="tspan5001-44"
         x="194.10457"
         y="165.96487"
         style="stroke-width:0.109728">9</tspan></text>
    <text
       xml:space="preserve"
       style="font-style:normal;font-weight:normal;font-size:4.38911px;line-height:1.25;font-family:sans-serif;letter-spacing:0px;word-spacing:0px;fill:#000000;fill-opacity:1;stroke:none;stroke-width:0.109728"
       x="203.1685"
       y="165.83679"
       id="text5003-90"
       transform="scale(0.95833312,1.0434785)"><tspan
         sodipodi:role="line"
         id="tspan5001-7"
         x="203.1685"
         y="165.83679"
         style="stroke-width:0.109728">10</tspan></text>
    <path
       style="fill:none;stroke:#000000;stroke-width:0.565;stroke-linecap:butt;stroke-linejoin:miter;stroke-miterlimit:4;stroke-dasharray:2.26, 2.26;stroke-dashoffset:0;stroke-opacity:1"
       d="m 106.77418,154.14444 0.66817,14.03165"
       id="path5117"
       inkscape:connector-curvature="0" />
    <text
       xml:space="preserve"
       style="font-style:normal;font-weight:normal;font-size:4.39951px;line-height:1.25;font-family:sans-serif;letter-spacing:0px;word-spacing:0px;fill:#000000;fill-opacity:1;stroke:none;stroke-width:0.109988"
       x="95.655045"
       y="165.44626"
       id="text5121"
       transform="scale(1.0922237,0.91556335)"><tspan
         sodipodi:role="line"
         id="tspan5119"
         x="95.655045"
         y="165.44626"
         style="font-style:normal;font-variant:normal;font-weight:normal;font-stretch:normal;font-family:'Lucida Handwriting';-inkscape-font-specification:'Lucida Handwriting';stroke-width:0.109988">ff</tspan></text>
    <text
       xml:space="preserve"
       style="font-style:normal;font-weight:normal;font-size:10.5833px;line-height:1.25;font-family:sans-serif;letter-spacing:0px;word-spacing:0px;fill:#000000;fill-opacity:1;stroke:none;stroke-width:0.264583"
       x="234.1281"
       y="171.91786"
       id="text5125" />
    <text
       xml:space="preserve"
       style="font-style:normal;font-weight:normal;font-size:4.47362px;line-height:1.25;font-family:sans-serif;letter-spacing:0px;word-spacing:0px;fill:#000000;fill-opacity:1;stroke:none;stroke-width:0.111841"
       x="214.44861"
       y="188.93533"
       id="text5129"
       transform="scale(1.0932314,0.91471941)"><tspan
         sodipodi:role="line"
         id="tspan5127"
         x="214.44861"
         y="188.93533"
         style="stroke-width:0.111841">∞ pav</tspan></text>
    <text
       xml:space="preserve"
       style="font-style:normal;font-weight:normal;font-size:7.48248px;line-height:1.25;font-family:sans-serif;letter-spacing:0px;word-spacing:0px;fill:#000000;fill-opacity:1;stroke:none;stroke-width:0.187062"
       x="242.25249"
       y="149.41812"
       id="text5133"
       transform="scale(0.86375378,1.1577373)"><tspan
         sodipodi:role="line"
         id="tspan5131"
         x="242.25249"
         y="149.41812"
         style="stroke-width:0.187062">...</tspan></text>
    <path
       style="fill:none;stroke:#0c7cba;stroke-width:0.565;stroke-linecap:butt;stroke-linejoin:miter;stroke-miterlimit:4;stroke-dasharray:none;stroke-opacity:0"
       d="m 151.14091,172.4524 3.87542,4.81086 0.4009,10.69078"
       id="path5135"
       inkscape:connector-curvature="0" />
    <path
       style="fill:none;stroke:#000000;stroke-width:0.264583px;stroke-linecap:butt;stroke-linejoin:miter;stroke-opacity:1"
       d="M 210.34111,208.66742 Z"
       id="path6619"
       inkscape:connector-curvature="0" />
    <g
       id="g6678"
       transform="translate(-15.902537,-20.579754)">
      <path
         inkscape:connector-curvature="0"
         id="path6617"
         d="m 167.17709,193.5667 4.27631,4.81085 -0.26727,10.82441"
         style="fill:none;fill-opacity:1;stroke:#0c7cba;stroke-width:0.565;stroke-linecap:butt;stroke-linejoin:miter;stroke-miterlimit:4;stroke-dasharray:none;stroke-opacity:1" />
      <text
         xml:space="preserve"
         style="font-style:normal;font-variant:normal;font-weight:400;font-size:3.88607px;line-height:125%;font-family:'Segoe UI Emoji';text-align:start;letter-spacing:0px;word-spacing:0px;text-anchor:start;fill:#0c7cba;fill-opacity:1;stroke:none;stroke-width:0.264583"
         x="169.43665"
         y="211.76517"
         id="text6660"><tspan
           style="fill:#0c7cba;fill-opacity:1;stroke-width:0.264583"
           sodipodi:role="line"
           x="169.43665"
           y="211.76517"
           id="tspan6658"><tspan
             dx="0"
             dy="0"
             style="font-style:normal;font-variant:normal;font-weight:400;font-size:3.88607px;font-family:'Segoe UI Emoji';fill:#0c7cba;fill-opacity:1;stroke-width:0.264583"
             id="tspan6654">▼</tspan><tspan
             dx="0"
             dy="0"
             style="font-style:normal;font-variant:normal;font-weight:400;font-size:3.88607px;font-family:Calibri;fill:#0c7cba;fill-opacity:1;stroke-width:0.264583"
             id="tspan6656"> </tspan></tspan></text>
    </g>
    <g
       transform="translate(26.969121,-20.631624)"
       id="g6678-4">
      <path
         inkscape:connector-curvature="0"
         id="path6617-3"
         d="m 167.17709,193.5667 4.27631,4.81085 -0.26727,10.82441"
         style="fill:none;fill-opacity:1;stroke:#0c7cba;stroke-width:0.565;stroke-linecap:butt;stroke-linejoin:miter;stroke-miterlimit:4;stroke-dasharray:none;stroke-opacity:1" />
      <text
         xml:space="preserve"
         style="font-style:normal;font-variant:normal;font-weight:400;font-size:3.88607px;line-height:125%;font-family:'Segoe UI Emoji';text-align:start;letter-spacing:0px;word-spacing:0px;text-anchor:start;fill:#0c7cba;fill-opacity:1;stroke:none;stroke-width:0.264583"
         x="169.43665"
         y="211.76517"
         id="text6660-5"><tspan
           style="fill:#0c7cba;fill-opacity:1;stroke-width:0.264583"
           sodipodi:role="line"
           x="169.43665"
           y="211.76517"
           id="tspan6658-0"><tspan
             dx="0"
             dy="0"
             style="font-style:normal;font-variant:normal;font-weight:400;font-size:3.88607px;font-family:'Segoe UI Emoji';fill:#0c7cba;fill-opacity:1;stroke-width:0.264583"
             id="tspan6654-8">▼</tspan><tspan
             dx="0"
             dy="0"
             style="font-style:normal;font-variant:normal;font-weight:400;font-size:3.88607px;font-family:Calibri;fill:#0c7cba;fill-opacity:1;stroke-width:0.264583"
             id="tspan6656-3"> </tspan></tspan></text>
    </g>
    <path
       style="fill:none;stroke:#0c7cba;stroke-width:0.565;stroke-linecap:butt;stroke-linejoin:miter;stroke-miterlimit:4;stroke-dasharray:none;stroke-opacity:1"
       d="m 237.74703,190.5997 -82.77679,0.37798"
       id="path6710"
       inkscape:connector-curvature="0" />
    <g
       id="g4841-2-8"
       transform="matrix(1,0,0,1.5611747,115.99144,-94.779649)">
      <text
         xml:space="preserve"
         style="font-style:normal;font-variant:normal;font-weight:400;font-size:3.88607px;line-height:125%;font-family:'Segoe UI Emoji';text-align:start;letter-spacing:0px;word-spacing:0px;text-anchor:start;fill:#000000;fill-opacity:1;stroke:none;stroke-width:0.264583"
         x="115.0924"
         y="183.07777"
         id="text3796-85-9"><tspan
           style="stroke-width:0.264583"
           sodipodi:role="line"
           x="115.0924"
           y="183.07777"
           id="tspan3794-8-5"><tspan
             dx="0"
             dy="0"
             style="font-style:normal;font-variant:normal;font-weight:400;font-size:3.88607px;font-family:'Segoe UI Emoji';fill:#000000;stroke-width:0.264583"
             id="tspan3790-2-7">▼</tspan><tspan
             dx="0"
             dy="0"
             style="font-style:normal;font-variant:normal;font-weight:400;font-size:3.88607px;font-family:Calibri;fill:#000000;stroke-width:0.264583"
             id="tspan3792-11-5"> </tspan></tspan></text>
      <path
         inkscape:connector-curvature="0"
         id="path4029-44-9"
         d="m 116.65221,168.59923 0.096,11.93686"
         style="fill:none;stroke:#000000;stroke-width:0.663;stroke-linecap:butt;stroke-linejoin:miter;stroke-miterlimit:4;stroke-dasharray:none;stroke-opacity:1" />
    </g>
    <path
       style="fill:none;stroke:#0c7cba;stroke-width:0.565;stroke-linecap:butt;stroke-linejoin:miter;stroke-miterlimit:4;stroke-dasharray:2.26, 2.26;stroke-dashoffset:0;stroke-opacity:1"
       d="m 174.625,200.04911 c -3.47629,7.77714 -14.3849,13.5651 -14.3849,13.5651 -30.35963,8.31236 -50.53121,-2.14055 -52.1389,-6.19456"
       id="path6742"
       inkscape:connector-curvature="0"
       sodipodi:nodetypes="csc" />
    <path
       style="fill:none;stroke:#0c7cba;stroke-width:0.757549;stroke-linecap:butt;stroke-linejoin:miter;stroke-miterlimit:4;stroke-dasharray:3.03019, 3.03019;stroke-dashoffset:0;stroke-opacity:1"
       d="m 198.91648,214.90799 c -9.84343,20.26847 -21.12914,22.22872 -21.12914,22.22872 -56.05448,14.09764 -66.4545,-7.73544 -68.64695,-13.07957"
       id="path6742-1"
       inkscape:connector-curvature="0"
       sodipodi:nodetypes="csc" />
    <text
       xml:space="preserve"
       style="font-style:normal;font-variant:normal;font-weight:400;font-size:3.88607px;line-height:125%;font-family:'Segoe UI Emoji';text-align:start;letter-spacing:0px;word-spacing:0px;text-anchor:start;fill:#0c7cba;fill-opacity:1;stroke:none;stroke-width:0.264583"
       x="-213.96759"
       y="96.765335"
       id="text6660-0"
       transform="rotate(-93.372332)"
       inkscape:transform-center-x="-0.47247024"
       inkscape:transform-center-y="-0.14174595"><tspan
         style="fill:#0c7cba;fill-opacity:1;stroke-width:0.264583"
         sodipodi:role="line"
         x="-213.96759"
         y="96.765335"
         id="tspan6658-9"><tspan
           dx="0"
           dy="0"
           style="font-style:normal;font-variant:normal;font-weight:400;font-size:3.88607px;font-family:'Segoe UI Emoji';fill:#0c7cba;fill-opacity:1;stroke-width:0.264583"
           id="tspan6654-2">▼</tspan><tspan
           dx="0"
           dy="0"
           style="font-style:normal;font-variant:normal;font-weight:400;font-size:3.88607px;font-family:Calibri;fill:#0c7cba;fill-opacity:1;stroke-width:0.264583"
           id="tspan6656-9"> </tspan></tspan></text>
    <text
       xml:space="preserve"
       style="font-style:normal;font-variant:normal;font-weight:400;font-size:3.88607px;line-height:125%;font-family:'Segoe UI Emoji';text-align:start;letter-spacing:0px;word-spacing:0px;text-anchor:start;fill:#0c7cba;fill-opacity:1;stroke:none;stroke-width:0.264583"
       x="-230.02197"
       y="96.751915"
       id="text6660-0-6"
       transform="rotate(-93.372332)"
       inkscape:transform-center-x="-0.47247024"
       inkscape:transform-center-y="-0.14174595"><tspan
         style="fill:#0c7cba;fill-opacity:1;stroke-width:0.264583"
         sodipodi:role="line"
         x="-230.02197"
         y="96.751915"
         id="tspan6658-9-9"><tspan
           dx="0"
           dy="0"
           style="font-style:normal;font-variant:normal;font-weight:400;font-size:3.88607px;font-family:'Segoe UI Emoji';fill:#0c7cba;fill-opacity:1;stroke-width:0.264583"
           id="tspan6654-2-5">▼</tspan><tspan
           dx="0"
           dy="0"
           style="font-style:normal;font-variant:normal;font-weight:400;font-size:3.88607px;font-family:Calibri;fill:#0c7cba;fill-opacity:1;stroke-width:0.264583"
           id="tspan6656-9-2"> </tspan></tspan></text>
    <text
       xml:space="preserve"
       style="font-style:normal;font-weight:normal;font-size:10.5833px;line-height:1.25;font-family:sans-serif;letter-spacing:0px;word-spacing:0px;fill:#000000;fill-opacity:1;stroke:none;stroke-width:0.264583"
       x="115.3268"
       y="187.8204"
       id="text6811" />
    <text
       xml:space="preserve"
       style="font-style:normal;font-weight:normal;font-size:10.5833px;line-height:1.25;font-family:sans-serif;letter-spacing:0px;word-spacing:0px;fill:#000000;fill-opacity:1;stroke:none;stroke-width:0.264583"
       x="110.11504"
       y="186.75133"
       id="text6815" />
    <text
       id="text6844"
       y="187.65944"
       x="108.09814"
       style="font-style:normal;font-variant:normal;font-weight:400;font-size:4.61634px;line-height:125%;font-family:'Cambria Math';text-align:start;letter-spacing:0px;word-spacing:0px;text-anchor:start;fill:#000000;fill-opacity:1;stroke:none;stroke-width:0.118792;stroke-miterlimit:4;stroke-dasharray:none"
       xml:space="preserve"><tspan
         id="tspan6842"
         y="187.65944"
         x="108.09814"
         sodipodi:role="line"
         style="font-size:3.77165px;line-height:125%;stroke-width:0.118792;stroke-miterlimit:4;stroke-dasharray:none"><tspan
           id="tspan6820"
           style="font-style:normal;font-variant:normal;font-weight:400;font-size:3.77165px;line-height:125%;font-family:'Cambria Math';fill:#000000;stroke-width:0.118792;stroke-miterlimit:4;stroke-dasharray:none"
           dy="0 0.92179447 0 -0.92179447 0 0 -1.67599 1.67599 0 0 0 0"
           dx="0 0 0.22352119 1.5757946 2.1366525 0 0 0.55692661 0 0 0 0">𝑅𝑎1=$5′000.000</tspan><tspan
           id="tspan6840"
           style="font-style:normal;font-variant:normal;font-weight:400;font-size:3.77165px;line-height:125%;font-family:'Nirmala UI';fill:#000000;stroke-width:0.118792;stroke-miterlimit:4;stroke-dasharray:none"
           dy="0"
           dx="0"> </tspan></tspan></text>
    <text
       xml:space="preserve"
       style="font-style:normal;font-weight:normal;font-size:10.5833px;line-height:1.25;font-family:sans-serif;letter-spacing:0px;word-spacing:0px;fill:#000000;fill-opacity:1;stroke:none;stroke-width:0.264583"
       x="131.76389"
       y="199.7139"
       id="text6868" />
    <text
       xml:space="preserve"
       style="font-style:normal;font-weight:normal;font-size:10.5833px;line-height:1.25;font-family:sans-serif;letter-spacing:0px;word-spacing:0px;fill:#000000;fill-opacity:1;stroke:none;stroke-width:0.264583"
       x="130.56117"
       y="199.98117"
       id="text6872" />
    <text
       id="text6901"
       y="202.63606"
       x="99.553078"
       style="font-style:normal;font-variant:normal;font-weight:400;font-size:5.0448px;line-height:125%;font-family:'Cambria Math';text-align:start;letter-spacing:0px;word-spacing:0px;text-anchor:start;fill:#000000;fill-opacity:1;stroke:none;stroke-width:0.343476"
       xml:space="preserve"><tspan
         id="tspan6899"
         y="202.63606"
         x="99.553078"
         sodipodi:role="line"
         style="stroke-width:0.343476"><tspan
           id="tspan6879"
           style="font-style:normal;font-variant:normal;font-weight:400;font-size:3.6709px;font-family:'Cambria Math';fill:#000000;stroke-width:0.343476"
           dy="0 0 1.00735"
           dx="0 0 0">VP𝑎</tspan><tspan
           id="tspan6883"
           style="font-style:normal;font-variant:normal;font-weight:400;font-size:5.0448px;font-family:'Cambria Math';fill:#000000;stroke-width:0.343476"
           dy="-1.00735 0"
           dx="1.7220505 2.334964">=$¿?</tspan><tspan
           id="tspan6897"
           style="font-style:normal;font-variant:normal;font-weight:400;font-size:5.0448px;font-family:'Nirmala UI';fill:#000000;stroke-width:0.343476"
           dy="0"
           dx="0"> </tspan></tspan></text>
    <text
       id="text6950"
       y="195.86333"
       x="182.52995"
       style="font-style:normal;font-variant:normal;font-weight:400;font-size:4.5821px;line-height:125%;font-family:'Cambria Math';text-align:start;letter-spacing:0px;word-spacing:0px;text-anchor:start;fill:#000000;fill-opacity:1;stroke:none;stroke-width:0.311973"
       xml:space="preserve"><tspan
         id="tspan6948"
         y="195.86333"
         x="182.52995"
         sodipodi:role="line"
         style="stroke-width:0.311973"><tspan
           id="tspan6926"
           style="font-style:normal;font-variant:normal;font-weight:400;font-size:4.5821px;font-family:'Cambria Math';fill:#000000;stroke-width:0.311973"
           dy="0"
           dx="0">𝑅</tspan><tspan
           id="tspan6928"
           style="font-style:normal;font-variant:normal;font-weight:400;font-size:3.33421px;font-family:'Cambria Math';fill:#000000;stroke-width:0.311973"
           dy="0.91495699"
           dx="0">𝑎2</tspan><tspan
           id="tspan6932"
           style="font-style:normal;font-variant:normal;font-weight:400;font-size:4.5821px;font-family:'Cambria Math';fill:#000000;stroke-width:0.311973"
           dy="-0.91495699 0"
           dx="1.564106 2.1208036">=$6</tspan><tspan
           id="tspan6938"
           style="font-style:normal;font-variant:normal;font-weight:400;font-size:3.33421px;font-family:'Cambria Math';fill:#000000;stroke-width:0.311973"
           dy="-1.6635582"
           dx="0">′</tspan><tspan
           id="tspan6940"
           style="font-style:normal;font-variant:normal;font-weight:400;font-size:4.5821px;font-family:'Cambria Math';fill:#000000;stroke-width:0.311973"
           dy="1.6635582 0 0 0 0"
           dx="0.55279553 0 0 0 0">000.000</tspan><tspan
           id="tspan6946"
           style="font-style:normal;font-variant:normal;font-weight:400;font-size:4.5821px;font-family:'Nirmala UI';fill:#000000;stroke-width:0.311973"
           dy="0"
           dx="0"> </tspan></tspan></text>
    <text
       id="text7097"
       y="200.19238"
       x="131.50002"
       style="font-style:normal;font-variant:normal;font-weight:400;font-size:4.22053px;line-height:125%;font-family:'Cambria Math';text-align:start;letter-spacing:0px;word-spacing:0px;text-anchor:start;fill:#000000;fill-opacity:1;stroke:none;stroke-width:0.287355"
       xml:space="preserve"><tspan
         id="tspan7095"
         y="200.19238"
         x="131.50002"
         sodipodi:role="line"
         style="stroke-width:0.287355"><tspan
           id="tspan7073"
           style="font-style:normal;font-variant:normal;font-weight:400;font-size:4.22053px;font-family:'Cambria Math';fill:#000000;stroke-width:0.287355"
           dy="0 -0.8427574"
           dx="0 1.4406818">j=30% naav</tspan><tspan
           id="tspan7093"
           style="font-style:normal;font-variant:normal;font-weight:400;font-size:4.22053px;font-family:'Nirmala UI';fill:#000000;stroke-width:0.287355"
           dy="0"
           dx="0"> </tspan></tspan></text>
    <text
       id="text7097-5"
       y="224.08696"
       x="157.36693"
       style="font-style:normal;font-variant:normal;font-weight:400;font-size:4.22053px;line-height:125%;font-family:'Cambria Math';text-align:start;letter-spacing:0px;word-spacing:0px;text-anchor:start;fill:#000000;fill-opacity:1;stroke:none;stroke-width:0.287355"
       xml:space="preserve"><tspan
         id="tspan7095-3"
         y="224.08696"
         x="157.36693"
         sodipodi:role="line"
         style="stroke-width:0.287355"><tspan
           id="tspan7073-2"
           style="font-style:normal;font-variant:normal;font-weight:400;font-size:4.22053px;font-family:'Cambria Math';fill:#000000;stroke-width:0.287355"
           dy="0 -0.8427574"
           dx="0 1.4406818">j=30% naav</tspan><tspan
           id="tspan7093-8"
           style="font-style:normal;font-variant:normal;font-weight:400;font-size:4.22053px;font-family:'Nirmala UI';fill:#000000;stroke-width:0.287355"
           dy="0"
           dx="0"> </tspan></tspan></text>
    <text
       id="text7158"
       y="206.01619"
       x="133.35744"
       style="font-style:normal;font-variant:normal;font-weight:400;font-size:3.88607px;line-height:125%;font-family:'Cambria Math';text-align:start;letter-spacing:0px;word-spacing:0px;text-anchor:start;fill:#000000;fill-opacity:1;stroke:none;stroke-width:0.264583"
       xml:space="preserve"><tspan
         id="tspan7156"
         y="206.01619"
         x="133.35744"
         sodipodi:role="line"
         style="stroke-width:0.264583"><tspan
           id="tspan7146"
           style="font-style:normal;font-variant:normal;font-weight:400;font-size:3.88607px;font-family:'Cambria Math';fill:#000000;stroke-width:0.264583"
           dy="0"
           dx="0">𝑛</tspan><tspan
           id="tspan7148"
           style="font-style:normal;font-variant:normal;font-weight:400;font-size:2.82773px;font-family:'Cambria Math';fill:#000000;stroke-width:0.264583"
           dy="0.77597266"
           dx="0">1</tspan><tspan
           id="tspan7150"
           style="font-style:normal;font-variant:normal;font-weight:400;font-size:3.88607px;font-family:'Cambria Math';fill:#000000;stroke-width:0.264583"
           dy="-0.77597266"
           dx="1.2559712">=</tspan><tspan
           id="tspan7152"
           style="font-style:normal;font-variant:normal;font-weight:400;font-size:3.88607px;font-family:'Cambria Math';fill:#000000;stroke-width:0.264583"
           dy="0"
           dx="1.7986481">∞ pav</tspan><tspan
           id="tspan7154"
           style="font-style:normal;font-variant:normal;font-weight:400;font-size:3.88607px;font-family:Calibri;fill:#000000;stroke-width:0.264583"
           dy="0"
           dx="0"> </tspan></tspan></text>
    <text
       id="text7222"
       y="230.61786"
       x="155.50233"
       style="font-style:normal;font-variant:normal;font-weight:400;font-size:4.15947px;line-height:125%;font-family:'Cambria Math';text-align:start;letter-spacing:0px;word-spacing:0px;text-anchor:start;fill:#000000;fill-opacity:1;stroke:none;stroke-width:0.283198"
       xml:space="preserve"><tspan
         id="tspan7220"
         y="230.61786"
         x="155.50233"
         sodipodi:role="line"
         style="stroke-width:0.283198"><tspan
           id="tspan7210"
           style="font-style:normal;font-variant:normal;font-weight:400;font-size:4.15947px;font-family:'Cambria Math';fill:#000000;stroke-width:0.283198"
           dy="0"
           dx="0">𝑛</tspan><tspan
           id="tspan7212"
           style="font-style:normal;font-variant:normal;font-weight:400;font-size:3.02668px;font-family:'Cambria Math';fill:#000000;stroke-width:0.283198"
           dy="0.83056659"
           dx="0">2</tspan><tspan
           id="tspan7214"
           style="font-style:normal;font-variant:normal;font-weight:400;font-size:4.15947px;font-family:'Cambria Math';fill:#000000;stroke-width:0.283198"
           dy="-0.83056659"
           dx="1.3443357">=</tspan><tspan
           id="tspan7216"
           style="font-style:normal;font-variant:normal;font-weight:400;font-size:4.15947px;font-family:'Cambria Math';fill:#000000;stroke-width:0.283198"
           dy="0"
           dx="2.0006988">∞ p(5a)v </tspan><tspan
           id="tspan7218"
           style="font-style:normal;font-variant:normal;font-weight:400;font-size:4.15947px;font-family:Calibri;fill:#000000;stroke-width:0.283198"
           dy="0"
           dx="0"> </tspan></tspan></text>
    <path
       style="fill:none;stroke:#000000;stroke-width:0.564999;stroke-linecap:butt;stroke-linejoin:miter;stroke-miterlimit:4;stroke-dasharray:none;stroke-opacity:1"
       d="m 118.42667,288.83027 137.91107,0.53454"
       id="path1323"
       inkscape:connector-curvature="0" />
    <path
       style="fill:none;stroke:#0c7cba;stroke-width:0.564999;stroke-linecap:butt;stroke-linejoin:miter;stroke-miterlimit:4;stroke-dasharray:none;stroke-opacity:1"
       d="m 130.18652,299.38742 124.5476,0.53454"
       id="path1325"
       inkscape:connector-curvature="0" />
    <path
       style="fill:none;stroke:#0c7cba;stroke-width:0.564999;stroke-linecap:butt;stroke-linejoin:miter;stroke-miterlimit:4;stroke-dasharray:1.695, 1.695;stroke-dashoffset:0;stroke-opacity:1"
       d="m 205.55653,313.95361 c 0,0 -6.1478,24.14847 -33.67596,24.58879 -27.521,0.44022 -56.2474,6.29569 -61.87289,-22.18336"
       id="path1335"
       inkscape:connector-curvature="0"
       sodipodi:nodetypes="csc" />
    <path
       style="fill:none;stroke:#0c7cba;stroke-width:0.564999;stroke-linecap:butt;stroke-linejoin:miter;stroke-miterlimit:4;stroke-dasharray:1.695, 1.695;stroke-dashoffset:0;stroke-opacity:1"
       d="m 157.31438,308.74185 c 0,0 -1.87088,12.96257 -17.23888,15.50164 -15.368,2.53906 -25.79151,-4.40994 -27.26149,-8.55262"
       id="path1339"
       inkscape:connector-curvature="0"
       sodipodi:nodetypes="csc" />
    <g
       id="g1368"
       transform="translate(18.33423,97.936276)">
      <path
         inkscape:connector-curvature="0"
         id="path1329"
         d="m 100.09244,174.7242 0.26727,12.56166"
         style="fill:none;stroke:#000000;stroke-width:0.565;stroke-linecap:butt;stroke-linejoin:miter;stroke-miterlimit:4;stroke-dasharray:none;stroke-opacity:1" />
      <text
         xml:space="preserve"
         style="font-style:normal;font-variant:normal;font-weight:400;font-size:3.88607px;line-height:125%;font-family:'Segoe UI Emoji';text-align:start;letter-spacing:0px;word-spacing:0px;text-anchor:start;fill:#000000;fill-opacity:1;stroke:none;stroke-width:0.264583"
         x="98.743851"
         y="189.98271"
         id="text1350"><tspan
           style="stroke-width:0.264583"
           sodipodi:role="line"
           x="98.743851"
           y="189.98271"
           id="tspan1348"><tspan
             dx="0"
             dy="0"
             style="font-style:normal;font-variant:normal;font-weight:400;font-size:3.88607px;font-family:'Segoe UI Emoji';fill:#000000;stroke-width:0.264583"
             id="tspan1344">▼</tspan><tspan
             dx="0"
             dy="0"
             style="font-style:normal;font-variant:normal;font-weight:400;font-size:3.88607px;font-family:Calibri;fill:#000000;stroke-width:0.264583"
             id="tspan1346"> </tspan></tspan></text>
    </g>
    <g
       transform="translate(37.444001,98.060834)"
       id="g1368-1">
      <path
         inkscape:connector-curvature="0"
         id="path1329-0"
         d="m 100.09244,174.7242 0.26727,12.56166"
         style="fill:none;stroke:#000000;stroke-width:0.565;stroke-linecap:butt;stroke-linejoin:miter;stroke-miterlimit:4;stroke-dasharray:none;stroke-opacity:1" />
      <text
         xml:space="preserve"
         style="font-style:normal;font-variant:normal;font-weight:400;font-size:3.88607px;line-height:125%;font-family:'Segoe UI Emoji';text-align:start;letter-spacing:0px;word-spacing:0px;text-anchor:start;fill:#000000;fill-opacity:1;stroke:none;stroke-width:0.264583"
         x="98.743851"
         y="189.98271"
         id="text1350-6"><tspan
           style="stroke-width:0.264583"
           sodipodi:role="line"
           x="98.743851"
           y="189.98271"
           id="tspan1348-7"><tspan
             dx="0"
             dy="0"
             style="font-style:normal;font-variant:normal;font-weight:400;font-size:3.88607px;font-family:'Segoe UI Emoji';fill:#000000;stroke-width:0.264583"
             id="tspan1344-6">▼</tspan><tspan
             dx="0"
             dy="0"
             style="font-style:normal;font-variant:normal;font-weight:400;font-size:3.88607px;font-family:Calibri;fill:#000000;stroke-width:0.264583"
             id="tspan1346-9"> </tspan></tspan></text>
    </g>
    <g
       transform="translate(27.55503,98.729008)"
       id="g1368-4">
      <path
         inkscape:connector-curvature="0"
         id="path1329-01"
         d="m 100.09244,174.7242 0.26727,12.56166"
         style="fill:none;stroke:#000000;stroke-width:0.565;stroke-linecap:butt;stroke-linejoin:miter;stroke-miterlimit:4;stroke-dasharray:none;stroke-opacity:1" />
      <text
         xml:space="preserve"
         style="font-style:normal;font-variant:normal;font-weight:400;font-size:3.88607px;line-height:125%;font-family:'Segoe UI Emoji';text-align:start;letter-spacing:0px;word-spacing:0px;text-anchor:start;fill:#000000;fill-opacity:1;stroke:none;stroke-width:0.264583"
         x="98.743851"
         y="189.98271"
         id="text1350-9"><tspan
           style="stroke-width:0.264583"
           sodipodi:role="line"
           x="98.743851"
           y="189.98271"
           id="tspan1348-1"><tspan
             dx="0"
             dy="0"
             style="font-style:normal;font-variant:normal;font-weight:400;font-size:3.88607px;font-family:'Segoe UI Emoji';fill:#000000;stroke-width:0.264583"
             id="tspan1344-66">▼</tspan><tspan
             dx="0"
             dy="0"
             style="font-style:normal;font-variant:normal;font-weight:400;font-size:3.88607px;font-family:Calibri;fill:#000000;stroke-width:0.264583"
             id="tspan1346-2"> </tspan></tspan></text>
    </g>
    <g
       transform="translate(66.710017,98.461736)"
       id="g1368-5">
      <path
         inkscape:connector-curvature="0"
         id="path1329-2"
         d="m 100.09244,174.7242 0.26727,12.56166"
         style="fill:none;stroke:#000000;stroke-width:0.565;stroke-linecap:butt;stroke-linejoin:miter;stroke-miterlimit:4;stroke-dasharray:none;stroke-opacity:1" />
      <text
         xml:space="preserve"
         style="font-style:normal;font-variant:normal;font-weight:400;font-size:3.88607px;line-height:125%;font-family:'Segoe UI Emoji';text-align:start;letter-spacing:0px;word-spacing:0px;text-anchor:start;fill:#000000;fill-opacity:1;stroke:none;stroke-width:0.264583"
         x="98.743851"
         y="189.98271"
         id="text1350-95"><tspan
           style="stroke-width:0.264583"
           sodipodi:role="line"
           x="98.743851"
           y="189.98271"
           id="tspan1348-3"><tspan
             dx="0"
             dy="0"
             style="font-style:normal;font-variant:normal;font-weight:400;font-size:3.88607px;font-family:'Segoe UI Emoji';fill:#000000;stroke-width:0.264583"
             id="tspan1344-5">▼</tspan><tspan
             dx="0"
             dy="0"
             style="font-style:normal;font-variant:normal;font-weight:400;font-size:3.88607px;font-family:Calibri;fill:#000000;stroke-width:0.264583"
             id="tspan1346-3"> </tspan></tspan></text>
    </g>
    <g
       transform="translate(58.157392,98.595372)"
       id="g1368-7">
      <path
         inkscape:connector-curvature="0"
         id="path1329-017"
         d="m 100.09244,174.7242 0.26727,12.56166"
         style="fill:none;stroke:#000000;stroke-width:0.565;stroke-linecap:butt;stroke-linejoin:miter;stroke-miterlimit:4;stroke-dasharray:none;stroke-opacity:1" />
      <text
         xml:space="preserve"
         style="font-style:normal;font-variant:normal;font-weight:400;font-size:3.88607px;line-height:125%;font-family:'Segoe UI Emoji';text-align:start;letter-spacing:0px;word-spacing:0px;text-anchor:start;fill:#000000;fill-opacity:1;stroke:none;stroke-width:0.264583"
         x="98.743851"
         y="189.98271"
         id="text1350-62"><tspan
           style="stroke-width:0.264583"
           sodipodi:role="line"
           x="98.743851"
           y="189.98271"
           id="tspan1348-5"><tspan
             dx="0"
             dy="0"
             style="font-style:normal;font-variant:normal;font-weight:400;font-size:3.88607px;font-family:'Segoe UI Emoji';fill:#000000;stroke-width:0.264583"
             id="tspan1344-8">▼</tspan><tspan
             dx="0"
             dy="0"
             style="font-style:normal;font-variant:normal;font-weight:400;font-size:3.88607px;font-family:Calibri;fill:#000000;stroke-width:0.264583"
             id="tspan1346-1"> </tspan></tspan></text>
    </g>
    <g
       transform="translate(47.065706,98.328103)"
       id="g1368-9">
      <path
         inkscape:connector-curvature="0"
         id="path1329-8"
         d="m 100.09244,174.7242 0.26727,12.56166"
         style="fill:none;stroke:#000000;stroke-width:0.565;stroke-linecap:butt;stroke-linejoin:miter;stroke-miterlimit:4;stroke-dasharray:none;stroke-opacity:1" />
      <text
         xml:space="preserve"
         style="font-style:normal;font-variant:normal;font-weight:400;font-size:3.88607px;line-height:125%;font-family:'Segoe UI Emoji';text-align:start;letter-spacing:0px;word-spacing:0px;text-anchor:start;fill:#000000;fill-opacity:1;stroke:none;stroke-width:0.264583"
         x="98.743851"
         y="189.98271"
         id="text1350-5"><tspan
           style="stroke-width:0.264583"
           sodipodi:role="line"
           x="98.743851"
           y="189.98271"
           id="tspan1348-4"><tspan
             dx="0"
             dy="0"
             style="font-style:normal;font-variant:normal;font-weight:400;font-size:3.88607px;font-family:'Segoe UI Emoji';fill:#000000;stroke-width:0.264583"
             id="tspan1344-9">▼</tspan><tspan
             dx="0"
             dy="0"
             style="font-style:normal;font-variant:normal;font-weight:400;font-size:3.88607px;font-family:Calibri;fill:#000000;stroke-width:0.264583"
             id="tspan1346-95"> </tspan></tspan></text>
    </g>
    <g
       transform="translate(76.598988,98.328103)"
       id="g1368-3">
      <path
         inkscape:connector-curvature="0"
         id="path1329-5"
         d="m 100.09244,174.7242 0.26727,12.56166"
         style="fill:none;stroke:#000000;stroke-width:0.565;stroke-linecap:butt;stroke-linejoin:miter;stroke-miterlimit:4;stroke-dasharray:none;stroke-opacity:1" />
      <text
         xml:space="preserve"
         style="font-style:normal;font-variant:normal;font-weight:400;font-size:3.88607px;line-height:125%;font-family:'Segoe UI Emoji';text-align:start;letter-spacing:0px;word-spacing:0px;text-anchor:start;fill:#000000;fill-opacity:1;stroke:none;stroke-width:0.264583"
         x="98.743851"
         y="189.98271"
         id="text1350-0"><tspan
           style="stroke-width:0.264583"
           sodipodi:role="line"
           x="98.743851"
           y="189.98271"
           id="tspan1348-6"><tspan
             dx="0"
             dy="0"
             style="font-style:normal;font-variant:normal;font-weight:400;font-size:3.88607px;font-family:'Segoe UI Emoji';fill:#000000;stroke-width:0.264583"
             id="tspan1344-7">▼</tspan><tspan
             dx="0"
             dy="0"
             style="font-style:normal;font-variant:normal;font-weight:400;font-size:3.88607px;font-family:Calibri;fill:#000000;stroke-width:0.264583"
             id="tspan1346-8"> </tspan></tspan></text>
    </g>
    <g
       transform="translate(86.087057,98.328103)"
       id="g1368-99">
      <path
         inkscape:connector-curvature="0"
         id="path1329-82"
         d="m 100.09244,174.7242 0.26727,12.56166"
         style="fill:none;stroke:#000000;stroke-width:0.565;stroke-linecap:butt;stroke-linejoin:miter;stroke-miterlimit:4;stroke-dasharray:none;stroke-opacity:1" />
      <text
         xml:space="preserve"
         style="font-style:normal;font-variant:normal;font-weight:400;font-size:3.88607px;line-height:125%;font-family:'Segoe UI Emoji';text-align:start;letter-spacing:0px;word-spacing:0px;text-anchor:start;fill:#000000;fill-opacity:1;stroke:none;stroke-width:0.264583"
         x="98.743851"
         y="189.98271"
         id="text1350-7"><tspan
           style="stroke-width:0.264583"
           sodipodi:role="line"
           x="98.743851"
           y="189.98271"
           id="tspan1348-0"><tspan
             dx="0"
             dy="0"
             style="font-style:normal;font-variant:normal;font-weight:400;font-size:3.88607px;font-family:'Segoe UI Emoji';fill:#000000;stroke-width:0.264583"
             id="tspan1344-1">▼</tspan><tspan
             dx="0"
             dy="0"
             style="font-style:normal;font-variant:normal;font-weight:400;font-size:3.88607px;font-family:Calibri;fill:#000000;stroke-width:0.264583"
             id="tspan1346-4"> </tspan></tspan></text>
    </g>
    <g
       transform="translate(96.510569,98.461736)"
       id="g1368-6">
      <path
         inkscape:connector-curvature="0"
         id="path1329-05"
         d="m 100.09244,174.7242 0.26727,12.56166"
         style="fill:none;stroke:#000000;stroke-width:0.565;stroke-linecap:butt;stroke-linejoin:miter;stroke-miterlimit:4;stroke-dasharray:none;stroke-opacity:1" />
      <text
         xml:space="preserve"
         style="font-style:normal;font-variant:normal;font-weight:400;font-size:3.88607px;line-height:125%;font-family:'Segoe UI Emoji';text-align:start;letter-spacing:0px;word-spacing:0px;text-anchor:start;fill:#000000;fill-opacity:1;stroke:none;stroke-width:0.264583"
         x="98.743851"
         y="189.98271"
         id="text1350-77"><tspan
           style="stroke-width:0.264583"
           sodipodi:role="line"
           x="98.743851"
           y="189.98271"
           id="tspan1348-18"><tspan
             dx="0"
             dy="0"
             style="font-style:normal;font-variant:normal;font-weight:400;font-size:3.88607px;font-family:'Segoe UI Emoji';fill:#000000;stroke-width:0.264583"
             id="tspan1344-72">▼</tspan><tspan
             dx="0"
             dy="0"
             style="font-style:normal;font-variant:normal;font-weight:400;font-size:3.88607px;font-family:Calibri;fill:#000000;stroke-width:0.264583"
             id="tspan1346-30"> </tspan></tspan></text>
    </g>
    <g
       transform="translate(106.13227,98.060834)"
       id="g1368-8">
      <path
         inkscape:connector-curvature="0"
         id="path1329-27"
         d="m 100.09244,174.7242 0.26727,12.56166"
         style="fill:none;stroke:#000000;stroke-width:0.565;stroke-linecap:butt;stroke-linejoin:miter;stroke-miterlimit:4;stroke-dasharray:none;stroke-opacity:1" />
      <text
         xml:space="preserve"
         style="font-style:normal;font-variant:normal;font-weight:400;font-size:3.88607px;line-height:125%;font-family:'Segoe UI Emoji';text-align:start;letter-spacing:0px;word-spacing:0px;text-anchor:start;fill:#000000;fill-opacity:1;stroke:none;stroke-width:0.264583"
         x="98.743851"
         y="189.98271"
         id="text1350-53"><tspan
           style="stroke-width:0.264583"
           sodipodi:role="line"
           x="98.743851"
           y="189.98271"
           id="tspan1348-2"><tspan
             dx="0"
             dy="0"
             style="font-style:normal;font-variant:normal;font-weight:400;font-size:3.88607px;font-family:'Segoe UI Emoji';fill:#000000;stroke-width:0.264583"
             id="tspan1344-78">▼</tspan><tspan
             dx="0"
             dy="0"
             style="font-style:normal;font-variant:normal;font-weight:400;font-size:3.88607px;font-family:Calibri;fill:#000000;stroke-width:0.264583"
             id="tspan1346-5"> </tspan></tspan></text>
    </g>
    <g
       transform="matrix(1,0,0,1.7353863,155.04259,-30.157278)"
       id="g1368-14">
      <path
         inkscape:connector-curvature="0"
         id="path1329-81"
         d="m 100.09244,174.7242 0.26727,12.56166"
         style="fill:none;stroke:#000000;stroke-width:0.565;stroke-linecap:butt;stroke-linejoin:miter;stroke-miterlimit:4;stroke-dasharray:none;stroke-opacity:1" />
      <text
         xml:space="preserve"
         style="font-style:normal;font-variant:normal;font-weight:400;font-size:3.88607px;line-height:125%;font-family:'Segoe UI Emoji';text-align:start;letter-spacing:0px;word-spacing:0px;text-anchor:start;fill:#000000;fill-opacity:1;stroke:none;stroke-width:0.264583"
         x="98.743851"
         y="189.98271"
         id="text1350-76"><tspan
           style="stroke-width:0.264583"
           sodipodi:role="line"
           x="98.743851"
           y="189.98271"
           id="tspan1348-63"><tspan
             dx="0"
             dy="0"
             style="font-style:normal;font-variant:normal;font-weight:400;font-size:3.88607px;font-family:'Segoe UI Emoji';fill:#000000;stroke-width:0.264583"
             id="tspan1344-4">▼</tspan><tspan
             dx="0"
             dy="0"
             style="font-style:normal;font-variant:normal;font-weight:400;font-size:3.88607px;font-family:Calibri;fill:#000000;stroke-width:0.264583"
             id="tspan1346-46"> </tspan></tspan></text>
    </g>
    <g
       id="g1586"
       transform="translate(18.33423,97.936276)">
      <path
         inkscape:connector-curvature="0"
         id="path1333"
         d="m 148.60186,182.47501 3.60813,4.94449 0.13364,12.02713"
         style="fill:none;stroke:#0c7cba;stroke-width:0.565;stroke-linecap:butt;stroke-linejoin:miter;stroke-miterlimit:4;stroke-dasharray:none;stroke-opacity:1" />
      <text
         xml:space="preserve"
         style="font-style:normal;font-variant:normal;font-weight:400;font-size:3.88607px;line-height:125%;font-family:'Segoe UI Emoji';text-align:start;letter-spacing:0px;word-spacing:0px;text-anchor:start;fill:#0c7cba;fill-opacity:1;stroke:#0c7cba;stroke-width:0.264583;stroke-opacity:1"
         x="150.59415"
         y="201.20802"
         id="text1568"><tspan
           style="fill:#0c7cba;fill-opacity:1;stroke:#0c7cba;stroke-width:0.264583;stroke-opacity:1"
           sodipodi:role="line"
           x="150.59415"
           y="201.20802"
           id="tspan1566"><tspan
             dx="0"
             dy="0"
             style="font-style:normal;font-variant:normal;font-weight:400;font-size:3.88607px;font-family:'Segoe UI Emoji';fill:#0c7cba;fill-opacity:1;stroke:#0c7cba;stroke-width:0.264583;stroke-opacity:1"
             id="tspan1562">▼</tspan><tspan
             dx="0"
             dy="0"
             style="font-style:normal;font-variant:normal;font-weight:400;font-size:3.88607px;font-family:Calibri;fill:#0c7cba;fill-opacity:1;stroke:#0c7cba;stroke-width:0.264583;stroke-opacity:1"
             id="tspan1564"> </tspan></tspan></text>
      <text
         xml:space="preserve"
         style="font-style:normal;font-variant:normal;font-weight:400;font-size:3.88607px;line-height:125%;font-family:'Segoe UI Emoji';text-align:start;letter-spacing:0px;word-spacing:0px;text-anchor:start;fill:#0c7cba;fill-opacity:1;stroke:#0c7cba;stroke-width:0.264583;stroke-opacity:1"
         x="217.2787"
         y="95.072441"
         id="text1568-63"
         transform="rotate(44.253784)"
         inkscape:transform-center-x="-9.8491812"
         inkscape:transform-center-y="1.2778291"><tspan
           style="fill:#0c7cba;fill-opacity:1;stroke:#0c7cba;stroke-width:0.264583;stroke-opacity:1"
           sodipodi:role="line"
           x="217.2787"
           y="95.072441"
           id="tspan1566-99"><tspan
             dx="0"
             dy="0"
             style="font-style:normal;font-variant:normal;font-weight:400;font-size:3.88607px;font-family:'Segoe UI Emoji';fill:#0c7cba;fill-opacity:1;stroke:#0c7cba;stroke-width:0.264583;stroke-opacity:1"
             id="tspan1562-9">▼</tspan><tspan
             dx="0"
             dy="0"
             style="font-style:normal;font-variant:normal;font-weight:400;font-size:3.88607px;font-family:Calibri;fill:#0c7cba;fill-opacity:1;stroke:#0c7cba;stroke-width:0.264583;stroke-opacity:1"
             id="tspan1564-0"> </tspan></tspan></text>
      <text
         xml:space="preserve"
         style="font-style:normal;font-variant:normal;font-weight:400;font-size:3.88607px;line-height:125%;font-family:'Segoe UI Emoji';text-align:start;letter-spacing:0px;word-spacing:0px;text-anchor:start;fill:#0c7cba;fill-opacity:1;stroke:#0c7cba;stroke-width:0.264583;stroke-opacity:1"
         x="217.16263"
         y="91.349159"
         id="text1568-63-9"
         transform="rotate(44.253784)"
         inkscape:transform-center-x="-9.8491812"
         inkscape:transform-center-y="1.2778291"><tspan
           style="fill:#0c7cba;fill-opacity:1;stroke:#0c7cba;stroke-width:0.264583;stroke-opacity:1"
           sodipodi:role="line"
           x="217.16263"
           y="91.349159"
           id="tspan1566-99-6"><tspan
             dx="0"
             dy="0"
             style="font-style:normal;font-variant:normal;font-weight:400;font-size:3.88607px;font-family:'Segoe UI Emoji';fill:#0c7cba;fill-opacity:1;stroke:#0c7cba;stroke-width:0.264583;stroke-opacity:1"
             id="tspan1562-9-3">▼</tspan><tspan
             dx="0"
             dy="0"
             style="font-style:normal;font-variant:normal;font-weight:400;font-size:3.88607px;font-family:Calibri;fill:#0c7cba;fill-opacity:1;stroke:#0c7cba;stroke-width:0.264583;stroke-opacity:1"
             id="tspan1564-0-8"> </tspan></tspan></text>
    </g>
    <g
       transform="translate(38.430357,98.342221)"
       id="g1586-2">
      <path
         inkscape:connector-curvature="0"
         id="path1333-5"
         d="m 148.60186,182.47501 3.60813,4.94449 0.13364,12.02713"
         style="fill:none;stroke:#0c7cba;stroke-width:0.565;stroke-linecap:butt;stroke-linejoin:miter;stroke-miterlimit:4;stroke-dasharray:none;stroke-opacity:1" />
      <text
         xml:space="preserve"
         style="font-style:normal;font-variant:normal;font-weight:400;font-size:3.88607px;line-height:125%;font-family:'Segoe UI Emoji';text-align:start;letter-spacing:0px;word-spacing:0px;text-anchor:start;fill:#0c7cba;fill-opacity:1;stroke:#0c7cba;stroke-width:0.264583;stroke-opacity:1"
         x="150.59415"
         y="201.20802"
         id="text1568-8"><tspan
           style="fill:#0c7cba;fill-opacity:1;stroke:#0c7cba;stroke-width:0.264583;stroke-opacity:1"
           sodipodi:role="line"
           x="150.59415"
           y="201.20802"
           id="tspan1566-8"><tspan
             dx="0"
             dy="0"
             style="font-style:normal;font-variant:normal;font-weight:400;font-size:3.88607px;font-family:'Segoe UI Emoji';fill:#0c7cba;fill-opacity:1;stroke:#0c7cba;stroke-width:0.264583;stroke-opacity:1"
             id="tspan1562-0">▼</tspan><tspan
             dx="0"
             dy="0"
             style="font-style:normal;font-variant:normal;font-weight:400;font-size:3.88607px;font-family:Calibri;fill:#0c7cba;fill-opacity:1;stroke:#0c7cba;stroke-width:0.264583;stroke-opacity:1"
             id="tspan1564-5"> </tspan></tspan></text>
    </g>
    <g
       transform="translate(58.074667,98.074952)"
       id="g1586-7">
      <path
         inkscape:connector-curvature="0"
         id="path1333-9"
         d="m 148.60186,182.47501 3.60813,4.94449 0.13364,12.02713"
         style="fill:none;stroke:#0c7cba;stroke-width:0.565;stroke-linecap:butt;stroke-linejoin:miter;stroke-miterlimit:4;stroke-dasharray:none;stroke-opacity:1" />
      <text
         xml:space="preserve"
         style="font-style:normal;font-variant:normal;font-weight:400;font-size:3.88607px;line-height:125%;font-family:'Segoe UI Emoji';text-align:start;letter-spacing:0px;word-spacing:0px;text-anchor:start;fill:#0c7cba;fill-opacity:1;stroke:#0c7cba;stroke-width:0.264583;stroke-opacity:1"
         x="150.59415"
         y="201.20802"
         id="text1568-82"><tspan
           style="fill:#0c7cba;fill-opacity:1;stroke:#0c7cba;stroke-width:0.264583;stroke-opacity:1"
           sodipodi:role="line"
           x="150.59415"
           y="201.20802"
           id="tspan1566-9"><tspan
             dx="0"
             dy="0"
             style="font-style:normal;font-variant:normal;font-weight:400;font-size:3.88607px;font-family:'Segoe UI Emoji';fill:#0c7cba;fill-opacity:1;stroke:#0c7cba;stroke-width:0.264583;stroke-opacity:1"
             id="tspan1562-02">▼</tspan><tspan
             dx="0"
             dy="0"
             style="font-style:normal;font-variant:normal;font-weight:400;font-size:3.88607px;font-family:Calibri;fill:#0c7cba;fill-opacity:1;stroke:#0c7cba;stroke-width:0.264583;stroke-opacity:1"
             id="tspan1564-2"> </tspan></tspan></text>
    </g>
    <g
       id="g1683"
       transform="translate(18.33423,97.936276)">
      <path
         inkscape:connector-curvature="0"
         id="path514"
         d="m 89.26802,174.32329 c 149.67093,0.26727 149.67093,0.26727 149.67093,0.26727"
         style="fill:none;stroke:#000000;stroke-width:0.565;stroke-linecap:butt;stroke-linejoin:miter;stroke-miterlimit:4;stroke-dasharray:none;stroke-opacity:1" />
      <text
         transform="scale(0.80391189,1.2439174)"
         xml:space="preserve"
         style="font-style:normal;font-variant:normal;font-weight:400;font-size:7.60175px;line-height:125%;font-family:'Segoe UI Emoji';text-align:start;letter-spacing:0px;word-spacing:0px;text-anchor:start;fill:#000000;fill-opacity:1;stroke:none;stroke-width:0.517566"
         x="296.71558"
         y="142.8988"
         id="text1665"><tspan
           style="stroke-width:0.517566"
           sodipodi:role="line"
           x="296.71558"
           y="142.8988"
           id="tspan1663"><tspan
             dx="0"
             dy="0"
             style="font-style:normal;font-variant:normal;font-weight:400;font-size:7.60175px;font-family:'Segoe UI Emoji';fill:#000000;stroke-width:0.517566"
             id="tspan1659">►</tspan><tspan
             dx="0"
             dy="0"
             style="font-style:normal;font-variant:normal;font-weight:400;font-size:7.60175px;font-family:Calibri;fill:#000000;stroke-width:0.517566"
             id="tspan1661"> </tspan></tspan></text>
    </g>
    <g
       transform="translate(-0.590991,97.540415)"
       id="g1586-1">
      <path
         inkscape:connector-curvature="0"
         id="path1333-1"
         d="m 148.60186,182.47501 3.60813,4.94449 0.13364,12.02713"
         style="fill:none;stroke:#0c7cba;stroke-width:0.565;stroke-linecap:butt;stroke-linejoin:miter;stroke-miterlimit:4;stroke-dasharray:none;stroke-opacity:1" />
      <text
         xml:space="preserve"
         style="font-style:normal;font-variant:normal;font-weight:400;font-size:3.88607px;line-height:125%;font-family:'Segoe UI Emoji';text-align:start;letter-spacing:0px;word-spacing:0px;text-anchor:start;fill:#0c7cba;fill-opacity:1;stroke:#0c7cba;stroke-width:0.264583;stroke-opacity:1"
         x="150.59415"
         y="201.20802"
         id="text1568-6"><tspan
           style="fill:#0c7cba;fill-opacity:1;stroke:#0c7cba;stroke-width:0.264583;stroke-opacity:1"
           sodipodi:role="line"
           x="150.59415"
           y="201.20802"
           id="tspan1566-1"><tspan
             dx="0"
             dy="0"
             style="font-style:normal;font-variant:normal;font-weight:400;font-size:3.88607px;font-family:'Segoe UI Emoji';fill:#0c7cba;fill-opacity:1;stroke:#0c7cba;stroke-width:0.264583;stroke-opacity:1"
             id="tspan1562-3">▼</tspan><tspan
             dx="0"
             dy="0"
             style="font-style:normal;font-variant:normal;font-weight:400;font-size:3.88607px;font-family:Calibri;fill:#0c7cba;fill-opacity:1;stroke:#0c7cba;stroke-width:0.264583;stroke-opacity:1"
             id="tspan1564-6"> </tspan></tspan></text>
    </g>
    <g
       transform="translate(-20.769841,97.13951)"
       id="g1586-5">
      <path
         inkscape:connector-curvature="0"
         id="path1333-4"
         d="m 148.60186,182.47501 3.60813,4.94449 0.13364,12.02713"
         style="fill:none;stroke:#0c7cba;stroke-width:0.565;stroke-linecap:butt;stroke-linejoin:miter;stroke-miterlimit:4;stroke-dasharray:none;stroke-opacity:1" />
      <text
         xml:space="preserve"
         style="font-style:normal;font-variant:normal;font-weight:400;font-size:3.88607px;line-height:125%;font-family:'Segoe UI Emoji';text-align:start;letter-spacing:0px;word-spacing:0px;text-anchor:start;fill:#0c7cba;fill-opacity:1;stroke:#0c7cba;stroke-width:0.264583;stroke-opacity:1"
         x="150.59415"
         y="201.20802"
         id="text1568-4"><tspan
           style="fill:#0c7cba;fill-opacity:1;stroke:#0c7cba;stroke-width:0.264583;stroke-opacity:1"
           sodipodi:role="line"
           x="150.59415"
           y="201.20802"
           id="tspan1566-7"><tspan
             dx="0"
             dy="0"
             style="font-style:normal;font-variant:normal;font-weight:400;font-size:3.88607px;font-family:'Segoe UI Emoji';fill:#0c7cba;fill-opacity:1;stroke:#0c7cba;stroke-width:0.264583;stroke-opacity:1"
             id="tspan1562-1">▼</tspan><tspan
             dx="0"
             dy="0"
             style="font-style:normal;font-variant:normal;font-weight:400;font-size:3.88607px;font-family:Calibri;fill:#0c7cba;fill-opacity:1;stroke:#0c7cba;stroke-width:0.264583;stroke-opacity:1"
             id="tspan1564-8"> </tspan></tspan></text>
    </g>
    <path
       style="fill:none;stroke:#000000;stroke-width:0.564999;stroke-linecap:butt;stroke-linejoin:miter;stroke-miterlimit:4;stroke-dasharray:2.26, 0.564999;stroke-dashoffset:0;stroke-opacity:1"
       d="m 108.27043,253.81796 v 18.30797"
       id="path1779"
       inkscape:connector-curvature="0"
       sodipodi:nodetypes="cc" />
    <text
       xml:space="preserve"
       style="font-style:normal;font-weight:normal;font-size:10.5833px;line-height:1.25;font-family:sans-serif;letter-spacing:0px;word-spacing:0px;fill:#000000;fill-opacity:1;stroke:none;stroke-width:0.264583"
       x="105.86499"
       y="250.74438"
       id="text1783"><tspan
         sodipodi:role="line"
         id="tspan1781"
         x="105.86499"
         y="250.74438"
         style="font-style:normal;font-variant:normal;font-weight:normal;font-stretch:normal;font-size:4.5861px;font-family:'Lucida Calligraphy';-inkscape-font-specification:'Lucida Calligraphy';stroke-width:0.264583">ff</tspan></text>
    <text
       xml:space="preserve"
       style="font-style:normal;font-weight:normal;font-size:4.61203px;line-height:1.25;font-family:sans-serif;letter-spacing:0px;word-spacing:0px;fill:#000000;fill-opacity:1;stroke:none;stroke-width:0.115301"
       x="112.63508"
       y="268.73993"
       id="text1787"
       transform="scale(0.96962495,1.0313266)"><tspan
         sodipodi:role="line"
         id="tspan1785"
         x="112.63508"
         y="268.73993"
         style="stroke-width:0.115301">0</tspan></text>
    <text
       xml:space="preserve"
       style="font-style:normal;font-weight:normal;font-size:4.61203px;line-height:1.25;font-family:sans-serif;letter-spacing:0px;word-spacing:0px;fill:#000000;fill-opacity:1;stroke:none;stroke-width:0.115301"
       x="122.87342"
       y="268.64536"
       id="text1787-5"
       transform="scale(0.96962495,1.0313266)"><tspan
         sodipodi:role="line"
         x="122.87342"
         y="268.64536"
         style="stroke-width:0.115301"
         id="tspan1879">1</tspan></text>
    <text
       xml:space="preserve"
       style="font-style:normal;font-weight:normal;font-size:4.61203px;line-height:1.25;font-family:sans-serif;letter-spacing:0px;word-spacing:0px;fill:#000000;fill-opacity:1;stroke:none;stroke-width:0.115301"
       x="132.24525"
       y="268.77496"
       id="text1787-3"
       transform="scale(0.96962495,1.0313266)"><tspan
         sodipodi:role="line"
         id="tspan1785-2"
         x="132.24525"
         y="268.77496"
         style="stroke-width:0.115301">2</tspan></text>
    <text
       xml:space="preserve"
       style="font-style:normal;font-weight:normal;font-size:4.61203px;line-height:1.25;font-family:sans-serif;letter-spacing:0px;word-spacing:0px;fill:#000000;fill-opacity:1;stroke:none;stroke-width:0.115301"
       x="142.85748"
       y="268.90451"
       id="text1787-1"
       transform="scale(0.96962495,1.0313266)"><tspan
         sodipodi:role="line"
         id="tspan1785-7"
         x="142.85748"
         y="268.90451"
         style="stroke-width:0.115301">3</tspan></text>
    <text
       xml:space="preserve"
       style="font-style:normal;font-weight:normal;font-size:4.61203px;line-height:1.25;font-family:sans-serif;letter-spacing:0px;word-spacing:0px;fill:#000000;fill-opacity:1;stroke:none;stroke-width:0.115301"
       x="153.05623"
       y="268.51578"
       id="text1787-34"
       transform="scale(0.96962495,1.0313266)"><tspan
         sodipodi:role="line"
         id="tspan1785-74"
         x="153.05623"
         y="268.51578"
         style="stroke-width:0.115301">4</tspan></text>
    <text
       xml:space="preserve"
       style="font-style:normal;font-weight:normal;font-size:4.61203px;line-height:1.25;font-family:sans-serif;letter-spacing:0px;word-spacing:0px;fill:#000000;fill-opacity:1;stroke:none;stroke-width:0.115301"
       x="164.08192"
       y="268.90451"
       id="text1787-14"
       transform="scale(0.96962495,1.0313266)"><tspan
         sodipodi:role="line"
         id="tspan1785-3"
         x="164.08192"
         y="268.90451"
         style="stroke-width:0.115301">5</tspan></text>
    <text
       xml:space="preserve"
       style="font-style:normal;font-weight:normal;font-size:4.61203px;line-height:1.25;font-family:sans-serif;letter-spacing:0px;word-spacing:0px;fill:#000000;fill-opacity:1;stroke:none;stroke-width:0.115301"
       x="174.28069"
       y="269.03409"
       id="text1787-2"
       transform="scale(0.96962495,1.0313266)"><tspan
         sodipodi:role="line"
         id="tspan1785-4"
         x="174.28069"
         y="269.03409"
         style="stroke-width:0.115301">6</tspan></text>
    <text
       xml:space="preserve"
       style="font-style:normal;font-weight:normal;font-size:4.61203px;line-height:1.25;font-family:sans-serif;letter-spacing:0px;word-spacing:0px;fill:#000000;fill-opacity:1;stroke:none;stroke-width:0.115301"
       x="184.06598"
       y="268.90451"
       id="text1787-7"
       transform="scale(0.96962495,1.0313266)"><tspan
         sodipodi:role="line"
         id="tspan1785-75"
         x="184.06598"
         y="268.90451"
         style="stroke-width:0.115301">7</tspan></text>
    <text
       xml:space="preserve"
       style="font-style:normal;font-weight:normal;font-size:4.61203px;line-height:1.25;font-family:sans-serif;letter-spacing:0px;word-spacing:0px;fill:#000000;fill-opacity:1;stroke:none;stroke-width:0.115301"
       x="193.85127"
       y="269.16367"
       id="text1787-4"
       transform="scale(0.96962495,1.0313266)"><tspan
         sodipodi:role="line"
         id="tspan1785-9"
         x="193.85127"
         y="269.16367"
         style="stroke-width:0.115301">8</tspan></text>
    <text
       xml:space="preserve"
       style="font-style:normal;font-weight:normal;font-size:4.61203px;line-height:1.25;font-family:sans-serif;letter-spacing:0px;word-spacing:0px;fill:#000000;fill-opacity:1;stroke:none;stroke-width:0.115301"
       x="203.91222"
       y="268.77496"
       id="text1787-70"
       transform="scale(0.96962495,1.0313266)"><tspan
         sodipodi:role="line"
         id="tspan1785-0"
         x="203.91222"
         y="268.77496"
         style="stroke-width:0.115301">9</tspan></text>
    <text
       xml:space="preserve"
       style="font-style:normal;font-weight:normal;font-size:4.61203px;line-height:1.25;font-family:sans-serif;letter-spacing:0px;word-spacing:0px;fill:#000000;fill-opacity:1;stroke:none;stroke-width:0.115301"
       x="213.00839"
       y="268.77496"
       id="text1787-9"
       transform="scale(0.96962495,1.0313266)"><tspan
         sodipodi:role="line"
         id="tspan1785-5"
         x="213.00839"
         y="268.77496"
         style="stroke-width:0.115301">10</tspan></text>
    <text
       xml:space="preserve"
       style="font-style:normal;font-weight:normal;font-size:9.05642px;line-height:1.25;font-family:sans-serif;letter-spacing:0px;word-spacing:0px;fill:#000000;fill-opacity:1;stroke:none;stroke-width:0.226411"
       x="240.98087"
       y="260.50476"
       id="text1885"
       transform="scale(0.94111916,1.0625647)"><tspan
         sodipodi:role="line"
         id="tspan1883"
         x="240.98087"
         y="260.50476"
         style="stroke-width:0.226411">...</tspan></text>
    <text
       id="text1894"
       y="277.51303"
       x="172.92851"
       style="font-style:normal;font-variant:normal;font-weight:400;font-size:3.88607px;line-height:125%;font-family:Calibri;text-align:start;letter-spacing:0px;word-spacing:0px;text-anchor:start;fill:#000000;fill-opacity:1;stroke:none;stroke-width:0.264583"
       xml:space="preserve"><tspan
         id="tspan1892"
         y="277.51303"
         x="172.92851"
         sodipodi:role="line"
         style="stroke-width:0.264583"><tspan
           id="tspan1890"
           style="font-style:normal;font-variant:normal;font-weight:400;font-size:3.88607px;font-family:Calibri;fill:#000000;stroke-width:0.264583"
           dy="0"
           dx="0"> </tspan></tspan></text>
    <text
       id="text1926"
       y="323.28198"
       x="167.00279"
       style="font-style:normal;font-variant:normal;font-weight:400;font-size:3.88607px;line-height:125.254%;font-family:'Cambria Math';text-align:start;letter-spacing:0px;word-spacing:0px;text-anchor:start;fill:#000000;fill-opacity:1;stroke:none;stroke-width:0.264583"
       xml:space="preserve"><tspan
         id="tspan1920"
         y="323.28198"
         x="167.00279"
         sodipodi:role="line"
         style="font-size:4.23333px;stroke-width:0.264583"><tspan
           id="tspan1896"
           style="font-style:normal;font-variant:normal;font-weight:400;font-size:4.23333px;font-family:'Cambria Math';fill:#000000;stroke-width:0.264583"
           dy="0"
           dx="0">𝑛2=∞ 𝑝(2𝑎)𝑣</tspan><tspan
           id="tspan1918"
           style="font-style:normal;font-variant:normal;font-weight:400;font-size:4.23333px;font-family:Arial;fill:#222222;stroke-width:0.264583"
           dy="0"
           dx="0"> </tspan></tspan><tspan
         id="tspan1924"
         y="328.14944"
         x="167.00279"
         sodipodi:role="line"
         style="stroke-width:0.264583"><tspan
           id="tspan1922"
           style="font-style:italic;font-variant:normal;font-weight:400;font-size:3.88607px;font-family:'Cambria Math';fill:#000000;stroke-width:0.264583"
           dy="0"
           dx="0"> </tspan></tspan></text>
    <text
       id="text1944"
       y="306.44016"
       x="101.99089"
       style="font-style:normal;font-variant:normal;font-weight:400;font-size:3.88607px;line-height:125%;font-family:'Cambria Math';text-align:start;letter-spacing:0px;word-spacing:0px;text-anchor:start;fill:#000000;fill-opacity:1;stroke:none;stroke-width:0.264583"
       xml:space="preserve"><tspan
         id="tspan1942"
         y="306.44016"
         x="101.99089"
         sodipodi:role="line"
         style="font-size:4.23333px;stroke-width:0.264583"><tspan
           id="tspan1928"
           style="font-style:normal;font-variant:normal;font-weight:400;font-size:4.23333px;font-family:'Cambria Math';fill:#000000;stroke-width:0.264583"
           dy="0"
           dx="0">𝑉𝑃𝑏=$¿?</tspan><tspan
           id="tspan1940"
           style="font-style:normal;font-variant:normal;font-weight:400;font-size:4.23333px;font-family:Arial;fill:#222222;stroke-width:0.264583"
           dy="0"
           dx="0"> </tspan></tspan></text>
    <text
       id="text1970"
       y="314.3183"
       x="125.34961"
       style="font-style:normal;font-variant:normal;font-weight:400;font-size:3.88607px;line-height:127.07%;font-family:'Cambria Math';text-align:start;letter-spacing:0px;word-spacing:0px;text-anchor:start;fill:#000000;fill-opacity:1;stroke:none;stroke-width:0.264583"
       xml:space="preserve"><tspan
         id="tspan1964"
         y="314.3183"
         x="125.34961"
         sodipodi:role="line"
         style="font-size:4.23333px;stroke-width:0.264583"><tspan
           id="tspan1946"
           style="font-style:normal;font-variant:normal;font-weight:400;font-size:4.23333px;font-family:'Cambria Math';fill:#000000;stroke-width:0.264583"
           dy="0"
           dx="0">𝑛1=∞ 𝑝𝑎𝑣</tspan><tspan
           id="tspan1962"
           style="font-style:normal;font-variant:normal;font-weight:400;font-size:4.23333px;font-family:Arial;fill:#222222;stroke-width:0.264583"
           dy="0"
           dx="0"> </tspan></tspan><tspan
         id="tspan1968"
         y="319.25632"
         x="125.34961"
         sodipodi:role="line"
         style="stroke-width:0.264583"><tspan
           id="tspan1966"
           style="font-style:italic;font-variant:normal;font-weight:400;font-size:3.88607px;font-family:'Cambria Math';fill:#000000;stroke-width:0.264583"
           dy="0"
           dx="0"> </tspan></tspan></text>
    <text
       id="text2101"
       y="316.25842"
       x="164.78653"
       style="font-style:normal;font-variant:normal;font-weight:400;font-size:3.88607px;line-height:125%;font-family:'Cambria Math';text-align:start;letter-spacing:0px;word-spacing:0px;text-anchor:start;fill:#000000;fill-opacity:1;stroke:none;stroke-width:0.264583"
       xml:space="preserve"><tspan
         id="tspan2099"
         y="316.25842"
         x="164.78653"
         sodipodi:role="line"
         style="font-size:4.23333px;stroke-width:0.264583"><tspan
           id="tspan2089"
           style="font-style:normal;font-variant:normal;font-weight:400;font-size:4.23333px;font-family:'Cambria Math';fill:#000000;stroke-width:0.264583"
           dy="0"
           dx="0">𝑗 =30%𝑛𝑎𝑎𝑣</tspan><tspan
           id="tspan2097"
           style="font-style:normal;font-variant:normal;font-weight:400;font-size:4.23333px;font-family:Calibri;fill:#000000;stroke-width:0.264583"
           dy="0"
           dx="0"> </tspan></tspan></text>
    <text
       id="text2132"
       y="307.56497"
       x="125.28801"
       style="font-style:normal;font-variant:normal;font-weight:400;font-size:3.88607px;line-height:125%;font-family:'Cambria Math';text-align:start;letter-spacing:0px;word-spacing:0px;text-anchor:start;fill:#000000;fill-opacity:1;stroke:none;stroke-width:0.264583"
       xml:space="preserve"><tspan
         id="tspan2130"
         y="307.56497"
         x="125.28801"
         sodipodi:role="line"
         style="font-size:4.23333px;stroke-width:0.264583"><tspan
           id="tspan2120"
           style="font-style:normal;font-variant:normal;font-weight:400;font-size:4.23333px;font-family:'Cambria Math';fill:#000000;stroke-width:0.264583"
           dy="0"
           dx="0">𝑗 =30%𝑛𝑎𝑎𝑣</tspan><tspan
           id="tspan2128"
           style="font-style:normal;font-variant:normal;font-weight:400;font-size:4.23333px;font-family:Calibri;fill:#000000;stroke-width:0.264583"
           dy="0"
           dx="0"> </tspan></tspan></text>
    <text
       id="text2171"
       y="304.89563"
       x="196.33545"
       style="font-style:normal;font-variant:normal;font-weight:400;font-size:3.88607px;line-height:125%;font-family:'Cambria Math';text-align:start;letter-spacing:0px;word-spacing:0px;text-anchor:start;fill:#000000;fill-opacity:1;stroke:none;stroke-width:0.264583"
       xml:space="preserve"><tspan
         id="tspan2169"
         y="304.89563"
         x="196.33545"
         sodipodi:role="line"
         style="font-size:4.23333px;stroke-width:0.264583"><tspan
           id="tspan2151"
           style="font-style:normal;font-variant:normal;font-weight:400;font-size:4.23333px;font-family:'Cambria Math';fill:#000000;stroke-width:0.264583"
           dy="0"
           dx="0">𝑅𝑏2=$1´000.000</tspan><tspan
           id="tspan2167"
           style="font-style:normal;font-variant:normal;font-weight:400;font-size:4.23333px;font-family:Calibri;fill:#000000;stroke-width:0.264583"
           dy="0"
           dx="0"> </tspan></tspan></text>
    <text
       id="text2212"
       y="294.50128"
       x="100.14052"
       style="font-style:normal;font-variant:normal;font-weight:400;font-size:3.88607px;line-height:125%;font-family:'Cambria Math';text-align:start;letter-spacing:0px;word-spacing:0px;text-anchor:start;fill:#000000;fill-opacity:1;stroke:none;stroke-width:0.264583"
       xml:space="preserve"><tspan
         id="tspan2210"
         y="294.50128"
         x="100.14052"
         sodipodi:role="line"
         style="font-size:4.23333px;stroke-width:0.264583"><tspan
           id="tspan2194"
           style="font-style:normal;font-variant:normal;font-weight:400;font-size:4.23333px;font-family:'Cambria Math';fill:#000000;stroke-width:0.264583"
           dy="0"
           dx="0">𝑅𝑏1=$5´100.000</tspan><tspan
           id="tspan2208"
           style="font-style:normal;font-variant:normal;font-weight:400;font-size:4.23333px;font-family:Arial;fill:#000000;stroke-width:0.264583"
           dy="0"
           dx="0"> </tspan></tspan></text>
    <text
       id="text2246"
       y="277.73276"
       x="258.03824"
       style="font-style:normal;font-variant:normal;font-weight:400;font-size:3.88607px;line-height:125%;font-family:'Cambria Math';text-align:start;letter-spacing:0px;word-spacing:0px;text-anchor:start;fill:#000000;fill-opacity:1;stroke:none;stroke-width:0.264583"
       xml:space="preserve"><tspan
         id="tspan2244"
         y="277.73276"
         x="258.03824"
         sodipodi:role="line"
         style="font-size:4.23333px;stroke-width:0.264583"><tspan
           id="tspan2234"
           style="font-style:normal;font-variant:normal;font-weight:400;font-size:4.23333px;font-family:'Cambria Math';fill:#000000;stroke-width:0.264583"
           dy="0"
           dx="0">∞ 𝑝𝑎𝑣</tspan><tspan
           id="tspan2242"
           style="font-style:normal;font-variant:normal;font-weight:400;font-size:4.23333px;font-family:Arial;fill:#222222;stroke-width:0.264583"
           dy="0"
           dx="0"> </tspan></tspan></text>
  </g>
</svg>
